waveforms/add.s.vcd
$date
2025-09-08T08:14+0000
$end
$version
0.2
$end
$comment

$end
$timescale 1ns  $end
$scope module Tile $end
 $var wire 1 * io_regsWriteEnable $end
 $var wire 32 + io_regsReadData $end
 $var wire 32 4 io_IMEMAddress $end
 $var wire 1 < io_regsDeviceWriteEnable $end
 $var wire 32 I io_DMEMAddress $end
 $var wire 32 Z io_DMEMWriteData $end
 $var wire 1 ] CPU $end
 $var wire 32 _ io_regsDeviceWriteData $end
 $var wire 5 a io_regsDeviceWriteAddress $end
 $var wire 1 i clock $end
 $var wire 32 l io_currentPC $end
 $var wire 5 m io_regsAddress $end
 $var wire 1 u io_DMEMWriteEnable $end
 $var wire 32 v io_memDeviceWriteAddress $end
 $var wire 32 ~ io_IMEMWriteData $end
 $var wire 32 "! io_memDeviceWriteData $end
 $var wire 32 ") io_DMEMReadData $end
 $var wire 1 ", reset $end
 $var wire 1 "2 io_setup $end
 $var wire 1 "7 io_memDeviceWriteEnable $end
 $var wire 32 "A io_regsWriteData $end
  $scope module CPU.MEM $end
  $upscope $end
  $scope module CPU.ID.registers $end
  $upscope $end
  $scope module CPU.IF $end
  $upscope $end
  $scope module CPU.IF.IMEM $end
  $upscope $end
  $scope module CPU.MEM.DMEM $end
  $upscope $end
  $scope module CPU $end
   $var wire 1 2 testHarness_regUpdates_writeEnable $end
   $var wire 1 > ID $end
   $var wire 1 D testHarness_memUpdates_writeEnable $end
   $var wire 32 K testHarness_regUpdates_writeData $end
   $var wire 5 L testHarness_regUpdates_writeAddress $end
   $var wire 5 M testHarness_setupSignals_registerSignals_readAddress $end
   $var wire 32 P testHarness_testReadouts_registerRead $end
   $var wire 32 T testHarness_currentPC $end
   $var wire 1 W IF $end
   $var wire 32 [ testHarness_memUpdates_writeAddress $end
   $var wire 1 ^ testHarness_setupSignals_DMEMsignals_setup $end
   $var wire 32 d testHarness_testReadouts_DMEMread $end
   $var wire 32 f testHarness_setupSignals_DMEMsignals_dataIn $end
   $var wire 1 g testHarness_setupSignals_IMEMsignals_setup $end
   $var wire 1 q clock $end
   $var wire 32 s testHarness_setupSignals_DMEMsignals_dataAddress $end
   $var wire 1 x testHarness_setupSignals_registerSignals_setup $end
   $var wire 1 { MEM $end
   $var wire 1 "" testHarness_setupSignals_registerSignals_writeEnable $end
   $var wire 32 "6 testHarness_memUpdates_writeData $end
   $var wire 32 "= testHarness_setupSignals_registerSignals_writeData $end
   $var wire 1 "@ reset $end
   $var wire 1 "B testHarness_setupSignals_DMEMsignals_writeEnable $end
    $scope module MEM $end
     $var wire 1 8 DMEM $end
     $var wire 32 ; testHarness_testUpdates_writeAddress $end
     $var wire 32 U testHarness_DMEMsetup_dataAddress $end
     $var wire 1 p testHarness_testUpdates_writeEnable $end
     $var wire 1 z testHarness_DMEMsetup_writeEnable $end
     $var wire 32 } testHarness_DMEMpeek $end
     $var wire 1 "* testHarness_DMEMsetup_setup $end
     $var wire 32 "0 testHarness_testUpdates_writeData $end
     $var wire 1 "4 clock $end
     $var wire 32 "> testHarness_DMEMsetup_dataIn $end
      $scope module DMEM $end
       $var wire 32 & testHarness_testUpdates_writeData $end
       $var wire 1 ) _GEN_6 $end
       $var wire 12 - data__T_24_addr_pipe_0 $end
       $var wire 1 6 testHarness_testUpdates_writeEnable $end
       $var wire 32 : testHarness_setup_dataAddress $end
       $var wire 32 ? testHarness_testUpdates_writeAddress $end
       $var wire 32 F addressSource $end
       $var wire 32 J data $end
       $var wire 1 r testHarness_setup_writeEnable $end
       $var wire 1 t testHarness_setup_setup $end
       $var wire 1 "& clock $end
       $var wire 32 "+ testHarness_setup_dataIn $end
       $var wire 32 "9 io_dataOut $end
        $scope module data $end
          $scope module _T_26 $end
           $var wire 1 ! clk $end
           $var wire 12 B addr $end
           $var wire 32 G pipeline_data_0 $end
           $var wire 1 \ pipeline_valid_0 $end
           $var wire 32 c data $end
           $var wire 1 "# en $end
           $var wire 12 "' pipeline_addr_0 $end
           $var wire 1 "- valid $end
           $var wire 1 "< mask $end
          $upscope $end
          $scope module _T_24 $end
           $var wire 32 5 data $end
           $var wire 1 h clk $end
           $var wire 1 "% en $end
           $var wire 12 "( addr $end
          $upscope $end
        $upscope $end
      $upscope $end
    $upscope $end
    $scope module ID $end
     $var wire 1 " testHarness_registerSetup_writeEnable $end
     $var wire 32 = testHarness_registerPeek $end
     $var wire 1 C testHarness_testUpdates_writeEnable $end
     $var wire 32 H testHarness_registerSetup_writeData $end
     $var wire 5 N testHarness_testUpdates_writeAddress $end
     $var wire 5 k testHarness_registerSetup_readAddress $end
     $var wire 1 o registers $end
     $var wire 1 "3 testHarness_registerSetup_setup $end
     $var wire 32 "5 testHarness_testUpdates_writeData $end
     $var wire 1 ": clock $end
      $scope module registers $end
       $var wire 1 % testHarness_testUpdates_writeEnable $end
       $var wire 1 ' testHarness_setup_setup $end
       $var wire 32 , testHarness_testUpdates_writeData $end
       $var wire 5 . readAddress1 $end
       $var wire 1 0 clock $end
       $var wire 32 1 io_readData1 $end
       $var wire 32 3 registerFile $end
       $var wire 1 7 testHarness_setup_writeEnable $end
       $var wire 1 @ writeEnable $end
       $var wire 5 O testHarness_testUpdates_writeAddress $end
       $var wire 32 ` testHarness_setup_writeData $end
       $var wire 5 y testHarness_setup_readAddress $end
        $scope module registerFile $end
          $scope module _T_33 $end
           $var wire 1 # en $end
           $var wire 1 ( pipeline_valid_0 $end
           $var wire 1 / clk $end
           $var wire 5 S pipeline_addr_0 $end
           $var wire 1 V mask $end
           $var wire 1 e valid $end
           $var wire 5 w addr $end
           $var wire 32 "$ pipeline_data_0 $end
           $var wire 32 "8 data $end
          $upscope $end
          $scope module _T_41 $end
           $var wire 32 A data $end
           $var wire 1 R en $end
           $var wire 1 n clk $end
           $var wire 5 "1 addr $end
          $upscope $end
          $scope module _T_38 $end
           $var wire 1 E clk $end
           $var wire 1 b en $end
           $var wire 5 j addr $end
           $var wire 32 ". data $end
          $upscope $end
        $upscope $end
      $upscope $end
    $upscope $end
    $scope module IF $end
     $var wire 1 $ testHarness_IMEMsetup_setup $end
     $var wire 1 9 IMEM $end
     $var wire 32 Q PC $end
     $var wire 1 X clock $end
     $var wire 32 Y testHarness_PC $end
     $var wire 1 | reset $end
     $var wire 32 "? _GEN_0 $end
      $scope module IMEM $end
       $var wire 32 "/ testHarness_requestedAddress $end
       $var wire 32 "; io_instructionAddress $end
      $upscope $end
    $upscope $end
  $upscope $end
  $scope module CPU.ID $end
  $upscope $end
$upscope $end
$enddefinitions $end
$dumpvars
b00000000000000000000000000000000 Y
0C
0"7
1"<
0""
0X
b00000000000000000000000000000000 ">
0o
0R
b00000000000000000000000000000000 "8
b00000000000000000000000000000000 l
b00000000000000000000000000000000 :
b00000000000000000000000000000000 Q
b00000000000000000000000000000000 }
0g
b00000000000000000000000000000000 `
b00000000000000000000000000000000 ".
b00000000000000000000000000000000 K
b000000000000 "(
0"@
0D
0/
0"#
0x
0":
b00000 S
0z
0r
0]
b00000000000000000000000000000000 s
1)
b00000 j
b00000000000000000000000000000000 A
0@
0W
b00000000000000000000000000000000 ;
0%
b00000 O
b000000000000 -
b00000000000000000000000000000000 "=
b00000000000000000000000000000000 Z
0p
b00000000000000000000000000000000 T
0>
0"2
b00000000000000000000000000000000 ?
06
0!
b00000 .
b00000000000000000000000000000000 "9
0"4
b00000 y
b00000000000000000000000000000000 P
b00000000000000000000000000000000 3
0{
b00000000000000000000000000000000 "5
b00000000000000000000000000000000 J
b000000000000 "'
b00000000000000000000000000000000 "/
0"*
0b
0E
00
0(
b00000000000000000000000000000000 "+
b00000000000000000000000000000000 _
0u
1V
b00000000000000000000000000000000 [
b00000000000000000000000000000000 "6
b00000000000000000000000000000000 "!
0q
0i
b00000000000000000000000000000000 U
0"3
b00000 a
b00000 L
07
0"
09
0"-
b00000000000000000000000000000000 f
0e
b00000 "1
b00000000000000000000000000000000 I
b00000000000000000000000000000000 4
0|
b00000000000000000000000000000000 "0
b00000000000000000000000000000000 d
0"B
b00000000000000000000000000000000 G
b00000000000000000000000000000000 "A
b00000000000000000000000000000000 "$
b00000000000000000000000000000000 ,
b00000 M
0t
b00000000000000000000000000000000 ";
b00000000000000000000000000000000 &
0n
b00000000000000000000000000000000 =
0'
0<
b00000000000000000000000000000000 "?
b00000 w
08
0",
0#
02
b000000000000 B
b00000000000000000000000000000000 5
b00000000000000000000000000000000 ~
0h
b00000 m
b00000000000000000000000000000000 c
b00000000000000000000000000000000 ")
b00000000000000000000000000000000 F
b00000000000000000000000000000000 1
0\
b00000000000000000000000000000000 H
0"&
b00000000000000000000000000000000 +
0*
0^
b00000 k
1"%
b00000 N
0$
b00000000000000000000000000000000 v
$end
#0
1|
1"@
1",
#1
1!
1"4
1h
1/
1":
1"&
1E
1X
1i
1q
1n
10
#6
0i
0"4
00
0":
0/
0!
0n
0"&
0X
0h
0q
0E
#11
1!
1"4
1h
1/
1":
1"&
1E
1X
1i
1q
1n
10
#16
0i
0"4
00
0":
0/
0!
0n
0"&
0X
0h
0q
0E
#21
1!
1"4
1h
1/
1":
1"&
1E
1X
1i
1q
1n
10
#26
0i
0"4
00
0":
0/
0!
0n
0"&
0X
0h
0q
0E
#31
1!
1"4
1h
1/
1":
1"&
1E
1X
1i
1q
1n
10
#36
0i
0"4
00
0":
0/
0!
0n
0"&
0X
0h
0q
0E
#41
1!
1"4
1h
1/
1":
1"&
1E
1X
1i
1q
1n
10
#46
0i
0"4
0"@
0":
1'
0/
0!
0"&
1"*
0X
0h
b00000000011000101000001010110011 ~
1^
1x
0|
0E
1"3
00
1"2
1g
0n
1$
1t
0q
0",
#51
1!
1"4
1h
1/
1":
1"&
1E
1X
1i
1q
1n
10
#56
0i
0"4
0":
0/
0!
0"&
0X
0h
b00000000000000000000000000010011 ~
0E
00
0n
0q
b00000000000000000000000000000100 4
#61
1!
1"4
1h
1/
1":
1"&
1E
1X
1i
1q
1n
10
#66
0i
0"4
00
0":
0/
0!
b00000000000000000000000000001000 4
0n
0"&
0X
0h
0q
0E
#71
1!
1"4
1h
1/
1":
1"&
1E
1X
1i
1q
1n
10
#76
0i
0"4
00
0":
0/
0!
0n
0"&
0X
0h
b00000000000000000000000000001100 4
0q
0E
#81
1!
1"4
1h
1/
1":
1"&
1E
1X
1i
1q
1n
10
#86
0i
0"4
00
b00000000000000000000000000010000 4
0":
0/
0!
0n
0"&
0X
0h
0q
0E
#91
1!
1"4
1h
1/
1":
1"&
1E
1X
1i
1q
1n
10
#96
0i
0"4
0":
0/
0!
0"&
0X
0h
0E
00
0n
b00000000011000101000001110110011 ~
b00000000000000000000000000010100 4
0q
#101
1!
1"4
1h
1/
1":
1"&
1E
1X
1i
1q
1n
10
#106
0i
0"4
0":
0/
0!
0"&
0X
0h
b00000000000000000000000000010011 ~
0E
00
0n
0q
b00000000000000000000000000011000 4
#111
1!
1"4
1h
1/
1":
1"&
1E
1X
1i
1q
1n
10
#116
0i
0"4
00
0":
0/
0!
b00000000000000000000000000011100 4
0n
0"&
0X
0h
0q
0E
#121
1!
1"4
1h
1/
1":
1"&
1E
1X
1i
1q
1n
10
#126
0i
0"4
00
0":
0/
0!
0n
0"&
b00000000000000000000000000100000 4
0X
0h
0q
0E
#131
1!
1"4
1h
1/
1":
1"&
1E
1X
1i
1q
1n
10
#136
0i
0"4
00
b00000000000000000000000000100100 4
0":
0/
0!
0n
0"&
0X
0h
0q
0E
#141
1!
1"4
1h
1/
1":
1"&
1E
1X
1i
1q
1n
10
#146
0i
0"4
b00000000000000000000000000101000 4
0":
0/
0!
0"&
0X
0h
b00000000011000101000000000110011 ~
0E
00
0n
0q
#151
1!
1"4
1h
1/
1":
1"&
1E
1X
1i
1q
1n
10
#156
0i
0"4
0":
0/
0!
0"&
0X
0h
b00000000000000000000000000010011 ~
0E
00
b00000000000000000000000000101100 4
0n
0q
#161
1!
1"4
1h
1/
1":
1"&
1E
1X
1i
1q
1n
10
#166
0i
0"4
00
0":
0/
0!
0n
0"&
b00000000000000000000000000110000 4
0X
0h
0q
0E
#171
1!
1"4
1h
1/
1":
1"&
1E
1X
1i
1q
1n
10
#176
0i
0"4
00
0":
0/
0!
0n
0"&
0X
0h
0q
b00000000000000000000000000110100 4
0E
#181
1!
1"4
1h
1/
1":
1"&
1E
1X
1i
1q
1n
10
#186
0i
0"4
00
0":
0/
0!
b00000000000000000000000000111000 4
0n
0"&
0X
0h
0q
0E
#191
1!
1"4
1h
1/
1":
1"&
1E
1X
1i
1q
1n
10
#196
0i
0"4
0":
b00000000011000111000001110110011 ~
0/
0!
0"&
0X
0h
0E
00
0n
b00000000000000000000000000111100 4
0q
#201
1!
1"4
1h
1/
1":
1"&
1E
1X
1i
1q
1n
10
#206
0i
0"4
0":
0/
0!
0"&
0X
0h
b00000000000000000000000000010011 ~
0E
00
0n
b00000000000000000000000001000000 4
0q
#211
1!
1"4
1h
1/
1":
1"&
1E
1X
1i
1q
1n
10
#216
0i
0"4
00
0":
b00000000000000000000000001000100 4
0/
0!
0n
0"&
0X
0h
0q
0E
#221
1!
1"4
1h
1/
1":
1"&
1E
1X
1i
1q
1n
10
#226
0i
0"4
00
0":
0/
0!
b00000000000000000000000001001000 4
0n
0"&
0X
0h
0q
0E
#231
1!
1"4
1h
1/
1":
1"&
1E
1X
1i
1q
1n
10
#236
0i
0"4
00
0":
0/
0!
0n
0"&
0X
0h
0q
b00000000000000000000000001001100 4
0E
#241
1!
1"4
1h
1/
1":
1"&
1E
1X
1i
1q
1n
10
#246
0i
0"4
0":
0/
0!
b00000001110011100000111000110011 ~
0"&
0X
0h
0E
00
0n
b00000000000000000000000001010000 4
0q
#251
1!
1"4
1h
1/
1":
1"&
1E
1X
1i
1q
1n
10
#256
0i
0"4
0":
0/
0!
0"&
0X
0h
b00000000000000000000000000010011 ~
0E
00
b00000000000000000000000001010100 4
0n
0q
#261
1!
1"4
1h
1/
1":
1"&
1E
1X
1i
1q
1n
10
#266
0i
0"4
00
0":
0/
0!
0n
0"&
b00000000000000000000000001011000 4
0X
0h
0q
0E
#271
1!
1"4
1h
1/
1":
1"&
1E
1X
1i
1q
1n
10
#276
0i
0"4
00
0":
0/
0!
0n
0"&
0X
0h
b00000000000000000000000001011100 4
0q
0E
#281
1!
1"4
1h
1/
1":
1"&
1E
1X
1i
1q
1n
10
#286
0i
0"4
00
0":
b00000000000000000000000001100000 4
0/
0!
0n
0"&
0X
0h
0q
0E
#291
1!
1"4
1h
1/
1":
1"&
1E
1X
1i
1q
1n
10
#296
0i
0"4
0":
0/
0!
b00000001110011100000111000110011 ~
0"&
0X
0h
0E
00
0n
0q
b00000000000000000000000001100100 4
#301
1!
1"4
1h
1/
1":
1"&
1E
1X
1i
1q
1n
10
#306
0i
0"4
0":
0/
0!
0"&
0X
0h
b00000000000000000000000000010011 ~
0E
00
b00000000000000000000000001101000 4
0n
0q
#311
1!
1"4
1h
1/
1":
1"&
1E
1X
1i
1q
1n
10
#316
0i
0"4
00
0":
0/
0!
0n
0"&
b00000000000000000000000001101100 4
0X
0h
0q
0E
#321
1!
1"4
1h
1/
1":
1"&
1E
1X
1i
1q
1n
10
#326
0i
0"4
00
b00000000000000000000000001110000 4
0":
0/
0!
0n
0"&
0X
0h
0q
0E
#331
1!
1"4
1h
1/
1":
1"&
1E
1X
1i
1q
1n
10
#336
0i
0"4
00
0":
0/
0!
b00000000000000000000000001110100 4
0n
0"&
0X
0h
0q
0E
#341
1!
1"4
1h
1/
1":
1"&
1E
1X
1i
1q
1n
10
#346
0i
0"4
0":
0/
0!
b00000001110011100000111000110011 ~
0"&
0X
0h
0E
00
b00000000000000000000000001111000 4
0n
0q
#351
1!
1"4
1h
1/
1":
1"&
1E
1X
1i
1q
1n
10
#356
0i
0"4
0":
0/
0!
0"&
0X
0h
b00000000000000000000000000010011 ~
0E
00
b00000000000000000000000001111100 4
0n
0q
#361
1!
1"4
1h
1/
1":
1"&
1E
1X
1i
1q
1n
10
#366
0i
0"4
00
0":
0/
0!
0n
0"&
b00000000000000000000000010000000 4
0X
0h
0q
0E
#371
1!
1"4
1h
1/
1":
1"&
1E
1X
1i
1q
1n
10
#376
0i
0"4
00
b00000000000000000000000010000100 4
0":
0/
0!
0n
0"&
0X
0h
0q
0E
#381
1!
1"4
1h
1/
1":
1"&
1E
1X
1i
1q
1n
10
#386
0i
0"4
00
0":
0/
0!
0n
0"&
0X
0h
b00000000000000000000000010001000 4
0q
0E
#391
1!
1"4
1h
1/
1":
1"&
1E
1X
1i
1q
1n
10
#396
0i
0"4
b00000000000000000000000010001100 4
0":
0/
0!
0"&
0X
0h
0E
00
0n
b00000000000000000000000000110011 ~
0q
#401
1!
1"4
1h
1/
1":
1"&
1E
1X
1i
1q
1n
10
#406
0i
0"4
0":
0/
0!
0"&
0X
0h
b00000000000000000000000000010011 ~
0E
00
0n
b00000000000000000000000010010000 4
0q
#411
1!
1"4
1h
1/
1":
1"&
1E
1X
1i
1q
1n
10
#416
0i
0"4
00
0":
0/
0!
0n
0"&
0X
0h
b00000000000000000000000010010100 4
0q
0E
#421
1!
1"4
1h
1/
1":
1"&
1E
1X
1i
1q
1n
10
#426
0i
0"4
00
0":
b00000000000000000000000010011000 4
0/
0!
0n
0"&
0X
0h
0q
0E
#431
1!
1"4
1h
1/
1":
1"&
1E
1X
1i
1q
1n
10
#436
0i
0"4
00
b00000000000000000000000010011100 4
0":
0/
0!
0n
0"&
0X
0h
0q
0E
#441
1!
1"4
1h
1/
1":
1"&
1E
1X
1i
1q
1n
10
#446
0i
0"4
00
0":
b00000000000000000000000010100000 4
0/
0!
0n
0"&
0X
0h
0q
0E
#451
1!
1"4
1h
1/
1":
1"&
1E
1X
1i
1q
1n
10
#456
0i
0"4
00
0":
0/
0!
0n
0"&
b00000000000000000000000010100100 4
0X
0h
0q
0E
#461
1!
1"4
1h
1/
1":
1"&
1E
1X
1i
1q
1n
10
#466
0i
0"4
00
b00000000000000000000000010101000 4
0":
0/
0!
0n
0"&
0X
0h
0q
0E
#471
1!
1"4
1h
1/
1":
1"&
1E
1X
1i
1q
1n
10
#476
0i
0"4
00
0":
0/
0!
0n
0"&
b00000000000000000000000010101100 4
0X
0h
0q
0E
#481
1!
1"4
1h
1/
1":
1"&
1E
1X
1i
1q
1n
10
#486
0i
0"4
00
0":
0/
0!
b00000000000000000000000010110000 4
0n
0"&
0X
0h
0q
0E
#491
1!
1"4
1h
1/
1":
1"&
1E
1X
1i
1q
1n
10
#496
0"4
1C
b01110 N
0/
1""
0X
0h
1e
1@
00
b01110 k
b01110 M
1%
b01110 L
0q
1<
0i
1*
0":
b00000000000000000000000000000000 ~
0!
b01110 j
0"&
b01110 .
1b
b01110 a
0E
b01110 m
b01110 y
b01110 O
1"
0n
1#
17
b01110 w
12
b00000000000000000000111111111100 4
#501
1"4
1":
1"&
1E
1X
1i
b01110 S
1q
10
1n
1(
1!
1h
1/
#506
0i
0"4
b01010 w
0":
0/
0!
b01010 a
b01010 j
b01010 .
0"&
0X
0h
0E
00
b01010 k
b01010 M
b01010 m
b01010 y
0n
b01010 O
b01010 L
b01010 N
0q
#511
1!
1"4
1h
1/
1":
b01010 S
1"&
1E
1X
1i
1q
1n
10
#516
0i
0"4
b10001 L
b10001 a
b10001 .
0":
0/
0!
0"&
b10001 O
0X
0h
b10001 j
0E
00
b10001 M
b10001 k
0n
b10001 N
b10001 w
b10001 m
b10001 y
0q
#521
1!
1"4
1h
1/
1":
1"&
b10001 S
1X
1E
1i
1q
1n
10
#526
0i
0"4
0#
0":
0/
0!
b00000 N
0"&
b00000 m
0X
0h
b00000 .
b00000 M
0E
0e
0b
00
b00000 j
b00000 y
0n
b00000 k
b00000 w
b00000 L
b00000 a
0q
b00000 O
#531
1"4
1":
1"&
0(
1E
1X
1i
1q
1n
10
1!
1/
1h
b00000 S
#536
0i
0"4
0":
0/
0!
b00100 O
0"&
1b
0X
0h
1e
b00100 .
0E
b00100 y
00
b00100 a
b00100 k
b00100 L
b00100 m
b00100 M
1#
0n
b00100 j
b00100 N
0q
b00100 w
#541
1"4
1":
1"&
1E
b00100 S
1X
1i
1q
1n
10
1(
1!
1h
1/
#546
0i
0"4
b11000 y
b11000 j
0":
0/
0!
b11000 N
b11000 w
b11000 a
0"&
b11000 .
0X
0h
0E
b11000 M
00
b11000 m
0n
b11000 L
b11000 k
b11000 O
0q
#551
1!
1"4
1h
1/
1":
1"&
b11000 S
1E
1X
1i
1q
1n
10
#556
0"4
b00110 M
b00110 .
0/
b00110 k
b00110 m
0X
0h
00
b00110 a
b00110 w
b00110 j
b00000000000000000000000000010111 H
b00110 L
b00000000000000000000000000010111 "5
0q
0i
b00000000000000000000000000010111 "A
b00000000000000000000000000010111 ,
0":
0!
b00110 O
0"&
b00110 N
b00110 y
b00000000000000000000000000010111 _
b00000000000000000000000000010111 K
0E
b00000000000000000000000000010111 "=
0n
b00000000000000000000000000010111 "8
b00000000000000000000000000010111 `
#561
1"4
1":
b00000000000000000000000000010111 +
1"&
b00000000000000000000000000010111 1
1E
1X
b00000000000000000000000000010111 P
1i
1q
1n
10
b00000000000000000000000000010111 "$
1!
1/
1h
b00000000000000000000000000010111 =
b00110 S
b00000000000000000000000000010111 ".
#566
0"4
b10100 M
b10100 O
0/
b00000000000000000000000000000000 `
b10100 L
0X
0h
b10100 N
b00000000000000000000000000000000 P
b00000000000000000000000000000000 +
00
b00000000000000000000000000000000 H
b00000000000000000000000000000000 =
b00000000000000000000000000000000 "5
b10100 j
b10100 m
b00000000000000000000000000000000 "=
b00000000000000000000000000000000 _
0q
b10100 .
b10100 y
b00000000000000000000000000000000 1
0i
0":
b00000000000000000000000000000000 K
0!
0"&
b00000000000000000000000000000000 "A
b10100 a
b00000000000000000000000000000000 "8
0E
0n
b00000000000000000000000000000000 ,
b00000000000000000000000000000000 ".
b10100 w
b10100 k
#571
1"4
b00000000000000000000000000000000 "$
1":
1"&
1E
1X
1i
1q
1n
10
1!
1/
1h
b10100 S
#576
0"4
0/
b00111 m
b00111 y
0X
0h
b00000000000000000000000000101011 `
00
b00111 j
b00111 N
b00000000000000000000000000101011 "=
0q
b00111 w
0i
b00000000000000000000000000101011 H
b00000000000000000000000000101011 ,
b00111 M
0":
0!
b00111 O
b00111 L
0"&
b00000000000000000000000000101011 _
b00000000000000000000000000101011 K
0E
b00111 k
b00111 a
b00000000000000000000000000101011 "8
b00000000000000000000000000101011 "A
0n
b00000000000000000000000000101011 "5
b00111 .
#581
1"4
b00000000000000000000000000101011 ".
1":
b00111 S
1"&
1E
1X
1i
1q
1n
10
1!
1/
1h
b00000000000000000000000000101011 "$
b00000000000000000000000000101011 1
b00000000000000000000000000101011 =
b00000000000000000000000000101011 P
b00000000000000000000000000101011 +
#586
0"4
b00001 a
0/
b00000000000000000000000000000000 `
b00001 m
0X
0h
b00000000000000000000000000000000 P
b00000000000000000000000000000000 +
00
b00000000000000000000000000000000 H
b00001 N
b00000000000000000000000000000000 =
b00001 O
b00000000000000000000000000000000 "5
b00001 k
b00000000000000000000000000000000 "=
b00001 j
b00000000000000000000000000000000 _
b00001 .
0q
b00001 M
b00000000000000000000000000000000 1
0i
b00001 L
b00001 w
0":
b00000000000000000000000000000000 K
0!
0"&
b00000000000000000000000000000000 "A
b00001 y
b00000000000000000000000000000000 "8
0E
0n
b00000000000000000000000000000000 ,
b00000000000000000000000000000000 ".
#591
1"4
b00000000000000000000000000000000 "$
1":
1"&
1E
1X
1i
1q
1n
10
1!
1/
b00001 S
1h
#596
0i
0"4
b11011 w
0":
b11011 .
0/
0!
0"&
0X
0h
b11011 M
b11011 O
b11011 j
0E
b11011 N
00
b11011 L
0n
b11011 y
b11011 m
b11011 a
0q
b11011 k
#601
1!
1"4
1h
b11011 S
1/
1":
1"&
1E
1X
1i
1q
1n
10
#606
0i
0"4
0":
b01101 M
b01101 k
b01101 w
0/
0!
b01101 L
0"&
0X
0h
b01101 a
b01101 m
0E
b01101 j
00
b01101 O
b01101 N
0n
b01101 .
b01101 y
0q
#611
1!
1"4
1h
1/
1":
1"&
1E
1X
1i
1q
1n
10
b01101 S
#616
0i
0"4
b01011 k
0":
0/
0!
b01011 .
0"&
0X
0h
0E
b01011 y
00
b01011 m
b01011 L
b01011 M
0n
b01011 j
b01011 w
0q
b01011 N
b01011 O
b01011 a
#621
1!
1"4
1h
1/
1":
1"&
1E
1X
b01011 S
1i
1q
1n
10
#626
0i
0"4
b01100 y
b01100 k
0":
b01100 M
b01100 w
0/
0!
0"&
b01100 a
b01100 O
0X
0h
b01100 .
0E
00
b01100 m
0n
b01100 L
b01100 j
0q
b01100 N
#631
1!
1"4
1h
1/
1":
1"&
1E
1X
1i
1q
1n
b01100 S
10
#636
0i
0"4
0":
b00011 j
0/
0!
0"&
b00011 k
b00011 w
0X
0h
b00011 a
0E
00
b00011 m
b00011 .
b00011 y
b00011 M
b00011 N
0n
b00011 O
0q
b00011 L
#641
b00011 S
1"4
1!
1h
1/
1":
1"&
1E
1X
1i
1q
1n
10
#646
0"4
b00000000000000000000000000001010 "=
b00101 m
b00101 .
b00000000000000000000000000001010 "A
0/
b00000000000000000000000000001010 K
b00000000000000000000000000001010 ,
0X
0h
b00000000000000000000000000001010 H
00
b00000000000000000000000000001010 "8
b00101 N
b00101 a
b00000000000000000000000000001010 "5
0q
b00101 O
0i
0":
b00101 y
0!
b00101 k
0"&
b00101 j
0E
0n
b00000000000000000000000000001010 `
b00101 M
b00101 w
b00101 L
b00000000000000000000000000001010 _
#651
1"4
b00000000000000000000000000001010 1
1":
1"&
1E
1X
b00000000000000000000000000001010 ".
1i
1q
1n
10
b00000000000000000000000000001010 P
b00000000000000000000000000001010 =
1!
1/
1h
b00000000000000000000000000001010 +
b00000000000000000000000000001010 "$
b00101 S
#656
0"4
0/
b00000000000000000000000000000000 `
0X
0h
b00000000000000000000000000000000 P
b00000000000000000000000000000000 +
b10011 w
00
b00000000000000000000000000000000 H
b00000000000000000000000000000000 =
b10011 j
b00000000000000000000000000000000 "5
b00000000000000000000000000000000 "=
b00000000000000000000000000000000 _
b10011 .
b10011 L
0q
b00000000000000000000000000000000 1
0i
0":
b00000000000000000000000000000000 K
0!
0"&
b00000000000000000000000000000000 "A
b10011 k
b10011 N
0E
b10011 O
b00000000000000000000000000000000 "8
b10011 m
b10011 M
0n
b00000000000000000000000000000000 ,
b00000000000000000000000000000000 ".
b10011 y
b10011 a
#661
1"4
b00000000000000000000000000000000 "$
1":
1"&
1E
1X
1i
1q
1n
10
1!
1/
1h
b10011 S
#666
0i
0"4
b10111 m
b10111 O
0":
0/
0!
b10111 y
0"&
b10111 j
0X
0h
b10111 w
b10111 N
0E
00
b10111 L
b10111 k
b10111 a
b10111 .
0n
0q
b10111 M
#671
1!
1"4
1h
1/
1":
1"&
1E
1X
b10111 S
1i
1q
1n
10
#676
0i
0"4
b01111 .
0":
b01111 M
b01111 y
0/
0!
0"&
b01111 a
0X
0h
b01111 N
0E
00
b01111 j
0n
b01111 O
b01111 w
b01111 L
0q
b01111 m
b01111 k
#681
1!
1"4
b01111 S
1h
1/
1":
1"&
1E
1X
1i
1q
1n
10
#686
0i
0"4
b01000 O
0":
b01000 j
0/
0!
b01000 a
0"&
0X
0h
b01000 w
0E
b01000 m
00
b01000 .
b01000 N
0n
b01000 y
b01000 k
b01000 M
0q
b01000 L
#691
1!
1"4
1h
1/
1":
1"&
b01000 S
1X
1E
1i
1q
1n
10
#696
0i
0"4
b01001 y
0":
0/
0!
0"&
0X
0h
b01001 m
b01001 L
b01001 a
b01001 .
b01001 O
0E
b01001 w
b01001 M
00
b01001 N
0n
b01001 k
0q
b01001 j
#701
1!
1"4
1h
1/
1":
1"&
1E
1X
b01001 S
1i
1q
1n
10
#706
0i
0"4
b10101 m
0":
0/
0!
b10101 N
0"&
b10101 y
0X
0h
b10101 a
b10101 w
b10101 k
b10101 M
0E
b10101 j
00
b10101 L
0n
b10101 O
0q
b10101 .
#711
1!
1"4
1h
1/
1":
1"&
1E
1X
b10101 S
1i
1q
1n
10
#716
0"4
b11111111111111111111111111110101 "=
0/
b11100 .
b11111111111111111111111111110101 ,
b11111111111111111111111111110101 _
0X
0h
b11111111111111111111111111110101 "8
00
b11111111111111111111111111110101 "A
0q
b11100 M
b11111111111111111111111111110101 "5
b11100 N
0i
0":
b11100 y
b11100 m
0!
b11100 a
0"&
b11100 L
b11100 k
0E
b11100 O
b11111111111111111111111111110101 H
b11111111111111111111111111110101 `
0n
b11111111111111111111111111110101 K
b11100 j
b11100 w
#721
1"4
b11100 S
1":
1"&
1E
1X
1i
1q
1n
10
b11111111111111111111111111110101 1
b11111111111111111111111111110101 +
b11111111111111111111111111110101 P
1!
1/
1h
b11111111111111111111111111110101 "$
b11111111111111111111111111110101 =
b11111111111111111111111111110101 ".
#726
0"4
b10000 y
0/
b00000000000000000000000000000000 `
0X
0h
b00000000000000000000000000000000 P
b00000000000000000000000000000000 +
00
b00000000000000000000000000000000 H
b00000000000000000000000000000000 =
b00000000000000000000000000000000 "5
b00000000000000000000000000000000 "=
b00000000000000000000000000000000 _
0q
b10000 a
b00000000000000000000000000000000 1
0i
b10000 .
b10000 k
0":
b10000 O
b10000 j
b00000000000000000000000000000000 K
0!
0"&
b00000000000000000000000000000000 "A
b10000 m
b00000000000000000000000000000000 "8
0E
b10000 w
b10000 M
0n
b00000000000000000000000000000000 ,
b10000 L
b10000 N
b00000000000000000000000000000000 ".
#731
1"4
b00000000000000000000000000000000 "$
1":
1"&
1E
1X
1i
1q
1n
10
1!
1/
1h
b10000 S
