waveforms/addi.s.vcd
$date
2025-09-08T11:52+0000
$end
$version
0.2
$end
$comment

$end
$timescale 1ns  $end
$scope module Tile $end
 $var wire 1 * io_regsWriteEnable $end
 $var wire 32 + io_regsReadData $end
 $var wire 32 4 io_IMEMAddress $end
 $var wire 1 < io_regsDeviceWriteEnable $end
 $var wire 32 I io_DMEMAddress $end
 $var wire 32 Z io_DMEMWriteData $end
 $var wire 1 ] CPU $end
 $var wire 32 _ io_regsDeviceWriteData $end
 $var wire 5 a io_regsDeviceWriteAddress $end
 $var wire 1 i clock $end
 $var wire 32 k io_currentPC $end
 $var wire 5 m io_regsAddress $end
 $var wire 1 u io_DMEMWriteEnable $end
 $var wire 32 v io_memDeviceWriteAddress $end
 $var wire 32 ~ io_IMEMWriteData $end
 $var wire 32 "! io_memDeviceWriteData $end
 $var wire 32 ") io_DMEMReadData $end
 $var wire 1 ", reset $end
 $var wire 1 "2 io_setup $end
 $var wire 1 "7 io_memDeviceWriteEnable $end
 $var wire 32 "A io_regsWriteData $end
  $scope module CPU.MEM $end
  $upscope $end
  $scope module CPU.ID.registers $end
  $upscope $end
  $scope module CPU.IF $end
  $upscope $end
  $scope module CPU.IF.IMEM $end
  $upscope $end
  $scope module CPU.MEM.DMEM $end
  $upscope $end
  $scope module CPU $end
   $var wire 1 2 testHarness_regUpdates_writeEnable $end
   $var wire 1 = ID $end
   $var wire 1 D testHarness_memUpdates_writeEnable $end
   $var wire 32 K testHarness_regUpdates_writeData $end
   $var wire 5 L testHarness_regUpdates_writeAddress $end
   $var wire 5 M testHarness_setupSignals_registerSignals_readAddress $end
   $var wire 32 P testHarness_testReadouts_registerRead $end
   $var wire 32 T testHarness_currentPC $end
   $var wire 1 V IF $end
   $var wire 32 [ testHarness_memUpdates_writeAddress $end
   $var wire 1 ^ testHarness_setupSignals_DMEMsignals_setup $end
   $var wire 32 d testHarness_testReadouts_DMEMread $end
   $var wire 32 f testHarness_setupSignals_DMEMsignals_dataIn $end
   $var wire 1 g testHarness_setupSignals_IMEMsignals_setup $end
   $var wire 1 q clock $end
   $var wire 32 s testHarness_setupSignals_DMEMsignals_dataAddress $end
   $var wire 1 x testHarness_setupSignals_registerSignals_setup $end
   $var wire 1 { MEM $end
   $var wire 1 "" testHarness_setupSignals_registerSignals_writeEnable $end
   $var wire 32 "6 testHarness_memUpdates_writeData $end
   $var wire 32 "= testHarness_setupSignals_registerSignals_writeData $end
   $var wire 1 "@ reset $end
   $var wire 1 "B testHarness_setupSignals_DMEMsignals_writeEnable $end
    $scope module MEM $end
     $var wire 1 8 DMEM $end
     $var wire 32 ; testHarness_testUpdates_writeAddress $end
     $var wire 32 U testHarness_DMEMsetup_dataAddress $end
     $var wire 1 p testHarness_testUpdates_writeEnable $end
     $var wire 1 z testHarness_DMEMsetup_writeEnable $end
     $var wire 32 } testHarness_DMEMpeek $end
     $var wire 1 "* testHarness_DMEMsetup_setup $end
     $var wire 32 "0 testHarness_testUpdates_writeData $end
     $var wire 1 "4 clock $end
     $var wire 32 "> testHarness_DMEMsetup_dataIn $end
      $scope module DMEM $end
       $var wire 32 & testHarness_testUpdates_writeData $end
       $var wire 1 ) _GEN_6 $end
       $var wire 12 - data__T_24_addr_pipe_0 $end
       $var wire 1 6 testHarness_testUpdates_writeEnable $end
       $var wire 32 : testHarness_setup_dataAddress $end
       $var wire 32 ? testHarness_testUpdates_writeAddress $end
       $var wire 32 F addressSource $end
       $var wire 32 J data $end
       $var wire 1 r testHarness_setup_writeEnable $end
       $var wire 1 t testHarness_setup_setup $end
       $var wire 1 "& clock $end
       $var wire 32 "+ testHarness_setup_dataIn $end
       $var wire 32 "9 io_dataOut $end
        $scope module data $end
          $scope module _T_26 $end
           $var wire 1 ! clk $end
           $var wire 12 B addr $end
           $var wire 32 G pipeline_data_0 $end
           $var wire 1 \ pipeline_valid_0 $end
           $var wire 32 c data $end
           $var wire 1 "# en $end
           $var wire 12 "' pipeline_addr_0 $end
           $var wire 1 "- valid $end
           $var wire 1 "< mask $end
          $upscope $end
          $scope module _T_24 $end
           $var wire 32 5 data $end
           $var wire 1 h clk $end
           $var wire 1 "% en $end
           $var wire 12 "( addr $end
          $upscope $end
        $upscope $end
      $upscope $end
    $upscope $end
    $scope module ID $end
     $var wire 1 " testHarness_registerSetup_writeEnable $end
     $var wire 32 > testHarness_registerPeek $end
     $var wire 1 C testHarness_testUpdates_writeEnable $end
     $var wire 32 H testHarness_registerSetup_writeData $end
     $var wire 5 N testHarness_testUpdates_writeAddress $end
     $var wire 5 l testHarness_registerSetup_readAddress $end
     $var wire 1 o registers $end
     $var wire 1 "3 testHarness_registerSetup_setup $end
     $var wire 32 "5 testHarness_testUpdates_writeData $end
     $var wire 1 "; clock $end
      $scope module registers $end
       $var wire 1 % testHarness_testUpdates_writeEnable $end
       $var wire 1 ' testHarness_setup_setup $end
       $var wire 32 , testHarness_testUpdates_writeData $end
       $var wire 5 . readAddress1 $end
       $var wire 1 0 clock $end
       $var wire 32 1 io_readData1 $end
       $var wire 32 3 registerFile $end
       $var wire 1 7 testHarness_setup_writeEnable $end
       $var wire 1 @ writeEnable $end
       $var wire 5 O testHarness_testUpdates_writeAddress $end
       $var wire 32 ` testHarness_setup_writeData $end
       $var wire 5 y testHarness_setup_readAddress $end
        $scope module registerFile $end
          $scope module _T_33 $end
           $var wire 1 # en $end
           $var wire 1 ( pipeline_valid_0 $end
           $var wire 1 / clk $end
           $var wire 5 S pipeline_addr_0 $end
           $var wire 1 W mask $end
           $var wire 1 e valid $end
           $var wire 5 w addr $end
           $var wire 32 "$ pipeline_data_0 $end
           $var wire 32 "8 data $end
          $upscope $end
          $scope module _T_41 $end
           $var wire 32 A data $end
           $var wire 1 R en $end
           $var wire 1 n clk $end
           $var wire 5 "1 addr $end
          $upscope $end
          $scope module _T_38 $end
           $var wire 1 E clk $end
           $var wire 1 b en $end
           $var wire 5 j addr $end
           $var wire 32 "/ data $end
          $upscope $end
        $upscope $end
      $upscope $end
    $upscope $end
    $scope module IF $end
     $var wire 1 $ testHarness_IMEMsetup_setup $end
     $var wire 1 9 IMEM $end
     $var wire 32 Q PC $end
     $var wire 1 X clock $end
     $var wire 32 Y testHarness_PC $end
     $var wire 1 | reset $end
     $var wire 32 "? _GEN_0 $end
      $scope module IMEM $end
       $var wire 32 ". testHarness_requestedAddress $end
       $var wire 32 ": io_instructionAddress $end
      $upscope $end
    $upscope $end
  $upscope $end
  $scope module CPU.ID $end
  $upscope $end
$upscope $end
$enddefinitions $end
$dumpvars
b00000000000000000000000000000000 Y
0C
0"7
0X
0""
1"<
0o
b00000000000000000000000000000000 ">
0R
0=
b00000000000000000000000000000000 "8
0V
b00000000000000000000000000000000 :
b00000000000000000000000000000000 Q
b00000000000000000000000000000000 }
0g
b00000000000000000000000000000000 ".
b00000000000000000000000000000000 K
b00000000000000000000000000000000 `
b000000000000 "(
0"@
0D
0/
0"#
0x
b00000 S
0z
0r
0]
b00000000000000000000000000000000 s
1)
b00000 j
0@
b00000000000000000000000000000000 A
b00000000000000000000000000000000 ;
0%
b00000 O
1W
b000000000000 -
b00000000000000000000000000000000 "=
b00000000000000000000000000000000 Z
0p
b00000000000000000000000000000000 T
b00000000000000000000000000000000 ?
0"2
06
0!
b00000 .
b00000000000000000000000000000000 "9
b00000000000000000000000000000000 k
0"4
b00000 y
b00000000000000000000000000000000 P
b00000000000000000000000000000000 3
0{
b00000000000000000000000000000000 "5
b00000000000000000000000000000000 J
b000000000000 "'
b00000000000000000000000000000000 "/
0"*
0b
0E
00
0(
b00000000000000000000000000000000 "+
b00000000000000000000000000000000 _
0u
b00000000000000000000000000000000 [
b00000000000000000000000000000000 "6
b00000000000000000000000000000000 "!
b00000000000000000000000000000000 >
0q
0i
b00000000000000000000000000000000 U
0"3
b00000 a
b00000 L
07
0"
b00000000000000000000000000000000 ":
09
0"-
b00000000000000000000000000000000 f
0e
b00000 "1
b00000000000000000000000000000000 I
b00000000000000000000000000000000 4
0|
b00000000000000000000000000000000 "0
b00000000000000000000000000000000 d
0"B
b00000000000000000000000000000000 G
b00000000000000000000000000000000 "A
b00000000000000000000000000000000 "$
b00000000000000000000000000000000 ,
b00000 M
0t
b00000 l
b00000000000000000000000000000000 &
0n
0<
0'
b00000000000000000000000000000000 "?
b00000 w
08
0",
0#
02
b000000000000 B
b00000000000000000000000000000000 5
b00000000000000000000000000000000 ~
0h
b00000 m
b00000000000000000000000000000000 c
b00000000000000000000000000000000 ")
b00000000000000000000000000000000 F
b00000000000000000000000000000000 1
0\
b00000000000000000000000000000000 H
0";
0"&
0*
b00000000000000000000000000000000 +
0^
b00000 N
0$
1"%
b00000000000000000000000000000000 v
$end
#0
1|
1"@
b00000000000000000000000000000100 "?
1",
#1
10
1X
1h
1n
1/
1E
1"4
1q
1"&
1!
1i
1";
#6
0!
0"4
0h
0i
0/
0";
00
0"&
0q
0n
0E
0X
#11
10
1X
1h
1n
1/
1E
1"4
1q
1"&
1!
1i
1";
#16
0!
0"4
0h
0i
0/
0";
00
0"&
0q
0n
0E
0X
#21
10
1X
1h
1n
1/
1E
1"4
1q
1"&
1!
1i
1";
#26
0!
0"4
0h
0i
0/
0";
00
0"&
0q
0n
0E
0X
#31
10
1X
1h
1n
1/
1E
1"4
1q
1"&
1!
1i
1";
#36
0!
0"4
0h
0i
0/
0";
00
0"&
0q
0n
0E
0X
#41
10
1X
1h
1n
1/
1E
1"4
1q
1"&
1!
1i
1";
#46
0h
1"3
1"2
1g
0i
b00000000000000000000000000000000 "?
00
1$
0q
0n
0E
0!
0"4
1'
b00000000000100001000000000010011 ~
1^
1x
0|
0/
0";
0"&
0"@
1"*
1t
0",
0X
#51
10
1X
1h
1n
1/
1E
1"4
1q
1"&
1!
1i
1";
#56
0h
0i
00
0q
0n
0E
0!
0"4
b00000000000000000000000000000100 4
b00000000000000000000000000010011 ~
0/
0";
0"&
0X
#61
10
1X
1h
1n
1/
1E
1"4
1q
1"&
1!
1i
1";
#66
0!
0"4
b00000000000000000000000000001000 4
0h
0i
0/
0";
00
0"&
0q
0n
0E
0X
#71
10
1X
1h
1n
1/
1E
1"4
1q
1"&
1!
1i
1";
#76
0!
0"4
0h
0i
0/
0";
00
0"&
0q
0n
0E
0X
b00000000000000000000000000001100 4
#81
10
1X
1h
1n
1/
1E
1"4
1q
1"&
1!
1i
1";
#86
0!
0"4
b00000000000000000000000000010000 4
0h
0i
0/
0";
00
0"&
0q
0n
0E
0X
#91
10
1X
1h
1n
1/
1E
1"4
1q
1"&
1!
1i
1";
#96
0h
0i
00
0q
0n
0E
b00000000000000000000000000010100 4
0!
0"4
b00000000001000001000000000010011 ~
0/
0";
0"&
0X
#101
10
1X
1h
1n
1/
1E
1"4
1q
1"&
1!
1i
1";
#106
0h
0i
00
0q
0n
0E
0!
0"4
b00000000000000000000000000010011 ~
b00000000000000000000000000011000 4
0/
0";
0"&
0X
#111
10
1X
1h
1n
1/
1E
1"4
1q
1"&
1!
1i
1";
#116
0!
0"4
0h
b00000000000000000000000000011100 4
0i
0/
0";
00
0"&
0q
0n
0E
0X
#121
10
1X
1h
1n
1/
1E
1"4
1q
1"&
1!
1i
1";
#126
0!
0"4
0h
0i
0/
0";
b00000000000000000000000000100000 4
00
0"&
0q
0n
0E
0X
#131
10
1X
1h
1n
1/
1E
1"4
1q
1"&
1!
1i
1";
#136
0!
0"4
0h
b00000000000000000000000000100100 4
0i
0/
0";
00
0"&
0q
0n
0E
0X
#141
10
1X
1h
1n
1/
1E
1"4
1q
1"&
1!
1i
1";
#146
0h
0i
00
0q
0n
0E
0!
0"4
0/
0";
b00000000000000000000000000101000 4
b00000000001100001000000000010011 ~
0"&
0X
#151
10
1X
1h
1n
1/
1E
1"4
1q
1"&
1!
1i
1";
#156
0h
0i
b00000000000000000000000000101100 4
00
0q
0n
0E
0!
0"4
b00000000000000000000000000010011 ~
0/
0";
0"&
0X
#161
10
1X
1h
1n
1/
1E
1"4
1q
1"&
1!
1i
1";
#166
0!
0"4
0h
0i
0/
0";
00
0"&
0q
0n
b00000000000000000000000000110000 4
0E
0X
#171
10
1X
1h
1n
1/
1E
1"4
1q
1"&
1!
1i
1";
#176
0!
0"4
b00000000000000000000000000110100 4
0h
0i
0/
0";
00
0"&
0q
0n
0E
0X
#181
10
1X
1h
1n
1/
1E
1"4
1q
1"&
1!
1i
1";
#186
0!
0"4
0h
0i
0/
0";
00
0"&
0q
0n
b00000000000000000000000000111000 4
0E
0X
#191
10
1X
1h
1n
1/
1E
1"4
1q
1"&
1!
1i
1";
#196
0h
0i
b00000000011100001000000000010011 ~
00
0q
0n
0E
0!
0"4
b00000000000000000000000000111100 4
0/
0";
0"&
0X
#201
10
1X
1h
1n
1/
1E
1"4
1q
1"&
1!
1i
1";
#206
b00000000000000000000000001000000 4
0h
0i
00
0q
0n
0E
0!
0"4
b00000000000000000000000000010011 ~
0/
0";
0"&
0X
#211
10
1X
1h
1n
1/
1E
1"4
1q
1"&
1!
1i
1";
#216
0!
0"4
0h
0i
0/
0";
b00000000000000000000000001000100 4
00
0"&
0q
0n
0E
0X
#221
10
1X
1h
1n
1/
1E
1"4
1q
1"&
1!
1i
1";
#226
0!
0"4
0h
0i
0/
0";
b00000000000000000000000001001000 4
00
0"&
0q
0n
0E
0X
#231
10
1X
1h
1n
1/
1E
1"4
1q
1"&
1!
1i
1";
#236
0!
0"4
0h
b00000000000000000000000001001100 4
0i
0/
0";
00
0"&
0q
0n
0E
0X
#241
10
1X
1h
1n
1/
1E
1"4
1q
1"&
1!
1i
1";
#246
0h
b00000000000000000000000001010000 4
0i
b00000000111000001000000000010011 ~
00
0q
0n
0E
0!
0"4
0/
0";
0"&
0X
#251
10
1X
1h
1n
1/
1E
1"4
1q
1"&
1!
1i
1";
#256
b00000000000000000000000001010100 4
0h
0i
00
0q
0n
0E
0!
0"4
b00000000000000000000000000010011 ~
0/
0";
0"&
0X
#261
10
1X
1h
1n
1/
1E
1"4
1q
1"&
1!
1i
1";
#266
0!
0"4
0h
0i
0/
0";
b00000000000000000000000001011000 4
00
0"&
0q
0n
0E
0X
#271
10
1X
1h
1n
1/
1E
1"4
1q
1"&
1!
1i
1";
#276
0!
0"4
b00000000000000000000000001011100 4
0h
0i
0/
0";
00
0"&
0q
0n
0E
0X
#281
10
1X
1h
1n
1/
1E
1"4
1q
1"&
1!
1i
1";
#286
0!
0"4
0h
0i
0/
0";
00
0"&
0q
0n
b00000000000000000000000001100000 4
0E
0X
#291
10
1X
1h
1n
1/
1E
1"4
1q
1"&
1!
1i
1";
#296
0h
0i
b00000000000000000000000001100100 4
00
0q
0n
0E
b00000001110000001000000000010011 ~
0!
0"4
0/
0";
0"&
0X
#301
10
1X
1h
1n
1/
1E
1"4
1q
1"&
1!
1i
1";
#306
0h
b00000000000000000000000001101000 4
0i
00
0q
0n
0E
0!
0"4
b00000000000000000000000000010011 ~
0/
0";
0"&
0X
#311
10
1X
1h
1n
1/
1E
1"4
1q
1"&
1!
1i
1";
#316
0!
0"4
0h
b00000000000000000000000001101100 4
0i
0/
0";
00
0"&
0q
0n
0E
0X
#321
10
1X
1h
1n
1/
1E
1"4
1q
1"&
1!
1i
1";
#326
0!
0"4
b00000000000000000000000001110000 4
0h
0i
0/
0";
00
0"&
0q
0n
0E
0X
#331
10
1X
1h
1n
1/
1E
1"4
1q
1"&
1!
1i
1";
#336
0!
0"4
b00000000000000000000000001110100 4
0h
0i
0/
0";
00
0"&
0q
0n
0E
0X
#341
10
1X
1h
1n
1/
1E
1"4
1q
1"&
1!
1i
1";
#346
0h
0i
00
0q
0n
0E
0!
0"4
b00000011100000001000000000010011 ~
0/
0";
0"&
0X
b00000000000000000000000001111000 4
#351
10
1X
1h
1n
1/
1E
1"4
1q
1"&
1!
1i
1";
#356
0h
0i
00
0q
0n
b00000000000000000000000001111100 4
0E
0!
0"4
b00000000000000000000000000010011 ~
0/
0";
0"&
0X
#361
10
1X
1h
1n
1/
1E
1"4
1q
1"&
1!
1i
1";
#366
0!
0"4
0h
b00000000000000000000000010000000 4
0i
0/
0";
00
0"&
0q
0n
0E
0X
#371
10
1X
1h
1n
1/
1E
1"4
1q
1"&
1!
1i
1";
#376
0!
0"4
0h
0i
0/
0";
00
0"&
0q
0n
b00000000000000000000000010000100 4
0E
0X
#381
10
1X
1h
1n
1/
1E
1"4
1q
1"&
1!
1i
1";
#386
0!
0"4
0h
0i
0/
0";
b00000000000000000000000010001000 4
00
0"&
0q
0n
0E
0X
#391
10
1X
1h
1n
1/
1E
1"4
1q
1"&
1!
1i
1";
#396
0h
0i
00
0q
0n
0E
0!
0"4
b00000000000100001000111110010011 ~
b00000000000000000000000010001100 4
0/
0";
0"&
0X
#401
10
1X
1h
1n
1/
1E
1"4
1q
1"&
1!
1i
1";
#406
0h
0i
00
b00000000000000000000000010010000 4
0q
0n
0E
0!
0"4
b00000000000000000000000000010011 ~
0/
0";
0"&
0X
#411
10
1X
1h
1n
1/
1E
1"4
1q
1"&
1!
1i
1";
#416
0!
0"4
0h
b00000000000000000000000010010100 4
0i
0/
0";
00
0"&
0q
0n
0E
0X
#421
10
1X
1h
1n
1/
1E
1"4
1q
1"&
1!
1i
1";
#426
0!
0"4
0h
b00000000000000000000000010011000 4
0i
0/
0";
00
0"&
0q
0n
0E
0X
#431
10
1X
1h
1n
1/
1E
1"4
1q
1"&
1!
1i
1";
#436
0!
0"4
0h
0i
0/
0";
b00000000000000000000000010011100 4
00
0"&
0q
0n
0E
0X
#441
10
1X
1h
1n
1/
1E
1"4
1q
1"&
1!
1i
1";
#446
0h
0i
b00000000001000001000111110010011 ~
00
0q
0n
0E
0!
0"4
0/
0";
0"&
0X
b00000000000000000000000010100000 4
#451
10
1X
1h
1n
1/
1E
1"4
1q
1"&
1!
1i
1";
#456
0h
0i
00
b00000000000000000000000010100100 4
0q
0n
0E
0!
0"4
b00000000000000000000000000010011 ~
0/
0";
0"&
0X
#461
10
1X
1h
1n
1/
1E
1"4
1q
1"&
1!
1i
1";
#466
0!
0"4
0h
b00000000000000000000000010101000 4
0i
0/
0";
00
0"&
0q
0n
0E
0X
#471
10
1X
1h
1n
1/
1E
1"4
1q
1"&
1!
1i
1";
#476
0!
0"4
0h
0i
0/
0";
b00000000000000000000000010101100 4
00
0"&
0q
0n
0E
0X
#481
10
1X
1h
1n
1/
1E
1"4
1q
1"&
1!
1i
1";
#486
0!
0"4
0h
b00000000000000000000000010110000 4
0i
0/
0";
00
0"&
0q
0n
0E
0X
#491
10
1X
1h
1n
1/
1E
1"4
1q
1"&
1!
1i
1";
#496
0h
0i
00
0q
0n
0E
0!
0"4
b00000000001100001000111110010011 ~
b00000000000000000000000010110100 4
0/
0";
0"&
0X
#501
10
1X
1h
1n
1/
1E
1"4
1q
1"&
1!
1i
1";
#506
0h
0i
00
0q
0n
0E
0!
0"4
b00000000000000000000000000010011 ~
0/
0";
b00000000000000000000000010111000 4
0"&
0X
#511
10
1X
1h
1n
1/
1E
1"4
1q
1"&
1!
1i
1";
#516
0!
0"4
0h
0i
0/
0";
b00000000000000000000000010111100 4
00
0"&
0q
0n
0E
0X
#521
10
1X
1h
1n
1/
1E
1"4
1q
1"&
1!
1i
1";
#526
0!
0"4
0h
0i
0/
0";
00
0"&
0q
0n
b00000000000000000000000011000000 4
0E
0X
#531
10
1X
1h
1n
1/
1E
1"4
1q
1"&
1!
1i
1";
#536
0!
0"4
0h
b00000000000000000000000011000100 4
0i
0/
0";
00
0"&
0q
0n
0E
0X
#541
10
1X
1h
1n
1/
1E
1"4
1q
1"&
1!
1i
1";
#546
0h
0i
b00000000000000000000000011001000 4
00
0q
0n
0E
0!
0"4
0/
0";
b00000000011100001000111110010011 ~
0"&
0X
#551
10
1X
1h
1n
1/
1E
1"4
1q
1"&
1!
1i
1";
#556
b00000000000000000000000011001100 4
0h
0i
00
0q
0n
0E
0!
0"4
b00000000000000000000000000010011 ~
0/
0";
0"&
0X
#561
10
1X
1h
1n
1/
1E
1"4
1q
1"&
1!
1i
1";
#566
0!
0"4
0h
0i
0/
0";
00
0"&
0q
0n
b00000000000000000000000011010000 4
0E
0X
#571
10
1X
1h
1n
1/
1E
1"4
1q
1"&
1!
1i
1";
#576
0!
0"4
0h
b00000000000000000000000011010100 4
0i
0/
0";
00
0"&
0q
0n
0E
0X
#581
10
1X
1h
1n
1/
1E
1"4
1q
1"&
1!
1i
1";
#586
0!
0"4
0h
0i
0/
0";
00
0"&
0q
0n
0E
0X
b00000000000000000000000011011000 4
#591
10
1X
1h
1n
1/
1E
1"4
1q
1"&
1!
1i
1";
#596
0h
0i
00
0q
0n
0E
0!
0"4
b00000000000000000000000011011100 4
b00000000111000001000111110010011 ~
0/
0";
0"&
0X
#601
10
1X
1h
1n
1/
1E
1"4
1q
1"&
1!
1i
1";
#606
0h
0i
b00000000000000000000000011100000 4
00
0q
0n
0E
0!
0"4
b00000000000000000000000000010011 ~
0/
0";
0"&
0X
#611
10
1X
1h
1n
1/
1E
1"4
1q
1"&
1!
1i
1";
#616
0!
0"4
0h
0i
0/
0";
00
0"&
0q
0n
b00000000000000000000000011100100 4
0E
0X
#621
10
1X
1h
1n
1/
1E
1"4
1q
1"&
1!
1i
1";
#626
0!
0"4
0h
0i
0/
0";
00
0"&
0q
0n
b00000000000000000000000011101000 4
0E
0X
#631
10
1X
1h
1n
1/
1E
1"4
1q
1"&
1!
1i
1";
#636
0!
0"4
0h
b00000000000000000000000011101100 4
0i
0/
0";
00
0"&
0q
0n
0E
0X
#641
10
1X
1h
1n
1/
1E
1"4
1q
1"&
1!
1i
1";
#646
0h
0i
00
0q
0n
0E
0!
0"4
b00000000000000000000000011110000 4
0/
0";
0"&
b00000001110000001000111110010011 ~
0X
#651
10
1X
1h
1n
1/
1E
1"4
1q
1"&
1!
1i
1";
#656
0h
b00000000000000000000000011110100 4
0i
00
0q
0n
0E
0!
0"4
b00000000000000000000000000010011 ~
0/
0";
0"&
0X
#661
10
1X
1h
1n
1/
1E
1"4
1q
1"&
1!
1i
1";
#666
0!
0"4
0h
0i
0/
0";
b00000000000000000000000011111000 4
00
0"&
0q
0n
0E
0X
#671
10
1X
1h
1n
1/
1E
1"4
1q
1"&
1!
1i
1";
#676
0!
0"4
0h
b00000000000000000000000011111100 4
0i
0/
0";
00
0"&
0q
0n
0E
0X
#681
10
1X
1h
1n
1/
1E
1"4
1q
1"&
1!
1i
1";
#686
0!
0"4
0h
0i
0/
0";
b00000000000000000000000100000000 4
00
0"&
0q
0n
0E
0X
#691
10
1X
1h
1n
1/
1E
1"4
1q
1"&
1!
1i
1";
#696
0h
0i
00
0q
0n
0E
0!
0"4
b00000000000000000000000100000100 4
0/
0";
0"&
b00000011100000001000111110010011 ~
0X
#701
10
1X
1h
1n
1/
1E
1"4
1q
1"&
1!
1i
1";
#706
0h
0i
b00000000000000000000000100001000 4
00
0q
0n
0E
0!
0"4
b00000000000000000000000000010011 ~
0/
0";
0"&
0X
#711
10
1X
1h
1n
1/
1E
1"4
1q
1"&
1!
1i
1";
#716
0!
0"4
0h
0i
0/
0";
00
0"&
0q
0n
b00000000000000000000000100001100 4
0E
0X
#721
10
1X
1h
1n
1/
1E
1"4
1q
1"&
1!
1i
1";
#726
0!
0"4
b00000000000000000000000100010000 4
0h
0i
0/
0";
00
0"&
0q
0n
0E
0X
#731
10
1X
1h
1n
1/
1E
1"4
1q
1"&
1!
1i
1";
#736
0!
0"4
0h
0i
0/
0";
b00000000000000000000000100010100 4
00
0"&
0q
0n
0E
0X
#741
10
1X
1h
1n
1/
1E
1"4
1q
1"&
1!
1i
1";
#746
0h
0i
00
0q
0n
0E
0!
0"4
0/
0";
b00000000000000000000000100011000 4
0"&
b00001000010100001000111110010011 ~
0X
#751
10
1X
1h
1n
1/
1E
1"4
1q
1"&
1!
1i
1";
#756
0h
0i
00
0q
0n
0E
0!
0"4
b00000000000000000000000000010011 ~
0/
0";
0"&
0X
b00000000000000000000000100011100 4
#761
10
1X
1h
1n
1/
1E
1"4
1q
1"&
1!
1i
1";
#766
0!
0"4
0h
0i
0/
0";
b00000000000000000000000100100000 4
00
0"&
0q
0n
0E
0X
#771
10
1X
1h
1n
1/
1E
1"4
1q
1"&
1!
1i
1";
#776
0!
0"4
b00000000000000000000000100100100 4
0h
0i
0/
0";
00
0"&
0q
0n
0E
0X
#781
10
1X
1h
1n
1/
1E
1"4
1q
1"&
1!
1i
1";
#786
0!
0"4
0h
0i
0/
0";
00
0"&
0q
0n
b00000000000000000000000100101000 4
0E
0X
#791
10
1X
1h
1n
1/
1E
1"4
1q
1"&
1!
1i
1";
#796
0h
0i
b00000000000000000000000100101100 4
00
0q
0n
b00010000001000001000111110010011 ~
0E
0!
0"4
0/
0";
0"&
0X
#801
10
1X
1h
1n
1/
1E
1"4
1q
1"&
1!
1i
1";
#806
0h
0i
00
0q
0n
0E
0!
0"4
b00000000000000000000000000010011 ~
0/
0";
0"&
0X
b00000000000000000000000100110000 4
#811
10
1X
1h
1n
1/
1E
1"4
1q
1"&
1!
1i
1";
#816
0!
0"4
b00000000000000000000000100110100 4
0h
0i
0/
0";
00
0"&
0q
0n
0E
0X
#821
10
1X
1h
1n
1/
1E
1"4
1q
1"&
1!
1i
1";
#826
0!
0"4
0h
0i
0/
0";
b00000000000000000000000100111000 4
00
0"&
0q
0n
0E
0X
#831
10
1X
1h
1n
1/
1E
1"4
1q
1"&
1!
1i
1";
#836
0!
0"4
0h
b00000000000000000000000100111100 4
0i
0/
0";
00
0"&
0q
0n
0E
0X
#841
10
1X
1h
1n
1/
1E
1"4
1q
1"&
1!
1i
1";
#846
0h
0i
b00000000000000000000000101000000 4
00
0q
0n
0E
0!
0"4
b00011111111100001000111110010011 ~
0/
0";
0"&
0X
#851
10
1X
1h
1n
1/
1E
1"4
1q
1"&
1!
1i
1";
#856
0h
0i
00
b00000000000000000000000101000100 4
0q
0n
0E
0!
0"4
b00000000000000000000000000010011 ~
0/
0";
0"&
0X
#861
10
1X
1h
1n
1/
1E
1"4
1q
1"&
1!
1i
1";
#866
0!
0"4
0h
0i
0/
0";
00
0"&
0q
0n
0E
0X
b00000000000000000000000101001000 4
#871
10
1X
1h
1n
1/
1E
1"4
1q
1"&
1!
1i
1";
#876
0!
0"4
0h
b00000000000000000000000101001100 4
0i
0/
0";
00
0"&
0q
0n
0E
0X
#881
10
1X
1h
1n
1/
1E
1"4
1q
1"&
1!
1i
1";
#886
0!
0"4
0h
b00000000000000000000000101010000 4
0i
0/
0";
00
0"&
0q
0n
0E
0X
#891
10
1X
1h
1n
1/
1E
1"4
1q
1"&
1!
1i
1";
#896
0h
0i
00
0q
0n
0E
0!
0"4
0/
0";
b00000000000000000000000101010100 4
0"&
0X
b11111111111100001000111110010011 ~
#901
10
1X
1h
1n
1/
1E
1"4
1q
1"&
1!
1i
1";
#906
0h
0i
00
0q
0n
0E
0!
0"4
b00000000000000000000000000010011 ~
0/
0";
b00000000000000000000000101011000 4
0"&
0X
#911
10
1X
1h
1n
1/
1E
1"4
1q
1"&
1!
1i
1";
#916
0!
0"4
0h
0i
0/
0";
b00000000000000000000000101011100 4
00
0"&
0q
0n
0E
0X
#921
10
1X
1h
1n
1/
1E
1"4
1q
1"&
1!
1i
1";
#926
0!
0"4
0h
0i
0/
0";
00
0"&
0q
0n
0E
0X
b00000000000000000000000101100000 4
#931
10
1X
1h
1n
1/
1E
1"4
1q
1"&
1!
1i
1";
#936
0!
0"4
b00000000000000000000000101100100 4
0h
0i
0/
0";
00
0"&
0q
0n
0E
0X
#941
10
1X
1h
1n
1/
1E
1"4
1q
1"&
1!
1i
1";
#946
0h
0i
b00000000000000000000000101101000 4
00
0q
0n
0E
b11111111110100001000111110010011 ~
0!
0"4
0/
0";
0"&
0X
#951
10
1X
1h
1n
1/
1E
1"4
1q
1"&
1!
1i
1";
#956
0h
0i
00
0q
0n
0E
0!
0"4
b00000000000000000000000000010011 ~
b00000000000000000000000101101100 4
0/
0";
0"&
0X
#961
10
1X
1h
1n
1/
1E
1"4
1q
1"&
1!
1i
1";
#966
0!
0"4
0h
0i
0/
0";
b00000000000000000000000101110000 4
00
0"&
0q
0n
0E
0X
#971
10
1X
1h
1n
1/
1E
1"4
1q
1"&
1!
1i
1";
#976
0!
0"4
0h
0i
0/
0";
b00000000000000000000000101110100 4
00
0"&
0q
0n
0E
0X
#981
10
1X
1h
1n
1/
1E
1"4
1q
1"&
1!
1i
1";
#986
0!
0"4
0h
b00000000000000000000000101111000 4
0i
0/
0";
00
0"&
0q
0n
0E
0X
#991
10
1X
1h
1n
1/
1E
1"4
1q
1"&
1!
1i
1";
#996
0h
b00000000000000000000000101111100 4
0i
00
0q
0n
0E
b11111111011100001000111110010011 ~
0!
0"4
0/
0";
0"&
0X
#1001
10
1X
1h
1n
1/
1E
1"4
1q
1"&
1!
1i
1";
#1006
0h
0i
b00000000000000000000000110000000 4
00
0q
0n
0E
0!
0"4
b00000000000000000000000000010011 ~
0/
0";
0"&
0X
#1011
10
1X
1h
1n
1/
1E
1"4
1q
1"&
1!
1i
1";
#1016
0!
0"4
0h
0i
0/
0";
b00000000000000000000000110000100 4
00
0"&
0q
0n
0E
0X
#1021
10
1X
1h
1n
1/
1E
1"4
1q
1"&
1!
1i
1";
#1026
0!
0"4
0h
b00000000000000000000000110001000 4
0i
0/
0";
00
0"&
0q
0n
0E
0X
#1031
10
1X
1h
1n
1/
1E
1"4
1q
1"&
1!
1i
1";
#1036
0!
0"4
0h
b00000000000000000000000110001100 4
0i
0/
0";
00
0"&
0q
0n
0E
0X
#1041
10
1X
1h
1n
1/
1E
1"4
1q
1"&
1!
1i
1";
