waveforms/addi.s.vcd
$date
2025-09-09T08:14+0000
$end
$version
0.2
$end
$comment

$end
$timescale 1ns  $end
$scope module Tile $end
 $var wire 1 / io_regsWriteEnable $end
 $var wire 32 1 io_regsReadData $end
 $var wire 32 < io_IMEMAddress $end
 $var wire 1 I io_regsDeviceWriteEnable $end
 $var wire 32 c io_DMEMAddress $end
 $var wire 32 "* io_DMEMWriteData $end
 $var wire 1 ". CPU $end
 $var wire 32 "4 io_regsDeviceWriteData $end
 $var wire 5 "7 io_regsDeviceWriteAddress $end
 $var wire 1 "C clock $end
 $var wire 32 "K io_currentPC $end
 $var wire 5 "P io_regsAddress $end
 $var wire 1 "b io_DMEMWriteEnable $end
 $var wire 32 "c io_memDeviceWriteAddress $end
 $var wire 32 "y io_IMEMWriteData $end
 $var wire 32 "{ io_memDeviceWriteData $end
 $var wire 32 #1 io_DMEMReadData $end
 $var wire 1 #7 reset $end
 $var wire 1 #> io_setup $end
 $var wire 1 #G io_memDeviceWriteEnable $end
 $var wire 32 #W io_regsWriteData $end
  $scope module CPU.MEMBarrier $end
  $upscope $end
  $scope module CPU.EX $end
  $upscope $end
  $scope module CPU.EXBarrier $end
  $upscope $end
  $scope module CPU.MEM $end
  $upscope $end
  $scope module CPU.IDBarrier $end
  $upscope $end
  $scope module CPU.ID $end
  $upscope $end
  $scope module CPU.EX.ALU $end
  $upscope $end
  $scope module CPU.ID.registers $end
  $upscope $end
  $scope module CPU.IFBarrier $end
  $upscope $end
  $scope module CPU.IF $end
  $upscope $end
  $scope module CPU.IF.IMEM $end
  $upscope $end
  $scope module CPU.MEM.DMEM $end
  $upscope $end
  $scope module CPU.ID.Decoder $end
  $upscope $end
  $scope module CPU $end
   $var wire 1 % IDBarrier $end
   $var wire 32 - testHarness_setupSignals_IMEMsignals_address $end
   $var wire 32 2 testHarness_setupSignals_IMEMsignals_instruction $end
   $var wire 1 : testHarness_regUpdates_writeEnable $end
   $var wire 1 M ID $end
   $var wire 1 ^ testHarness_memUpdates_writeEnable $end
   $var wire 32 i testHarness_regUpdates_writeData $end
   $var wire 5 l testHarness_regUpdates_writeAddress $end
   $var wire 5 m testHarness_setupSignals_registerSignals_readAddress $end
   $var wire 32 o testHarness_testReadouts_registerRead $end
   $var wire 32 v testHarness_currentPC $end
   $var wire 1 z IF $end
   $var wire 32 "+ testHarness_memUpdates_writeAddress $end
   $var wire 1 "/ IFBarrier $end
   $var wire 1 "0 testHarness_setupSignals_DMEMsignals_setup $end
   $var wire 32 "< testHarness_testReadouts_DMEMread $end
   $var wire 32 "> testHarness_setupSignals_DMEMsignals_dataIn $end
   $var wire 1 "@ testHarness_setupSignals_IMEMsignals_setup $end
   $var wire 1 "[ clock $end
   $var wire 32 "^ testHarness_setupSignals_DMEMsignals_dataAddress $end
   $var wire 1 "g testHarness_setupSignals_registerSignals_setup $end
   $var wire 1 "k MEM $end
   $var wire 1 "~ testHarness_setupSignals_registerSignals_writeEnable $end
   $var wire 1 #! EXBarrier $end
   $var wire 1 #2 EX $end
   $var wire 32 #F testHarness_memUpdates_writeData $end
   $var wire 32 #R testHarness_setupSignals_registerSignals_writeData $end
   $var wire 1 #U reset $end
   $var wire 1 #V MEMBarrier $end
   $var wire 1 #X testHarness_setupSignals_DMEMsignals_writeEnable $end
    $scope module ID $end
     $var wire 1 ! testHarness_registerSetup_writeEnable $end
     $var wire 4 = io_alu_op $end
     $var wire 32 L testHarness_registerPeek $end
     $var wire 32 R io_op_two $end
     $var wire 5 Y io_rd $end
     $var wire 1 \ testHarness_testUpdates_writeEnable $end
     $var wire 32 b testHarness_registerSetup_writeData $end
     $var wire 5 k testHarness_testUpdates_writeAddress $end
     $var wire 32 "" io_pc $end
     $var wire 32 "$ io_inst_instruction $end
     $var wire 32 "3 io_op_one $end
     $var wire 32 "8 _GEN_0 $end
     $var wire 5 "B io_wb_address $end
     $var wire 5 "J testHarness_registerSetup_readAddress $end
     $var wire 32 "M io_wb_data $end
     $var wire 1 "W registers $end
     $var wire 1 "n io_control_regWrite $end
     $var wire 32 "| _GEN_2 $end
     $var wire 1 #% Decoder $end
     $var wire 1 #A testHarness_registerSetup_setup $end
     $var wire 32 #D testHarness_testUpdates_writeData $end
     $var wire 1 #J io_wb_enable $end
     $var wire 1 #M clock $end
      $scope module registers $end
       $var wire 1 ' testHarness_testUpdates_writeEnable $end
       $var wire 1 ( testHarness_setup_setup $end
       $var wire 32 0 testHarness_testUpdates_writeData $end
       $var wire 5 3 readAddress1 $end
       $var wire 1 6 clock $end
       $var wire 32 7 io_readData1 $end
       $var wire 32 9 registerFile $end
       $var wire 1 A testHarness_setup_writeEnable $end
       $var wire 1 U writeEnable $end
       $var wire 5 Z io_readAddress1 $end
       $var wire 5 n testHarness_testUpdates_writeAddress $end
       $var wire 1 | io_writeEnable $end
       $var wire 32 "5 testHarness_setup_writeData $end
       $var wire 32 "D io_writeData $end
       $var wire 5 "f testHarness_setup_readAddress $end
       $var wire 32 "m io_readData2 $end
       $var wire 5 "q writeAddress $end
       $var wire 5 #* io_writeAddress $end
       $var wire 5 #+ io_readAddress2 $end
        $scope module registerFile $end
          $scope module _T_33 $end
           $var wire 1 # en $end
           $var wire 1 * pipeline_valid_0 $end
           $var wire 1 5 clk $end
           $var wire 5 t pipeline_addr_0 $end
           $var wire 1 { mask $end
           $var wire 1 "= valid $end
           $var wire 5 "d addr $end
           $var wire 32 #$ pipeline_data_0 $end
           $var wire 32 #H data $end
          $upscope $end
          $scope module _T_41 $end
           $var wire 32 V data $end
           $var wire 1 s en $end
           $var wire 1 "V clk $end
           $var wire 5 #< addr $end
          $upscope $end
          $scope module _T_38 $end
           $var wire 1 ] clk $end
           $var wire 1 ": en $end
           $var wire 5 "H addr $end
           $var wire 32 #8 data $end
          $upscope $end
        $upscope $end
      $upscope $end
      $scope module Decoder $end
       $var wire 1 p io_op2Select $end
       $var wire 1 "T io_controlSignals_regWrite $end
       $var wire 4 "p io_ALUop $end
       $var wire 1 "s io_op1Select $end
       $var wire 32 "w io_instruction_instruction $end
      $upscope $end
    $upscope $end
    $scope module MEM $end
     $var wire 1 D DMEM $end
     $var wire 32 J testHarness_testUpdates_writeAddress $end
     $var wire 32 y testHarness_DMEMsetup_dataAddress $end
     $var wire 1 "\ testHarness_testUpdates_writeEnable $end
     $var wire 1 "j testHarness_DMEMsetup_writeEnable $end
     $var wire 32 "x testHarness_DMEMpeek $end
     $var wire 1 #4 testHarness_DMEMsetup_setup $end
     $var wire 32 #; testHarness_testUpdates_writeData $end
     $var wire 1 #C clock $end
     $var wire 32 #S testHarness_DMEMsetup_dataIn $end
      $scope module DMEM $end
       $var wire 32 ) testHarness_testUpdates_writeData $end
       $var wire 1 , _GEN_6 $end
       $var wire 12 4 data__T_24_addr_pipe_0 $end
       $var wire 1 ? testHarness_testUpdates_writeEnable $end
       $var wire 32 F testHarness_setup_dataAddress $end
       $var wire 32 N testHarness_testUpdates_writeAddress $end
       $var wire 32 _ addressSource $end
       $var wire 32 f data $end
       $var wire 1 "] testHarness_setup_writeEnable $end
       $var wire 1 "a testHarness_setup_setup $end
       $var wire 1 #) clock $end
       $var wire 32 #6 testHarness_setup_dataIn $end
       $var wire 32 #I io_dataOut $end
        $scope module data $end
          $scope module _T_26 $end
           $var wire 1 " clk $end
           $var wire 12 X addr $end
           $var wire 32 ` pipeline_data_0 $end
           $var wire 1 "- pipeline_valid_0 $end
           $var wire 32 "; data $end
           $var wire 1 ## en $end
           $var wire 12 #, pipeline_addr_0 $end
           $var wire 1 #9 valid $end
           $var wire 1 #O mask $end
          $upscope $end
          $scope module _T_24 $end
           $var wire 32 > data $end
           $var wire 1 "E clk $end
           $var wire 1 #( en $end
           $var wire 12 #/ addr $end
          $upscope $end
        $upscope $end
      $upscope $end
    $upscope $end
    $scope module EX $end
     $var wire 1 $ ALU $end
     $var wire 4 r io_alu_op $end
     $var wire 32 "# io_op_two $end
     $var wire 32 "Z io_op_one $end
     $var wire 32 #3 io_result $end
      $scope module ALU $end
       $var wire 32 . io_op_one $end
       $var wire 32 [ io_result $end
       $var wire 32 g _GEN_1 $end
       $var wire 4 "F io_alu_op $end
       $var wire 32 "N _GEN_3 $end
       $var wire 32 "h _GEN_0 $end
       $var wire 32 #- io_op_two $end
       $var wire 32 #N _GEN_2 $end
      $upscope $end
    $upscope $end
    $scope module IF $end
     $var wire 1 & testHarness_IMEMsetup_setup $end
     $var wire 1 E IMEM $end
     $var wire 32 O io_PC $end
     $var wire 32 S testHarness_IMEMsetup_instruction $end
     $var wire 32 q PC $end
     $var wire 1 "' clock $end
     $var wire 32 ") testHarness_PC $end
     $var wire 1 "o reset $end
     $var wire 32 "r io_inst_instruction $end
     $var wire 32 "} testHarness_IMEMsetup_address $end
     $var wire 32 #T _GEN_0 $end
      $scope module IMEM $end
       $var wire 32 ; testHarness_setupSignals_instruction $end
       $var wire 12 C instructions__T_20_addr_pipe_0 $end
       $var wire 1 h clock $end
       $var wire 32 "9 testHarness_setupSignals_address $end
       $var wire 1 "A _GEN_4 $end
       $var wire 32 "L io_instruction $end
       $var wire 1 "e testHarness_setupSignals_setup $end
       $var wire 32 #. addressSource $end
       $var wire 32 #: testHarness_requestedAddress $end
       $var wire 32 #K io_instructionAddress $end
       $var wire 32 #Q instructions $end
        $scope module instructions $end
          $scope module _T_18 $end
           $var wire 1 + valid $end
           $var wire 1 8 mask $end
           $var wire 1 W pipeline_valid_0 $end
           $var wire 12 u addr $end
           $var wire 1 w clk $end
           $var wire 32 "U data $end
           $var wire 12 "X pipeline_addr_0 $end
           $var wire 32 #= pipeline_data_0 $end
           $var wire 1 #P en $end
          $upscope $end
          $scope module _T_20 $end
           $var wire 1 d en $end
           $var wire 12 "2 addr $end
           $var wire 1 "S clk $end
           $var wire 32 "z data $end
          $upscope $end
        $upscope $end
      $upscope $end
    $upscope $end
    $scope module IDBarrier $end
     $var wire 5 @ rd $end
     $var wire 32 B io_in_op_two $end
     $var wire 32 T alu_op $end
     $var wire 32 a op_two $end
     $var wire 1 e reset $end
     $var wire 32 ~ io_in_op_one $end
     $var wire 4 "! io_out_alu_op $end
     $var wire 5 "% io_out_rd $end
     $var wire 32 "( io_out_op_two $end
     $var wire 1 ", io_in_control_regWrite $end
     $var wire 5 "O io_in_rd $end
     $var wire 1 "` io_out_control_regWrite $end
     $var wire 32 "i op_one $end
     $var wire 32 "l io_out_op_one $end
     $var wire 1 #' control_regWrite $end
     $var wire 4 #5 io_in_alu_op $end
     $var wire 1 #Y clock $end
    $upscope $end
    $scope module MEMBarrier $end
     $var wire 32 G rd $end
     $var wire 1 K reset $end
     $var wire 1 x control_regWrite $end
     $var wire 32 "1 result $end
     $var wire 5 "6 io_in_rd $end
     $var wire 1 "G io_in_control_regWrite $end
     $var wire 1 "_ io_out_control_regWrite $end
     $var wire 32 "t io_out_result $end
     $var wire 5 "u io_out_rd $end
     $var wire 32 #& io_in_result $end
     $var wire 1 #0 clock $end
    $upscope $end
    $scope module EXBarrier $end
     $var wire 1 H clock $end
     $var wire 32 P io_in_result $end
     $var wire 5 j rd $end
     $var wire 32 } result $end
     $var wire 1 "& io_out_control_regWrite $end
     $var wire 1 "? io_in_control_regWrite $end
     $var wire 1 "I control_regWrite $end
     $var wire 1 "Y reset $end
     $var wire 5 #" io_out_rd $end
     $var wire 32 #? io_out_result $end
     $var wire 5 #@ io_in_rd $end
    $upscope $end
    $scope module IFBarrier $end
     $var wire 32 Q io_in_inst_instruction $end
     $var wire 1 "Q clock $end
     $var wire 32 "R pc $end
     $var wire 32 "v io_in_pc $end
     $var wire 32 #B io_out_pc $end
     $var wire 1 #E reset $end
     $var wire 32 #L io_out_inst_instruction $end
    $upscope $end
  $upscope $end
$upscope $end
$enddefinitions $end
$dumpvars
b0000 r
b00000000000000000000000000000000 #K
b00000000000000000000000000000000 #6
b00000000000000000000000000000000 "U
b00000000000000000000000000000000 "M
b00000000000000000000000000000000 "8
b00000000000000000000000000000000 #.
b00000000000000000000000000000000 "#
b00000000000000000000000000000000 "4
b00000000000000000000000000000000 Q
b00000000000000000000000000000000 b
0#!
0"@
0D
0/
b00000000000000000000000000000000 0
b00000 Y
b00000000000000000000000000000000 "y
b00000 n
b00000000000000000000000000000000 #=
b00000000000000000000000000000000 "*
0z
0"n
b00000 #<
0]
0#2
0H
b00000 j
1"A
0+
0"Q
b00000000000000000000000000000000 #$
0#M
0p
b00000000000000000000000000000000 q
0#E
0#0
b00000000000000000000000000000000 T
0#A
0"`
b00000000000000000000000000000000 P
0"C
0".
0:
b00000000000000000000000000000000 #H
b00000000000000000000000000000000 "5
0"?
b00000000000000000000000000000000 "c
b00000000000000000000000000000000 #D
b00000000000000000000000000000000 "1
0?
0#P
0"o
b00000000000000000000000000000000 #8
b00000000000000000000000000000000 _
0"=
b00000000000000000000000000000000 B
b00000000000000000000000000000000 -
b00000000000000000000000000000000 #W
b00000000000000000000000000000000 "v
b00000 "u
b00000 3
0"k
b00000000000000000000000000000000 [
b00000000000000000000000000000000 S
b00000000000000000000000000000000 >
0"_
1#(
0"-
b00000000000000000000000000000000 2
0"~
b000000000000 u
b000000000000 X
b000000000000 C
0|
b0000 "p
b00000 t
b00000000000000000000000000000000 .
b00000000000000000000000000000000 "w
0#>
b00000000000000000000000000000000 #&
b00000 #+
0"]
b00000 "J
b00000000000000000000000000000000 "(
b00000000000000000000000000000000 "^
b00000000000000000000000000000000 #?
0"Y
b00000000000000000000000000000000 "$
b00000000000000000000000000000000 o
b0000 =
0'
b00000000000000000000000000000000 #R
b00000000000000000000000000000000 "i
b00000000000000000000000000000000 ""
0U
0"I
b00000 "6
b00000000000000000000000000000000 N
0M
0#
b00000000000000000000000000000000 "m
b00000000000000000000000000000000 #N
0",
b00000000000000000000000000000000 #F
b00000000000000000000000000000000 #1
b00000000000000000000000000000000 "3
1{
b00000 "f
b00000000000000000000000000000000 ~
0h
0"\
0"G
b00000 #*
b00000000000000000000000000000000 L
0K
1,
b00000000000000000000000000000000 a
0#9
0\
0"&
0*
b00000000000000000000000000000000 "t
b000000000000 4
b00000000000000000000000000000000 <
0&
b00000000000000000000000000000000 #Q
b000000000000 #,
b00000000000000000000000000000000 ">
0"g
b00000 "7
b00000000000000000000000000000000 O
b00000 @
0#Y
b00000 "P
b00000000000000000000000000000000 }
0"[
b00000 "H
b00000000000000000000000000000000 `
0#'
05
0x
0":
b00000000000000000000000000000000 #T
18
0W
b0000 "!
0%
b00000 #@
b00000000000000000000000000000000 ;
0"j
b00000 "B
b00000000000000000000000000000000 #3
b00000000000000000000000000000000 "R
b00000 "%
06
0!
b00000000000000000000000000000000 #L
0#G
b00000000000000000000000000000000 "N
b00000000000000000000000000000000 "9
b00000000000000000000000000000000 V
b00000000000000000000000000000000 9
1d
0#X
0"E
0I
b00000000000000000000000000000000 J
b00000000000000000000000000000000 #B
b00000000000000000000000000000000 #-
b00000000000000000000000000000000 i
b00000000000000000000000000000000 "L
b00000000000000000000000000000000 "D
0w
0"V
0#7
b00000 Z
0E
b00000000000000000000000000000000 "z
0(
b00000000000000000000000000000000 "r
b00000000000000000000000000000000 #S
0#V
b00000000000000000000000000000000 )
b00000000000000000000000000000000 "+
0#J
1#O
b00000000000000000000000000000000 "<
0"T
b00000 #"
b0000 "F
0"e
0#)
b00000 "q
b00000000000000000000000000000000 "l
0"
b000000000000 "2
0"a
b00000000000000000000000000000000 f
0e
0#%
0"/
b00000000000000000000000000000000 "}
b00000000000000000000000000000000 #I
b00000000000000000000000000000000 "h
0"'
b000000000000 "X
b00000000000000000000000000000000 "K
0#U
b00000000000000000000000000000000 y
0"W
0##
b00000000000000000000000000000000 G
b00000000000000000000000000000000 "{
0"S
b00000000000000000000000000000000 ";
b00000 l
0#4
b00000000000000000000000000000000 "Z
b00000000000000000000000000000000 #;
b000000000000 #/
b00000000000000000000000000000000 7
b00000000000000000000000000000000 "|
b00000 "d
0"b
0#C
b00000 "O
b00000000000000000000000000000000 g
b00000000000000000000000000000000 R
0"0
b0000 #5
b00000 m
b00000000000000000000000000000000 "x
0"s
b00000000000000000000000000000000 c
b00000000000000000000000000000000 ")
b00000000000000000000000000000000 F
b00000000000000000000000000000000 1
0s
0^
b00000 k
0A
0$
b00000000000000000000000000000000 #:
b00000000000000000000000000000000 v
$end
#0
b1111 =
1#7
1"o
1#U
b00000000000000000000000000000100 #T
1#E
b1111 "p
1"Y
b1111 #5
1K
1e
#1
1#Y
1"
15
1#C
1#0
1w
1"Q
1"[
1"'
1]
1"C
1#)
1H
1#M
16
1"S
1"E
1"V
1h
#6
0"C
05
0]
0"V
0#M
0h
0#0
0"'
0#)
0"E
0w
0#C
0#Y
0H
0"[
0"S
0"
0"Q
06
#11
1#Y
1"
15
1#C
1#0
1w
1"Q
1"[
1"'
1]
1"C
1#)
1H
1#M
16
1"S
1"E
1"V
1h
#16
0"C
05
0]
0"V
0#M
0h
0#0
0"'
0#)
0"E
0w
0#C
0#Y
0H
0"[
0"S
0"
0"Q
06
#21
1#Y
1"
15
1#C
1#0
1w
1"Q
1"[
1"'
1]
1"C
1#)
1H
1#M
16
1"S
1"E
1"V
1h
#26
0"C
05
0]
0"V
0#M
0h
0#0
0"'
0#)
0"E
0w
0#C
0#Y
0H
0"[
0"S
0"
0"Q
06
#31
1#Y
1"
15
1#C
1#0
1w
1"Q
1"[
1"'
1]
1"C
1#)
1H
1#M
16
1"S
1"E
1"V
1h
#36
0"C
05
0]
0"V
0#M
0h
0#0
0"'
0#)
0"E
0w
0#C
0#Y
0H
0"[
0"S
0"
0"Q
06
#41
1#Y
1"
15
1#C
1#0
1w
1"Q
1"[
1"'
1]
1"C
1#)
1H
1#M
16
1"S
1"E
1"V
1h
#46
06
0"o
b00000000000000000000000000010011 Q
0]
b0000 =
1"n
b00000000000000000000000000010011 "r
b0000 #5
0"V
1(
0#M
b00000000000100001000000000010011 2
b00000000000000000000000000010011 "w
1",
0#7
b00000000000000000000000000000000 #T
0K
1#4
1"e
1#P
0#Y
1"0
0"[
1&
0"S
0"Q
0e
b00000000000000000000000000010011 #L
1p
05
b00000000000100001000000000010011 "U
0#E
0"Y
b00000000000000000000000000010011 "$
b00000000000100001000000000010011 ;
0h
1#>
1+
0#0
0"'
0#)
b00000000000100001000000000010011 "y
1"a
1#A
0"E
1"@
1"T
0w
0#C
0H
0#U
b00000000000100001000000000010011 S
1"g
b0000 "p
0"
0"C
#51
1#Y
1"
15
1#C
b00000000000100001000000000010011 #=
1#0
1w
1"Q
1"[
1"'
1"`
1]
1W
1"C
1#)
1H
b00000000000100001000000000010011 "z
1#M
16
b00000000000100001000000000010011 "L
1"S
1"E
1"V
1#'
1h
1"?
#56
06
b00000000000000000000000000010011 ;
0]
b00000000000000000000000000000100 "9
0"V
b00000000000000000000000000010011 S
b000000000100 u
b00000000000000000000000000000100 -
0#M
b00000000000000000000000000000100 #.
0#Y
0"[
0"S
0"Q
b00000000000000000000000000010011 2
b00000000000000000000000000010011 "U
05
b00000000000000000000000000000100 <
b00000000000000000000000000000100 "}
0h
0#0
0"'
0#)
0"E
0w
0#C
0H
0"
b00000000000000000000000000010011 "y
0"C
#61
1"
b000000000100 "X
15
1#C
b000000000100 "2
b00000000000000000000000000010011 #=
b00000000000000000000000000010011 "z
1"Q
1"'
1"I
1"&
1"C
1#)
1#M
16
1#Y
b00000000000000000000000000010011 "L
b000000000100 C
1#0
1w
1"G
1"[
1]
1H
1"S
1"E
1"V
1h
#66
0"C
05
0]
0"V
b00000000000000000000000000001000 "9
0#M
0h
0#0
0"'
0#)
b00000000000000000000000000001000 #.
b00000000000000000000000000001000 <
0"E
b00000000000000000000000000001000 "}
b000000001000 u
0w
0#C
b00000000000000000000000000001000 -
0#Y
0H
0"[
0"S
0"
0"Q
06
#71
1#Y
1|
1"
15
1#C
1#0
1w
1"Q
1"_
1"[
1"'
b000000001000 "2
1#J
b000000001000 C
1]
1"C
1#)
1H
1#M
16
1"S
1"E
1"V
1h
1x
b000000001000 "X
#76
0"C
05
b00000000000000000000000000001100 "}
0]
b00000000000000000000000000001100 <
0"V
b00000000000000000000000000001100 -
b00000000000000000000000000001100 #.
0#M
0h
0#0
0"'
0#)
b00000000000000000000000000001100 "9
0"E
b000000001100 u
0w
0#C
0#Y
0H
0"[
0"S
0"
0"Q
06
#81
b000000001100 "2
1#Y
b000000001100 C
1"
15
1#C
1#0
1w
1"Q
1"[
1"'
b000000001100 "X
1]
1"C
1#)
1H
1#M
16
1"S
1"E
1"V
1h
#86
0"C
b00000000000000000000000000010000 #.
05
0]
b00000000000000000000000000010000 -
b000000010000 u
0"V
0#M
0h
b00000000000000000000000000010000 "9
0#0
0"'
0#)
b00000000000000000000000000010000 "}
0"E
0w
b00000000000000000000000000010000 <
0#C
0#Y
0H
0"[
0"S
0"
0"Q
06
#91
1#Y
1"
15
1#C
1#0
1w
1"Q
1"[
b000000010000 "2
1"'
1]
1"C
1#)
1H
1#M
16
b000000010000 C
1"S
1"E
1"V
1h
b000000010000 "X
#96
06
b000000010100 u
b00000000001000001000000000010011 ;
0]
0"V
0#M
b00000000001000001000000000010011 2
b00000000000000000000000000010100 "9
b00000000001000001000000000010011 "U
b00000000000000000000000000010100 -
b00000000001000001000000000010011 "y
0#Y
0"[
0"S
0"Q
b00000000000000000000000000010100 <
05
0h
0#0
0"'
0#)
0"E
b00000000001000001000000000010011 S
0w
b00000000000000000000000000010100 "}
0#C
0H
b00000000000000000000000000010100 #.
0"
0"C
#101
1#Y
1"
15
1#C
1#0
1w
1"Q
1"[
1"'
b000000010100 C
b00000000001000001000000000010011 "L
1]
b00000000001000001000000000010011 #=
1"C
1#)
1H
1#M
16
1"S
b000000010100 "2
b00000000001000001000000000010011 "z
1"E
1"V
1h
b000000010100 "X
#106
06
b00000000000000000000000000010011 ;
0]
0"V
b00000000000000000000000000010011 S
0#M
b000000011000 u
0#Y
b00000000000000000000000000011000 -
0"[
0"S
b00000000000000000000000000011000 #.
0"Q
b00000000000000000000000000011000 <
b00000000000000000000000000010011 2
b00000000000000000000000000010011 "U
05
b00000000000000000000000000011000 "9
0h
b00000000000000000000000000011000 "}
0#0
0"'
0#)
0"E
0w
0#C
0H
b00000000000000000000000000010011 "y
0"
0"C
#111
b000000011000 "2
1#Y
1"
b00000000000000000000000000010011 "L
15
1#C
1#0
b00000000000000000000000000010011 #=
1w
b00000000000000000000000000010011 "z
1"Q
1"[
b000000011000 C
1"'
1]
1"C
1#)
1H
1#M
16
1"S
1"E
b000000011000 "X
1"V
1h
#116
0"C
05
0]
0"V
0#M
0h
b00000000000000000000000000011100 "9
0#0
0"'
0#)
0"E
b00000000000000000000000000011100 #.
b00000000000000000000000000011100 <
b000000011100 u
0w
b00000000000000000000000000011100 "}
0#C
0#Y
0H
b00000000000000000000000000011100 -
0"[
0"S
0"
0"Q
06
#121
1#Y
b000000011100 C
1"
15
1#C
1#0
1w
1"Q
1"[
1"'
1]
1"C
1#)
1H
1#M
b000000011100 "2
16
1"S
b000000011100 "X
1"E
1"V
1h
#126
0"C
05
0]
b00000000000000000000000000100000 "9
0"V
0#M
0h
0#0
0"'
0#)
b00000000000000000000000000100000 #.
0"E
b00000000000000000000000000100000 -
0w
b000000100000 u
0#C
0#Y
0H
b00000000000000000000000000100000 <
b00000000000000000000000000100000 "}
0"[
0"S
0"
0"Q
06
#131
b000000100000 C
1#Y
1"
b000000100000 "2
15
b000000100000 "X
1#C
1#0
1w
1"Q
1"[
1"'
1]
1"C
1#)
1H
1#M
16
1"S
1"E
1"V
1h
#136
0"C
b00000000000000000000000000100100 "9
05
b00000000000000000000000000100100 "}
0]
0"V
0#M
0h
0#0
0"'
0#)
b00000000000000000000000000100100 -
b000000100100 u
0"E
0w
0#C
0#Y
0H
b00000000000000000000000000100100 #.
0"[
0"S
0"
0"Q
b00000000000000000000000000100100 <
06
#141
1#Y
b000000100100 "X
1"
15
1#C
1#0
1w
1"Q
1"[
1"'
1]
1"C
1#)
1H
1#M
16
1"S
1"E
1"V
1h
b000000100100 "2
b000000100100 C
#146
06
0]
b00000000001100001000000000010011 2
0"V
b00000000001100001000000000010011 "U
0#M
b00000000000000000000000000101000 "9
b00000000001100001000000000010011 "y
b00000000000000000000000000101000 -
0#Y
0"[
0"S
0"Q
05
b000000101000 u
b00000000001100001000000000010011 S
b00000000001100001000000000010011 ;
0h
0#0
0"'
0#)
b00000000000000000000000000101000 #.
0"E
b00000000000000000000000000101000 "}
0w
0#C
b00000000000000000000000000101000 <
0H
0"
0"C
#151
1#Y
1"
b00000000001100001000000000010011 #=
15
1#C
b00000000001100001000000000010011 "L
1w
1#0
1"Q
1"[
1"'
b00000000001100001000000000010011 "z
b000000101000 C
1]
b000000101000 "2
1"C
1#)
1H
1#M
16
1"S
1"E
1"V
1h
b000000101000 "X
#156
06
b00000000000000000000000000010011 ;
0]
0"V
b00000000000000000000000000010011 S
0#M
b00000000000000000000000000101100 "9
b000000101100 u
b00000000000000000000000000101100 -
b00000000000000000000000000101100 #.
0#Y
0"[
0"S
0"Q
b00000000000000000000000000010011 2
b00000000000000000000000000010011 "U
05
b00000000000000000000000000101100 <
0h
0#0
0"'
0#)
0"E
b00000000000000000000000000101100 "}
0w
0#C
0H
0"
b00000000000000000000000000010011 "y
0"C
#161
1#Y
b000000101100 "X
1"
b00000000000000000000000000010011 "L
15
1#C
b000000101100 "2
1#0
b00000000000000000000000000010011 #=
1w
b00000000000000000000000000010011 "z
1"Q
1"[
1"'
1]
1"C
1#)
1H
1#M
16
1"S
b000000101100 C
1"E
1"V
1h
#166
0"C
05
0]
b00000000000000000000000000110000 <
b000000110000 u
b00000000000000000000000000110000 "9
0"V
0#M
b00000000000000000000000000110000 -
0h
0#0
0"'
0#)
0"E
0w
b00000000000000000000000000110000 #.
0#C
0#Y
0H
b00000000000000000000000000110000 "}
0"[
0"S
0"
0"Q
06
#171
1#Y
1"
b000000110000 "2
b000000110000 "X
15
1#C
1#0
1w
1"Q
1"[
1"'
1]
1"C
1#)
1H
b000000110000 C
1#M
16
1"S
1"E
1"V
1h
#176
0"C
05
0]
b000000110100 u
b00000000000000000000000000110100 <
0"V
0#M
0h
0#0
0"'
0#)
b00000000000000000000000000110100 #.
0"E
b00000000000000000000000000110100 "}
0w
b00000000000000000000000000110100 -
0#C
0#Y
0H
0"[
0"S
0"
0"Q
b00000000000000000000000000110100 "9
06
#181
b000000110100 "X
1#Y
1"
15
1#C
1#0
1w
1"Q
1"[
1"'
b000000110100 C
1]
1"C
1#)
1H
1#M
b000000110100 "2
16
1"S
1"E
1"V
1h
#186
0"C
b00000000000000000000000000111000 "9
05
b00000000000000000000000000111000 -
0]
0"V
0#M
0h
b000000111000 u
0#0
0"'
0#)
0"E
b00000000000000000000000000111000 #.
0w
b00000000000000000000000000111000 "}
0#C
0#Y
0H
b00000000000000000000000000111000 <
0"[
0"S
0"
0"Q
06
#191
1#Y
1"
15
1#C
b000000111000 "2
1w
1#0
1"Q
b000000111000 C
1"[
1"'
1]
1"C
1#)
1H
b000000111000 "X
1#M
16
1"S
1"E
1"V
1h
#196
06
0]
b00000000011100001000000000010011 2
0"V
0#M
0#Y
0"[
b00000000011100001000000000010011 S
0"S
0"Q
b00000000011100001000000000010011 "U
05
b00000000000000000000000000111100 "9
b00000000000000000000000000111100 "}
0h
b00000000011100001000000000010011 ;
0#0
0"'
0#)
b00000000011100001000000000010011 "y
0"E
0w
b000000111100 u
0#C
0H
b00000000000000000000000000111100 -
b00000000000000000000000000111100 #.
0"
b00000000000000000000000000111100 <
0"C
#201
b000000111100 "X
b00000000011100001000000000010011 "z
1#Y
1"
15
1#C
1#0
1w
1"Q
b000000111100 C
1"[
1"'
1]
b00000000011100001000000000010011 #=
1"C
1#)
1H
1#M
16
b00000000011100001000000000010011 "L
1"S
1"E
1"V
1h
b000000111100 "2
#206
06
b00000000000000000000000001000000 "}
b00000000000000000000000000010011 ;
0]
0"V
b00000000000000000000000000010011 S
0#M
b000001000000 u
b00000000000000000000000001000000 "9
b00000000000000000000000001000000 #.
0#Y
0"[
0"S
0"Q
b00000000000000000000000001000000 <
b00000000000000000000000000010011 2
b00000000000000000000000000010011 "U
05
0h
0#0
0"'
0#)
0"E
0w
0#C
b00000000000000000000000001000000 -
0H
0"
b00000000000000000000000000010011 "y
0"C
#211
1#Y
b000001000000 "X
1"
b00000000000000000000000000010011 "L
15
1#C
1#0
b00000000000000000000000000010011 #=
1w
b00000000000000000000000000010011 "z
1"Q
1"[
1"'
b000001000000 "2
1]
1"C
1#)
b000001000000 C
1H
1#M
16
1"S
1"E
1"V
1h
#216
0"C
b00000000000000000000000001000100 "}
b00000000000000000000000001000100 #.
05
0]
0"V
0#M
0h
b00000000000000000000000001000100 -
b000001000100 u
0#0
0"'
0#)
0"E
0w
b00000000000000000000000001000100 "9
0#C
0#Y
0H
0"[
0"S
0"
0"Q
b00000000000000000000000001000100 <
06
#221
1#Y
1"
b000001000100 C
15
1#C
1#0
1w
1"Q
b000001000100 "X
1"[
1"'
1]
1"C
1#)
1H
1#M
16
1"S
1"E
1"V
1h
b000001000100 "2
#226
0"C
05
0]
0"V
b000001001000 u
0#M
0h
0#0
0"'
0#)
b00000000000000000000000001001000 "}
0"E
b00000000000000000000000001001000 "9
b00000000000000000000000001001000 #.
0w
0#C
0#Y
b00000000000000000000000001001000 -
0H
b00000000000000000000000001001000 <
0"[
0"S
0"
0"Q
06
#231
1#Y
1"
15
b000001001000 "2
1#C
1#0
1w
1"Q
1"[
1"'
1]
1"C
1#)
1H
1#M
b000001001000 "X
b000001001000 C
16
1"S
1"E
1"V
1h
