waveforms/addi.s.vcd
$date
2025-09-08T23:44+0000
$end
$version
0.2
$end
$comment

$end
$timescale 1ns  $end
$scope module Tile $end
 $var wire 1 / io_regsWriteEnable $end
 $var wire 32 1 io_regsReadData $end
 $var wire 32 < io_IMEMAddress $end
 $var wire 1 I io_regsDeviceWriteEnable $end
 $var wire 32 d io_DMEMAddress $end
 $var wire 32 ", io_DMEMWriteData $end
 $var wire 1 "0 CPU $end
 $var wire 32 "6 io_regsDeviceWriteData $end
 $var wire 5 "9 io_regsDeviceWriteAddress $end
 $var wire 1 "E clock $end
 $var wire 32 "M io_currentPC $end
 $var wire 5 "R io_regsAddress $end
 $var wire 1 "d io_DMEMWriteEnable $end
 $var wire 32 "e io_memDeviceWriteAddress $end
 $var wire 32 "| io_IMEMWriteData $end
 $var wire 32 "~ io_memDeviceWriteData $end
 $var wire 32 #5 io_DMEMReadData $end
 $var wire 1 #; reset $end
 $var wire 1 #B io_setup $end
 $var wire 1 #K io_memDeviceWriteEnable $end
 $var wire 32 #[ io_regsWriteData $end
  $scope module CPU.MEMBarrier $end
  $upscope $end
  $scope module CPU.EX $end
  $upscope $end
  $scope module CPU.EXBarrier $end
  $upscope $end
  $scope module CPU.MEM $end
  $upscope $end
  $scope module CPU.IDBarrier $end
  $upscope $end
  $scope module CPU.ID $end
  $upscope $end
  $scope module CPU.EX.ALU $end
  $upscope $end
  $scope module CPU.ID.registers $end
  $upscope $end
  $scope module CPU.IFBarrier $end
  $upscope $end
  $scope module CPU.IF $end
  $upscope $end
  $scope module CPU.IF.IMEM $end
  $upscope $end
  $scope module CPU.MEM.DMEM $end
  $upscope $end
  $scope module CPU.ID.Decoder $end
  $upscope $end
  $scope module CPU $end
   $var wire 1 % IDBarrier $end
   $var wire 32 - testHarness_setupSignals_IMEMsignals_address $end
   $var wire 32 2 testHarness_setupSignals_IMEMsignals_instruction $end
   $var wire 1 : testHarness_regUpdates_writeEnable $end
   $var wire 1 M ID $end
   $var wire 1 _ testHarness_memUpdates_writeEnable $end
   $var wire 32 j testHarness_regUpdates_writeData $end
   $var wire 5 m testHarness_regUpdates_writeAddress $end
   $var wire 5 n testHarness_setupSignals_registerSignals_readAddress $end
   $var wire 32 p testHarness_testReadouts_registerRead $end
   $var wire 32 x testHarness_currentPC $end
   $var wire 1 | IF $end
   $var wire 32 "- testHarness_memUpdates_writeAddress $end
   $var wire 1 "1 IFBarrier $end
   $var wire 1 "2 testHarness_setupSignals_DMEMsignals_setup $end
   $var wire 32 "> testHarness_testReadouts_DMEMread $end
   $var wire 32 "@ testHarness_setupSignals_DMEMsignals_dataIn $end
   $var wire 1 "B testHarness_setupSignals_IMEMsignals_setup $end
   $var wire 1 "] clock $end
   $var wire 32 "` testHarness_setupSignals_DMEMsignals_dataAddress $end
   $var wire 1 "i testHarness_setupSignals_registerSignals_setup $end
   $var wire 1 "m MEM $end
   $var wire 1 ## testHarness_setupSignals_registerSignals_writeEnable $end
   $var wire 1 #$ EXBarrier $end
   $var wire 1 #6 EX $end
   $var wire 32 #J testHarness_memUpdates_writeData $end
   $var wire 32 #V testHarness_setupSignals_registerSignals_writeData $end
   $var wire 1 #Y reset $end
   $var wire 1 #Z MEMBarrier $end
   $var wire 1 #\ testHarness_setupSignals_DMEMsignals_writeEnable $end
    $scope module ID $end
     $var wire 1 ! testHarness_registerSetup_writeEnable $end
     $var wire 4 = io_alu_op $end
     $var wire 32 L testHarness_registerPeek $end
     $var wire 32 R io_op_two $end
     $var wire 32 T _GEN_4 $end
     $var wire 5 Z io_rd $end
     $var wire 1 ] testHarness_testUpdates_writeEnable $end
     $var wire 32 c testHarness_registerSetup_writeData $end
     $var wire 5 l testHarness_testUpdates_writeAddress $end
     $var wire 32 u rs2 $end
     $var wire 32 "$ io_pc $end
     $var wire 32 "& io_inst_instruction $end
     $var wire 32 "5 io_op_one $end
     $var wire 32 ": _GEN_0 $end
     $var wire 5 "D io_wb_address $end
     $var wire 5 "L testHarness_registerSetup_readAddress $end
     $var wire 32 "O io_wb_data $end
     $var wire 1 "Y registers $end
     $var wire 1 "p io_control_regWrite $end
     $var wire 32 "v rs1 $end
     $var wire 32 #! _GEN_2 $end
     $var wire 1 #( Decoder $end
     $var wire 32 #- _GEN_5 $end
     $var wire 1 #E testHarness_registerSetup_setup $end
     $var wire 32 #H testHarness_testUpdates_writeData $end
     $var wire 1 #N io_wb_enable $end
     $var wire 1 #Q clock $end
      $scope module registers $end
       $var wire 1 ' testHarness_testUpdates_writeEnable $end
       $var wire 1 ( testHarness_setup_setup $end
       $var wire 32 0 testHarness_testUpdates_writeData $end
       $var wire 5 3 readAddress1 $end
       $var wire 1 6 clock $end
       $var wire 32 7 io_readData1 $end
       $var wire 32 9 registerFile $end
       $var wire 1 A testHarness_setup_writeEnable $end
       $var wire 1 V writeEnable $end
       $var wire 5 [ io_readAddress1 $end
       $var wire 5 o testHarness_testUpdates_writeAddress $end
       $var wire 1 ~ io_writeEnable $end
       $var wire 32 "7 testHarness_setup_writeData $end
       $var wire 32 "F io_writeData $end
       $var wire 5 "h testHarness_setup_readAddress $end
       $var wire 32 "o io_readData2 $end
       $var wire 5 "s writeAddress $end
       $var wire 5 #. io_writeAddress $end
       $var wire 5 #/ io_readAddress2 $end
        $scope module registerFile $end
          $scope module _T_33 $end
           $var wire 1 # en $end
           $var wire 1 * pipeline_valid_0 $end
           $var wire 1 5 clk $end
           $var wire 5 v pipeline_addr_0 $end
           $var wire 1 } mask $end
           $var wire 1 "? valid $end
           $var wire 5 "f addr $end
           $var wire 32 #' pipeline_data_0 $end
           $var wire 32 #L data $end
          $upscope $end
          $scope module _T_41 $end
           $var wire 32 W data $end
           $var wire 1 t en $end
           $var wire 1 "X clk $end
           $var wire 5 #@ addr $end
          $upscope $end
          $scope module _T_38 $end
           $var wire 1 ^ clk $end
           $var wire 1 "< en $end
           $var wire 5 "J addr $end
           $var wire 32 #< data $end
          $upscope $end
        $upscope $end
      $upscope $end
      $scope module Decoder $end
       $var wire 1 q io_op2Select $end
       $var wire 1 "V io_controlSignals_regWrite $end
       $var wire 4 "r io_ALUop $end
       $var wire 1 "u io_op1Select $end
       $var wire 32 "z io_instruction_instruction $end
      $upscope $end
    $upscope $end
    $scope module MEM $end
     $var wire 1 D DMEM $end
     $var wire 32 J testHarness_testUpdates_writeAddress $end
     $var wire 32 { testHarness_DMEMsetup_dataAddress $end
     $var wire 1 "^ testHarness_testUpdates_writeEnable $end
     $var wire 1 "l testHarness_DMEMsetup_writeEnable $end
     $var wire 32 "{ testHarness_DMEMpeek $end
     $var wire 1 #8 testHarness_DMEMsetup_setup $end
     $var wire 32 #? testHarness_testUpdates_writeData $end
     $var wire 1 #G clock $end
     $var wire 32 #W testHarness_DMEMsetup_dataIn $end
      $scope module DMEM $end
       $var wire 32 ) testHarness_testUpdates_writeData $end
       $var wire 1 , _GEN_6 $end
       $var wire 12 4 data__T_24_addr_pipe_0 $end
       $var wire 1 ? testHarness_testUpdates_writeEnable $end
       $var wire 32 F testHarness_setup_dataAddress $end
       $var wire 32 N testHarness_testUpdates_writeAddress $end
       $var wire 32 ` addressSource $end
       $var wire 32 g data $end
       $var wire 1 "_ testHarness_setup_writeEnable $end
       $var wire 1 "c testHarness_setup_setup $end
       $var wire 1 #, clock $end
       $var wire 32 #: testHarness_setup_dataIn $end
       $var wire 32 #M io_dataOut $end
        $scope module data $end
          $scope module _T_26 $end
           $var wire 1 " clk $end
           $var wire 12 Y addr $end
           $var wire 32 a pipeline_data_0 $end
           $var wire 1 "/ pipeline_valid_0 $end
           $var wire 32 "= data $end
           $var wire 1 #& en $end
           $var wire 12 #0 pipeline_addr_0 $end
           $var wire 1 #= valid $end
           $var wire 1 #S mask $end
          $upscope $end
          $scope module _T_24 $end
           $var wire 32 > data $end
           $var wire 1 "G clk $end
           $var wire 1 #+ en $end
           $var wire 12 #3 addr $end
          $upscope $end
        $upscope $end
      $upscope $end
    $upscope $end
    $scope module EX $end
     $var wire 1 $ ALU $end
     $var wire 4 s io_alu_op $end
     $var wire 32 "% io_op_two $end
     $var wire 32 "\ io_op_one $end
     $var wire 32 #7 io_result $end
      $scope module ALU $end
       $var wire 32 . io_op_one $end
       $var wire 32 \ io_result $end
       $var wire 32 h _GEN_1 $end
       $var wire 4 "H io_alu_op $end
       $var wire 32 "P _GEN_3 $end
       $var wire 32 "j _GEN_0 $end
       $var wire 32 #1 io_op_two $end
       $var wire 32 #R _GEN_2 $end
      $upscope $end
    $upscope $end
    $scope module IF $end
     $var wire 1 & testHarness_IMEMsetup_setup $end
     $var wire 1 E IMEM $end
     $var wire 32 O io_PC $end
     $var wire 32 S testHarness_IMEMsetup_instruction $end
     $var wire 32 r PC $end
     $var wire 1 ") clock $end
     $var wire 32 "+ testHarness_PC $end
     $var wire 1 "q reset $end
     $var wire 32 "t io_inst_instruction $end
     $var wire 32 #" testHarness_IMEMsetup_address $end
     $var wire 32 #X _GEN_0 $end
      $scope module IMEM $end
       $var wire 32 ; testHarness_setupSignals_instruction $end
       $var wire 12 C instructions__T_20_addr_pipe_0 $end
       $var wire 1 i clock $end
       $var wire 32 "; testHarness_setupSignals_address $end
       $var wire 1 "C _GEN_4 $end
       $var wire 32 "N io_instruction $end
       $var wire 1 "g testHarness_setupSignals_setup $end
       $var wire 32 #2 addressSource $end
       $var wire 32 #> testHarness_requestedAddress $end
       $var wire 32 #O io_instructionAddress $end
       $var wire 32 #U instructions $end
        $scope module instructions $end
          $scope module _T_18 $end
           $var wire 1 + valid $end
           $var wire 1 8 mask $end
           $var wire 1 X pipeline_valid_0 $end
           $var wire 12 w addr $end
           $var wire 1 y clk $end
           $var wire 32 "W data $end
           $var wire 12 "Z pipeline_addr_0 $end
           $var wire 32 #A pipeline_data_0 $end
           $var wire 1 #T en $end
          $upscope $end
          $scope module _T_20 $end
           $var wire 1 e en $end
           $var wire 12 "4 addr $end
           $var wire 1 "U clk $end
           $var wire 32 "} data $end
          $upscope $end
        $upscope $end
      $upscope $end
    $upscope $end
    $scope module IDBarrier $end
     $var wire 5 @ rd $end
     $var wire 32 B io_in_op_two $end
     $var wire 32 U alu_op $end
     $var wire 32 b op_two $end
     $var wire 1 f reset $end
     $var wire 32 "" io_in_op_one $end
     $var wire 4 "# io_out_alu_op $end
     $var wire 5 "' io_out_rd $end
     $var wire 32 "* io_out_op_two $end
     $var wire 1 ". io_in_control_regWrite $end
     $var wire 5 "Q io_in_rd $end
     $var wire 1 "b io_out_control_regWrite $end
     $var wire 32 "k op_one $end
     $var wire 32 "n io_out_op_one $end
     $var wire 1 #* control_regWrite $end
     $var wire 4 #9 io_in_alu_op $end
     $var wire 1 #] clock $end
    $upscope $end
    $scope module MEMBarrier $end
     $var wire 32 G rd $end
     $var wire 1 K reset $end
     $var wire 1 z control_regWrite $end
     $var wire 32 "3 result $end
     $var wire 5 "8 io_in_rd $end
     $var wire 1 "I io_in_control_regWrite $end
     $var wire 1 "a io_out_control_regWrite $end
     $var wire 32 "w io_out_result $end
     $var wire 5 "x io_out_rd $end
     $var wire 32 #) io_in_result $end
     $var wire 1 #4 clock $end
    $upscope $end
    $scope module EXBarrier $end
     $var wire 1 H clock $end
     $var wire 32 P io_in_result $end
     $var wire 5 k rd $end
     $var wire 32 "! result $end
     $var wire 1 "( io_out_control_regWrite $end
     $var wire 1 "A io_in_control_regWrite $end
     $var wire 1 "K control_regWrite $end
     $var wire 1 "[ reset $end
     $var wire 5 #% io_out_rd $end
     $var wire 32 #C io_out_result $end
     $var wire 5 #D io_in_rd $end
    $upscope $end
    $scope module IFBarrier $end
     $var wire 32 Q io_in_inst_instruction $end
     $var wire 1 "S clock $end
     $var wire 32 "T pc $end
     $var wire 32 "y io_in_pc $end
     $var wire 32 #F io_out_pc $end
     $var wire 1 #I reset $end
     $var wire 32 #P io_out_inst_instruction $end
    $upscope $end
  $upscope $end
$upscope $end
$enddefinitions $end
$dumpvars
0"c
0"1
b00000000000000000000000000000000 "j
b00000000000000000000000000000000 r
b00000000000000000000000000000000 "M
b00000 "9
b00000000000000000000000000000000 Q
0~
b00000000000000000000000000000000 b
b00000 n
0D
0/
b00000000000000000000000000000000 "y
b00000000000000000000000000000000 0
b00000000000000000000000000000000 "\
b00000000000000000000000000000000 "*
0z
b0000 s
0]
0H
0"<
0+
b00000000000000000000000000000000 #V
b00000000000000000000000000000000 "&
0"l
0"d
0#E
b00000 "'
b00000000000000000000000000000000 T
0"2
b00000 #.
b00000 "8
0"K
b00000000000000000000000000000000 P
0#$
0".
0:
0#,
b00000000000000000000000000000000 #H
b00000000000000000000000000000000 "5
b000000000000 Y
0"?
1#S
0?
b000000000000 #0
b00000000000000000000000000000000 "W
b00000000000000000000000000000000 "%
b00000000000000000000000000000000 B
b00000000000000000000000000000000 -
b00000000000000000000000000000000 #W
b00000000000000000000000000000000 "v
b00000 3
b00000000000000000000000000000000 p
b00000000000000000000000000000000 "6
b00000000000000000000000000000000 "!
b00000000000000000000000000000000 >
b00000000000000000000000000000000 S
0"_
b00000 [
b00000000000000000000000000000000 2
b00000000000000000000000000000000 #2
b000000000000 C
0|
1"C
b00000000000000000000000000000000 .
b00000000000000000000000000000000 #X
b00000000000000000000000000000000 #C
b00000000000000000000000000000000 "w
0"]
b00000 "J
b00000000000000000000000000000000 #?
b00000000000000000000000000000000 {
0"Y
b00000000000000000000000000000000 #"
b00000000000000000000000000000000 ",
b00000000000000000000000000000000 "$
b0000 =
0'
b00000000000000000000000000000000 #R
b00000000000000000000000000000000 #J
b00000000000000000000000000000000 #5
b00000000000000000000000000000000 "T
b00000000000000000000000000000000 "7
b00000000000000000000000000000000 ""
1}
0#\
0#*
0"I
0M
b00000000000000000000000000000000 N
0#
b00000000000000000000000000000000 "e
b00000000000000000000000000000000 #1
b00000000000000000000000000000000 "P
b00000000000000000000000000000000 #F
b00000000000000000000000000000000 "3
0#Z
b00000 "f
0"q
0#=
0"G
0#(
1,
b00000000000000000000000000000000 L
0K
b00000000000000000000000000000000 a
0y
0#N
0"X
b0000 #9
0"m
0*
b00000000000000000000000000000000 "t
b00000000000000000000000000000000 #U
b000000000000 4
0X
b00000000000000000000000000000000 <
0&
b00000000000000000000000000000000 ">
b000000000000 w
b0000 "H
b00000 v
0#]
0"g
0V
b00000000000000000000000000000000 O
1e
0#Y
b00000000000000000000000000000000 "`
b00000000000000000000000000000000 #A
b00000 @
0"[
b00000000000000000000000000000000 h
b00000000000000000000000000000000 `
05
0")
b000000000000 "Z
b00000 "x
b00000 #D
18
b00000000000000000000000000000000 ;
0%
b00000000000000000000000000000000 #P
b00000 #@
b00000000000000000000000000000000 "o
0#K
0"U
0#6
b00000000000000000000000000000000 "=
06
0!
b00000000000000000000000000000000 #L
b00000000000000000000000000000000 "k
0#G
b00000000000000000000000000000000 "N
b00000000000000000000000000000000 9
0f
0#;
0#&
0"E
0I
b00000000000000000000000000000000 J
0"(
b00000000000000000000000000000000 "~
1#+
b00000 "Q
b00000000000000000000000000000000 #-
0"V
b00000 o
b00000 Z
0E
b00000000000000000000000000000000 "z
b00000000000000000000000000000000 #[
b00000000000000000000000000000000 )
0(
0"u
b00000000000000000000000000000000 #)
b00000000000000000000000000000000 #>
b00000000000000000000000000000000 "@
b00000000000000000000000000000000 #!
b00000000000000000000000000000000 "+
b00000 "s
0"i
0q
b00000 "R
0i
b00000000000000000000000000000000 U
b00000000000000000000000000000000 j
0"
b00000000000000000000000000000000 #M
b00000000000000000000000000000000 "O
b00000000000000000000000000000000 ":
b00000 #/
0#B
0"a
0"/
b00000000000000000000000000000000 "}
b0000 "r
b0000 "#
b00000 "L
b00000000000000000000000000000000 d
b00000 "D
0#8
b00000000000000000000000000000000 \
b00000 #%
0"B
b00000000000000000000000000000000 G
0##
b00000000000000000000000000000000 "{
0"p
0#Q
b00000000000000000000000000000000 u
0t
0#4
b00000000000000000000000000000000 ";
0"S
b00000 l
0#I
0_
b000000000000 #3
b00000000000000000000000000000000 7
b00000000000000000000000000000000 #7
b00000000000000000000000000000000 "|
0"b
b00000000000000000000000000000000 g
b00000000000000000000000000000000 R
b00000000000000000000000000000000 "-
0"0
b00000 m
b00000 "h
0#T
0"^
b00000000000000000000000000000000 #<
b00000000000000000000000000000000 "F
b00000000000000000000000000000000 x
0"A
b00000000000000000000000000000000 #'
b00000000000000000000000000000000 F
b00000000000000000000000000000000 1
b00000000000000000000000000000000 c
0^
b00000000000000000000000000000000 W
0A
b00000 k
0$
b00000000000000000000000000000000 "n
b00000000000000000000000000000000 #:
b000000000000 "4
b00000000000000000000000000000000 #O
$end
#0
1K
1#;
1f
1#Y
b1111 "r
1"q
1"[
b1111 #9
b1111 =
1#I
b00000000000000000000000000000100 #X
#1
1y
1"X
1")
1"U
1"G
1i
16
1#,
1#4
1"S
1#Q
15
1"]
1^
1H
1"
1#G
1"E
1#]
#6
0"]
06
0y
0"S
0"U
0^
0H
0")
0"E
05
0"G
0i
0"X
0#Q
0#,
0"
0#4
0#]
0#G
#11
1y
1"X
1")
1"U
1"G
1i
16
1#,
1#4
1"S
1#Q
15
1"]
1^
1H
1"
1#G
1"E
1#]
#16
0"]
06
0y
0"S
0"U
0^
0H
0")
0"E
05
0"G
0i
0"X
0#Q
0#,
0"
0#4
0#]
0#G
#21
1y
1"X
1")
1"U
1"G
1i
16
1#,
1#4
1"S
1#Q
15
1"]
1^
1H
1"
1#G
1"E
1#]
#26
0"]
06
0y
0"S
0"U
0^
0H
0")
0"E
05
0"G
0i
0"X
0#Q
0#,
0"
0#4
0#]
0#G
#31
1y
1"X
1")
1"U
1"G
1i
16
1#,
1#4
1"S
1#Q
15
1"]
1^
1H
1"
1#G
1"E
1#]
#36
0"]
06
0y
0"S
0"U
0^
0H
0")
0"E
05
0"G
0i
0"X
0#Q
0#,
0"
0#4
0#]
0#G
#41
1y
1"X
1")
1"U
1"G
1i
16
1#,
1#4
1"S
1#Q
15
1"]
1^
1H
1"
1#G
1"E
1#]
#46
b00000000000000000000000000010011 "&
b00000000000000000000000000000001 #-
1q
1#E
0"U
b00000000000100001000000000010011 S
1"2
1".
b00000000000000000000000000010011 #P
0"E
0#;
0K
0"[
0#,
1"i
b00000000000000000000000000010011 Q
1"c
0#G
0#Y
b0000 #9
1"B
06
0#I
0^
1#B
0"X
0f
1#T
0"q
b00000000000100001000000000010011 "|
0"]
05
0"G
b0000 =
0i
0#Q
b00000000000100001000000000010011 ;
b00000000000100001000000000010011 2
1"p
0"
0#4
0#]
b00000000000000000000000000010011 "z
0y
1&
0"S
b0000 "r
0H
1"V
0")
1(
1#8
b00000000000000000000000000010011 "t
b00000000000000000000000000000000 #X
1"g
b00000000000100001000000000010011 "W
1+
#51
1y
1"A
1"X
1")
b00000000000100001000000000010011 #A
1"U
1"G
1i
16
1#,
1#4
1"S
1#Q
15
1"]
1^
b00000000000100001000000000010011 "}
1#*
1H
1"
1#G
1"E
b00000000000100001000000000010011 "N
1"b
1#]
1X
#56
b00000000000000000000000000010011 S
0"]
0"U
b00000000000000000000000000000100 <
b00000000000000000000000000010011 2
0"E
05
0"G
0i
0#Q
0#,
0"
0#4
0#]
b00000000000000000000000000010011 "W
0#G
06
0y
b00000000000000000000000000000100 #"
0"S
0^
0H
0")
b00000000000000000000000000010011 ;
0"X
b00000000000000000000000000000100 #2
b00000000000000000000000000010011 "|
b00000000000000000000000000000100 -
b000000000100 w
b00000000000000000000000000000100 ";
#61
1"X
1")
1i
1#,
1#Q
15
1^
1H
1#G
b00000000000000000000000000010011 "}
1#]
b00000000000000000000000000010011 "N
1y
1"K
1"U
1"G
b000000000100 C
16
1#4
b000000000100 "Z
1"S
1"]
1"
1"(
b000000000100 "4
1"E
b00000000000000000000000000010011 #A
1"I
#66
0"]
06
0y
0"S
0"U
0^
b00000000000000000000000000001000 ";
0H
0")
b000000001000 w
0"E
05
0"G
b00000000000000000000000000001000 #"
0i
b00000000000000000000000000001000 #2
b00000000000000000000000000001000 <
0"X
b00000000000000000000000000001000 -
0#Q
0#,
0"
0#4
0#]
0#G
#71
1y
1"X
1")
1"U
1"G
b000000001000 "4
1i
16
1#,
1#4
1"S
b000000001000 "Z
1#Q
15
1z
1"]
1^
1~
1H
1"
b000000001000 C
1#G
1"E
1#N
1#]
1"a
#76
0"]
b00000000000000000000000000001100 -
06
0y
0"S
0"U
0^
b00000000000000000000000000001100 <
b00000000000000000000000000001100 #"
0H
0")
b00000000000000000000000000001100 ";
0"E
05
0"G
0i
0"X
0#Q
0#,
0"
0#4
0#]
0#G
b000000001100 w
b00000000000000000000000000001100 #2
#81
1y
1"X
1")
1"U
1"G
b000000001100 C
1i
16
1#,
1#4
1"S
1#Q
15
1"]
1^
1H
1"
1#G
b000000001100 "Z
1"E
b000000001100 "4
1#]
#86
0"]
06
0y
0"S
0"U
0^
b00000000000000000000000000010000 #"
0H
b00000000000000000000000000010000 -
0")
0"E
05
0"G
b00000000000000000000000000010000 <
0i
b000000010000 w
0"X
0#Q
0#,
0"
b00000000000000000000000000010000 ";
0#4
0#]
0#G
b00000000000000000000000000010000 #2
#91
1y
1"X
1")
1"U
1"G
b000000010000 "4
1i
16
1#,
1#4
1"S
1#Q
15
b000000010000 C
1"]
1^
b000000010000 "Z
1H
1"
1#G
1"E
1#]
#96
b00000000000000000000000000010100 <
0"]
b00000000000000000000000000010100 ";
b00000000001000001000000000010011 "W
b00000000000000000000000000010100 #2
0"U
0"E
05
0"G
0i
0#Q
0#,
b00000000001000001000000000010011 2
0"
0#4
0#]
0#G
b000000010100 w
06
0y
b00000000001000001000000000010011 S
0"S
0^
b00000000001000001000000000010011 "|
0H
0")
b00000000000000000000000000010100 -
b00000000000000000000000000010100 #"
b00000000001000001000000000010011 ;
0"X
#101
b000000010100 "Z
1y
1"X
1")
1"U
1"G
1i
b000000010100 C
16
1#,
b000000010100 "4
1#4
b00000000001000001000000000010011 #A
1"S
1#Q
15
b00000000001000001000000000010011 "}
1"]
1^
b00000000001000001000000000010011 "N
1H
1"
1#G
1"E
1#]
#106
b00000000000000000000000000010011 S
0"]
b00000000000000000000000000011000 ";
b00000000000000000000000000011000 #2
0"U
b00000000000000000000000000010011 2
0"E
05
0"G
b00000000000000000000000000011000 -
0i
b000000011000 w
0#Q
0#,
b00000000000000000000000000011000 <
0"
0#4
0#]
b00000000000000000000000000010011 "W
b00000000000000000000000000011000 #"
0#G
06
0y
0"S
0^
0H
0")
b00000000000000000000000000010011 ;
0"X
b00000000000000000000000000010011 "|
#111
1y
1"X
1")
1"U
1"G
1i
16
1#,
1#4
1"S
1#Q
15
b000000011000 "Z
1"]
1^
b000000011000 C
1H
1"
1#G
b00000000000000000000000000010011 "}
1"E
b00000000000000000000000000010011 #A
b000000011000 "4
1#]
b00000000000000000000000000010011 "N
#116
0"]
06
0y
0"S
0"U
0^
0H
b00000000000000000000000000011100 #"
0")
0"E
05
0"G
0i
b00000000000000000000000000011100 -
b00000000000000000000000000011100 ";
0"X
0#Q
0#,
b00000000000000000000000000011100 <
0"
0#4
0#]
b000000011100 w
0#G
b00000000000000000000000000011100 #2
#121
1y
1"X
1")
b000000011100 "4
1"U
1"G
b000000011100 "Z
1i
16
1#,
1#4
1"S
1#Q
15
1"]
1^
1H
1"
1#G
b000000011100 C
1"E
1#]
#126
0"]
06
0y
b00000000000000000000000000100000 ";
b00000000000000000000000000100000 -
b00000000000000000000000000100000 <
0"S
0"U
0^
0H
0")
0"E
05
0"G
0i
0"X
b00000000000000000000000000100000 #2
0#Q
0#,
0"
0#4
0#]
b000000100000 w
0#G
b00000000000000000000000000100000 #"
#131
1y
1"X
1")
1"U
1"G
b000000100000 C
1i
16
1#,
1#4
1"S
1#Q
15
1"]
1^
b000000100000 "4
b000000100000 "Z
1H
1"
1#G
1"E
1#]
#136
b00000000000000000000000000100100 -
0"]
06
0y
0"S
0"U
0^
0H
b000000100100 w
0")
b00000000000000000000000000100100 <
0"E
05
0"G
0i
b00000000000000000000000000100100 #2
0"X
0#Q
0#,
0"
b00000000000000000000000000100100 ";
0#4
0#]
0#G
b00000000000000000000000000100100 #"
#141
1y
1"X
1")
b000000100100 "4
1"U
1"G
b000000100100 "Z
1i
16
1#,
1#4
1"S
1#Q
15
1"]
b000000100100 C
1^
1H
1"
1#G
1"E
1#]
#146
0"]
b00000000001100001000000000010011 S
b00000000001100001000000000010011 2
0"U
0"E
05
0"G
0i
0#Q
0#,
b00000000000000000000000000101000 <
b00000000000000000000000000101000 -
b00000000000000000000000000101000 #"
0"
b00000000001100001000000000010011 "W
0#4
0#]
b00000000001100001000000000010011 ;
b000000101000 w
0#G
06
0y
0"S
0^
0H
0")
b00000000001100001000000000010011 "|
0"X
b00000000000000000000000000101000 ";
b00000000000000000000000000101000 #2
#151
1y
b000000101000 C
b00000000001100001000000000010011 "}
1"X
1")
1"U
1"G
1i
16
1#,
1#4
b00000000001100001000000000010011 "N
1#Q
1"S
15
1"]
b000000101000 "Z
b00000000001100001000000000010011 #A
1^
b000000101000 "4
1H
1"
1#G
1"E
1#]
#156
b00000000000000000000000000010011 S
0"]
0"U
b00000000000000000000000000010011 2
0"E
05
0"G
0i
b00000000000000000000000000101100 #2
0#Q
0#,
b00000000000000000000000000101100 #"
0"
0#4
0#]
b00000000000000000000000000010011 "W
0#G
b000000101100 w
06
0y
0"S
0^
0H
0")
b00000000000000000000000000010011 ;
b00000000000000000000000000101100 -
b00000000000000000000000000101100 ";
0"X
b00000000000000000000000000010011 "|
b00000000000000000000000000101100 <
#161
1y
1"X
1")
b000000101100 "Z
1"U
1"G
1i
16
1#,
1#4
1"S
1#Q
15
1"]
1^
1H
1"
b000000101100 "4
b000000101100 C
1#G
b00000000000000000000000000010011 "}
1"E
b00000000000000000000000000010011 #A
1#]
b00000000000000000000000000010011 "N
#166
b00000000000000000000000000110000 #"
0"]
06
0y
0"S
b00000000000000000000000000110000 -
0"U
0^
0H
0")
0"E
05
0"G
b00000000000000000000000000110000 <
0i
0"X
b00000000000000000000000000110000 #2
0#Q
0#,
b00000000000000000000000000110000 ";
0"
0#4
0#]
0#G
b000000110000 w
#171
1y
1"X
1")
1"U
1"G
1i
16
1#,
b000000110000 C
1#4
1"S
1#Q
15
1"]
1^
b000000110000 "4
1H
1"
b000000110000 "Z
1#G
1"E
1#]
#176
0"]
06
0y
b00000000000000000000000000110100 <
0"S
0"U
0^
0H
0")
b00000000000000000000000000110100 -
0"E
05
0"G
b00000000000000000000000000110100 #2
b000000110100 w
b00000000000000000000000000110100 ";
0i
0"X
0#Q
0#,
0"
0#4
0#]
b00000000000000000000000000110100 #"
0#G
#181
1y
1"X
1")
1"U
1"G
1i
16
1#,
1#4
b000000110100 "Z
1#Q
1"S
15
1"]
1^
b000000110100 "4
1H
1"
1#G
b000000110100 C
1"E
1#]
#186
0"]
06
0y
0"S
b00000000000000000000000000111000 ";
0"U
0^
b00000000000000000000000000111000 -
0H
0")
b000000111000 w
0"E
05
0"G
b00000000000000000000000000111000 #2
0i
0"X
0#Q
0#,
b00000000000000000000000000111000 #"
0"
0#4
0#]
b00000000000000000000000000111000 <
0#G
#191
1y
1"X
1")
1"U
1"G
b000000111000 "4
1i
16
1#,
1#4
1"S
1#Q
15
1"]
1^
b000000111000 "Z
b000000111000 C
1H
1"
1#G
1"E
1#]
#196
0"]
b00000000011100001000000000010011 S
0"U
0"E
05
0"G
b00000000011100001000000000010011 ;
b00000000011100001000000000010011 "W
b00000000011100001000000000010011 2
0i
b00000000000000000000000000111100 #"
0#Q
0#,
0"
0#4
0#]
b00000000000000000000000000111100 #2
0#G
b000000111100 w
06
0y
0"S
0^
0H
0")
b00000000000000000000000000111100 <
0"X
b00000000011100001000000000010011 "|
b00000000000000000000000000111100 -
b00000000000000000000000000111100 ";
#201
b00000000011100001000000000010011 #A
1y
b000000111100 "4
b00000000011100001000000000010011 "N
1"X
1")
1"U
1"G
1i
16
1#,
b000000111100 "Z
b00000000011100001000000000010011 "}
1#4
1"S
1#Q
15
1"]
b000000111100 C
1^
1H
1"
1#G
1"E
1#]
#206
b00000000000000000000000000010011 S
0"]
0"U
b00000000000000000000000000010011 2
0"E
05
0"G
b00000000000000000000000001000000 ";
0i
0#Q
0#,
0"
0#4
0#]
b00000000000000000000000000010011 "W
0#G
b00000000000000000000000001000000 <
06
0y
0"S
0^
0H
b00000000000000000000000001000000 -
0")
b00000000000000000000000000010011 ;
b00000000000000000000000001000000 #2
b000001000000 w
0"X
b00000000000000000000000000010011 "|
b00000000000000000000000001000000 #"
#211
1y
1"X
1")
b000001000000 "Z
1"U
1"G
1i
16
1#,
1#4
1"S
1#Q
15
1"]
1^
b000001000000 C
1H
1"
1#G
b00000000000000000000000000010011 "}
1"E
b00000000000000000000000000010011 #A
1#]
b000001000000 "4
b00000000000000000000000000010011 "N
#216
0"]
06
0y
b00000000000000000000000001000100 <
b000001000100 w
0"S
0"U
0^
b00000000000000000000000001000100 -
0H
0")
0"E
05
0"G
0i
0"X
0#Q
0#,
b00000000000000000000000001000100 ";
0"
0#4
0#]
0#G
b00000000000000000000000001000100 #2
b00000000000000000000000001000100 #"
#221
1y
b000001000100 "4
1"X
1")
1"U
1"G
1i
b000001000100 "Z
1#,
16
1#4
1"S
1#Q
15
1"]
1^
1H
1"
1#G
1"E
1#]
b000001000100 C
#226
0"]
b00000000000000000000000001001000 #"
06
0y
0"S
0"U
0^
0H
0")
0"E
05
0"G
b00000000000000000000000001001000 ";
0i
0"X
b000001001000 w
0#Q
0#,
b00000000000000000000000001001000 <
0"
0#4
0#]
b00000000000000000000000001001000 -
0#G
b00000000000000000000000001001000 #2
