waveforms/addi.s.vcd
$date
2025-09-09T09:47+0000
$end
$version
0.2
$end
$comment

$end
$timescale 1ns  $end
$scope module Tile $end
 $var wire 1 0 io_regsWriteEnable $end
 $var wire 32 2 io_regsReadData $end
 $var wire 32 = io_IMEMAddress $end
 $var wire 1 J io_regsDeviceWriteEnable $end
 $var wire 32 e io_DMEMAddress $end
 $var wire 32 "- io_DMEMWriteData $end
 $var wire 1 "1 CPU $end
 $var wire 32 "7 io_regsDeviceWriteData $end
 $var wire 5 ": io_regsDeviceWriteAddress $end
 $var wire 1 "F clock $end
 $var wire 32 "N io_currentPC $end
 $var wire 5 "S io_regsAddress $end
 $var wire 1 "f io_DMEMWriteEnable $end
 $var wire 32 "g io_memDeviceWriteAddress $end
 $var wire 32 #! io_IMEMWriteData $end
 $var wire 32 ## io_memDeviceWriteData $end
 $var wire 32 #7 io_DMEMReadData $end
 $var wire 1 #= reset $end
 $var wire 1 #D io_setup $end
 $var wire 1 #N io_memDeviceWriteEnable $end
 $var wire 32 #^ io_regsWriteData $end
  $scope module CPU.MEMBarrier $end
  $upscope $end
  $scope module CPU.EX $end
  $upscope $end
  $scope module CPU.EXBarrier $end
  $upscope $end
  $scope module CPU.MEM $end
  $upscope $end
  $scope module CPU.IDBarrier $end
  $upscope $end
  $scope module CPU.ID $end
  $upscope $end
  $scope module CPU.EX.ALU $end
  $upscope $end
  $scope module CPU.ID.registers $end
  $upscope $end
  $scope module CPU.IFBarrier $end
  $upscope $end
  $scope module CPU.IF $end
  $upscope $end
  $scope module CPU.IF.IMEM $end
  $upscope $end
  $scope module CPU.MEM.DMEM $end
  $upscope $end
  $scope module CPU.ID.Decoder $end
  $upscope $end
  $scope module CPU $end
   $var wire 1 % IDBarrier $end
   $var wire 32 . testHarness_setupSignals_IMEMsignals_address $end
   $var wire 32 3 testHarness_setupSignals_IMEMsignals_instruction $end
   $var wire 1 ; testHarness_regUpdates_writeEnable $end
   $var wire 1 N ID $end
   $var wire 1 _ testHarness_memUpdates_writeEnable $end
   $var wire 32 k testHarness_regUpdates_writeData $end
   $var wire 5 n testHarness_regUpdates_writeAddress $end
   $var wire 5 o testHarness_setupSignals_registerSignals_readAddress $end
   $var wire 32 q testHarness_testReadouts_registerRead $end
   $var wire 32 x testHarness_currentPC $end
   $var wire 1 | IF $end
   $var wire 32 ". testHarness_memUpdates_writeAddress $end
   $var wire 1 "2 IFBarrier $end
   $var wire 1 "3 testHarness_setupSignals_DMEMsignals_setup $end
   $var wire 32 "? testHarness_testReadouts_DMEMread $end
   $var wire 32 "A testHarness_setupSignals_DMEMsignals_dataIn $end
   $var wire 1 "C testHarness_setupSignals_IMEMsignals_setup $end
   $var wire 1 "_ clock $end
   $var wire 32 "b testHarness_setupSignals_DMEMsignals_dataAddress $end
   $var wire 1 "k testHarness_setupSignals_registerSignals_setup $end
   $var wire 1 "p MEM $end
   $var wire 1 #& testHarness_setupSignals_registerSignals_writeEnable $end
   $var wire 1 #' EXBarrier $end
   $var wire 1 #8 EX $end
   $var wire 32 #M testHarness_memUpdates_writeData $end
   $var wire 32 #Y testHarness_setupSignals_registerSignals_writeData $end
   $var wire 1 #\ reset $end
   $var wire 1 #] MEMBarrier $end
   $var wire 1 #_ testHarness_setupSignals_DMEMsignals_writeEnable $end
    $scope module ID $end
     $var wire 1 ! testHarness_registerSetup_writeEnable $end
     $var wire 4 ? io_alu_op $end
     $var wire 32 M testHarness_registerPeek $end
     $var wire 32 S io_op_two $end
     $var wire 5 Z io_rd $end
     $var wire 1 ] testHarness_testUpdates_writeEnable $end
     $var wire 32 c testHarness_registerSetup_writeData $end
     $var wire 5 m testHarness_testUpdates_writeAddress $end
     $var wire 32 "$ io_pc $end
     $var wire 32 "& io_inst_instruction $end
     $var wire 32 "6 io_op_one $end
     $var wire 32 "; _GEN_0 $end
     $var wire 5 "E io_wb_address $end
     $var wire 5 "M testHarness_registerSetup_readAddress $end
     $var wire 32 "P io_wb_data $end
     $var wire 1 "[ registers $end
     $var wire 1 "s io_control_regWrite $end
     $var wire 32 #$ _GEN_2 $end
     $var wire 1 #+ Decoder $end
     $var wire 1 #G testHarness_registerSetup_setup $end
     $var wire 32 #K testHarness_testUpdates_writeData $end
     $var wire 1 #Q io_wb_enable $end
     $var wire 1 #T clock $end
      $scope module registers $end
       $var wire 1 ( testHarness_testUpdates_writeEnable $end
       $var wire 1 * testHarness_setup_setup $end
       $var wire 32 1 testHarness_testUpdates_writeData $end
       $var wire 5 4 readAddress1 $end
       $var wire 1 7 clock $end
       $var wire 32 8 io_readData1 $end
       $var wire 32 : registerFile $end
       $var wire 1 B testHarness_setup_writeEnable $end
       $var wire 1 V writeEnable $end
       $var wire 5 [ io_readAddress1 $end
       $var wire 5 p testHarness_testUpdates_writeAddress $end
       $var wire 1 ~ io_writeEnable $end
       $var wire 32 "8 testHarness_setup_writeData $end
       $var wire 32 "G io_writeData $end
       $var wire 5 "j testHarness_setup_readAddress $end
       $var wire 32 "r io_readData2 $end
       $var wire 5 "w writeAddress $end
       $var wire 5 #0 io_writeAddress $end
       $var wire 5 #1 io_readAddress2 $end
        $scope module registerFile $end
          $scope module _T_33 $end
           $var wire 1 # en $end
           $var wire 1 + pipeline_valid_0 $end
           $var wire 1 6 clk $end
           $var wire 5 v pipeline_addr_0 $end
           $var wire 1 } mask $end
           $var wire 1 "@ valid $end
           $var wire 5 "h addr $end
           $var wire 32 #* pipeline_data_0 $end
           $var wire 32 #O data $end
          $upscope $end
          $scope module _T_41 $end
           $var wire 32 W data $end
           $var wire 1 u en $end
           $var wire 1 "Z clk $end
           $var wire 5 #B addr $end
          $upscope $end
          $scope module _T_38 $end
           $var wire 1 ^ clk $end
           $var wire 1 "= en $end
           $var wire 5 "K addr $end
           $var wire 32 #> data $end
          $upscope $end
        $upscope $end
      $upscope $end
      $scope module Decoder $end
       $var wire 1 r io_op2Select $end
       $var wire 1 "X io_controlSignals_regWrite $end
       $var wire 4 "v io_ALUop $end
       $var wire 1 "y io_op1Select $end
       $var wire 32 "} io_instruction_instruction $end
      $upscope $end
    $upscope $end
    $scope module MEM $end
     $var wire 1 E DMEM $end
     $var wire 32 K testHarness_testUpdates_writeAddress $end
     $var wire 32 { testHarness_DMEMsetup_dataAddress $end
     $var wire 1 "` testHarness_testUpdates_writeEnable $end
     $var wire 1 "n testHarness_DMEMsetup_writeEnable $end
     $var wire 32 "~ testHarness_DMEMpeek $end
     $var wire 1 #: testHarness_DMEMsetup_setup $end
     $var wire 32 #A testHarness_testUpdates_writeData $end
     $var wire 1 #J clock $end
     $var wire 32 #Z testHarness_DMEMsetup_dataIn $end
      $scope module DMEM $end
       $var wire 32 ) testHarness_testUpdates_writeData $end
       $var wire 1 - _GEN_6 $end
       $var wire 12 5 data__T_24_addr_pipe_0 $end
       $var wire 1 @ testHarness_testUpdates_writeEnable $end
       $var wire 32 G testHarness_setup_dataAddress $end
       $var wire 32 O testHarness_testUpdates_writeAddress $end
       $var wire 32 ` addressSource $end
       $var wire 32 g data $end
       $var wire 1 "a testHarness_setup_writeEnable $end
       $var wire 1 "e testHarness_setup_setup $end
       $var wire 1 #/ clock $end
       $var wire 32 #< testHarness_setup_dataIn $end
       $var wire 32 #P io_dataOut $end
        $scope module data $end
          $scope module _T_26 $end
           $var wire 1 " clk $end
           $var wire 12 Y addr $end
           $var wire 32 a pipeline_data_0 $end
           $var wire 1 "0 pipeline_valid_0 $end
           $var wire 32 "> data $end
           $var wire 1 #) en $end
           $var wire 12 #2 pipeline_addr_0 $end
           $var wire 1 #? valid $end
           $var wire 1 #V mask $end
          $upscope $end
          $scope module _T_24 $end
           $var wire 32 > data $end
           $var wire 1 "H clk $end
           $var wire 1 #. en $end
           $var wire 12 #5 addr $end
          $upscope $end
        $upscope $end
      $upscope $end
    $upscope $end
    $scope module EX $end
     $var wire 1 $ ALU $end
     $var wire 4 t io_alu_op $end
     $var wire 32 "% io_op_two $end
     $var wire 32 "^ io_op_one $end
     $var wire 32 #9 io_result $end
      $scope module ALU $end
       $var wire 63 ' _GEN_5 $end
       $var wire 32 / io_op_one $end
       $var wire 32 \ io_result $end
       $var wire 63 d _GEN_7 $end
       $var wire 32 i _GEN_1 $end
       $var wire 63 "* _GEN_4 $end
       $var wire 4 "I io_alu_op $end
       $var wire 63 "Q _GEN_3 $end
       $var wire 63 "W _GEN_6 $end
       $var wire 32 "l _GEN_0 $end
       $var wire 63 "o _GEN_9 $end
       $var wire 63 "u _GEN_10 $end
       $var wire 32 #3 io_op_two $end
       $var wire 63 #I _GEN_8 $end
       $var wire 32 #U _GEN_2 $end
      $upscope $end
    $upscope $end
    $scope module IF $end
     $var wire 1 & testHarness_IMEMsetup_setup $end
     $var wire 1 F IMEM $end
     $var wire 32 P io_PC $end
     $var wire 32 T testHarness_IMEMsetup_instruction $end
     $var wire 32 s PC $end
     $var wire 1 ") clock $end
     $var wire 32 ", testHarness_PC $end
     $var wire 1 "t reset $end
     $var wire 32 "x io_inst_instruction $end
     $var wire 32 #% testHarness_IMEMsetup_address $end
     $var wire 32 #[ _GEN_0 $end
      $scope module IMEM $end
       $var wire 32 < testHarness_setupSignals_instruction $end
       $var wire 12 D instructions__T_20_addr_pipe_0 $end
       $var wire 1 j clock $end
       $var wire 32 "< testHarness_setupSignals_address $end
       $var wire 1 "D _GEN_4 $end
       $var wire 32 "O io_instruction $end
       $var wire 1 "i testHarness_setupSignals_setup $end
       $var wire 32 #4 addressSource $end
       $var wire 32 #@ testHarness_requestedAddress $end
       $var wire 32 #R io_instructionAddress $end
       $var wire 32 #X instructions $end
        $scope module instructions $end
          $scope module _T_18 $end
           $var wire 1 , valid $end
           $var wire 1 9 mask $end
           $var wire 1 X pipeline_valid_0 $end
           $var wire 12 w addr $end
           $var wire 1 y clk $end
           $var wire 32 "Y data $end
           $var wire 12 "\ pipeline_addr_0 $end
           $var wire 32 #C pipeline_data_0 $end
           $var wire 1 #W en $end
          $upscope $end
          $scope module _T_20 $end
           $var wire 1 f en $end
           $var wire 12 "5 addr $end
           $var wire 1 "V clk $end
           $var wire 32 #" data $end
          $upscope $end
        $upscope $end
      $upscope $end
    $upscope $end
    $scope module IDBarrier $end
     $var wire 5 A rd $end
     $var wire 32 C io_in_op_two $end
     $var wire 32 U alu_op $end
     $var wire 32 b op_two $end
     $var wire 1 h reset $end
     $var wire 32 "" io_in_op_one $end
     $var wire 4 "# io_out_alu_op $end
     $var wire 5 "' io_out_rd $end
     $var wire 32 "+ io_out_op_two $end
     $var wire 1 "/ io_in_control_regWrite $end
     $var wire 5 "R io_in_rd $end
     $var wire 1 "d io_out_control_regWrite $end
     $var wire 32 "m op_one $end
     $var wire 32 "q io_out_op_one $end
     $var wire 1 #- control_regWrite $end
     $var wire 4 #; io_in_alu_op $end
     $var wire 1 #` clock $end
    $upscope $end
    $scope module MEMBarrier $end
     $var wire 32 H rd $end
     $var wire 1 L reset $end
     $var wire 1 z control_regWrite $end
     $var wire 32 "4 result $end
     $var wire 5 "9 io_in_rd $end
     $var wire 1 "J io_in_control_regWrite $end
     $var wire 1 "c io_out_control_regWrite $end
     $var wire 32 "z io_out_result $end
     $var wire 5 "{ io_out_rd $end
     $var wire 32 #, io_in_result $end
     $var wire 1 #6 clock $end
    $upscope $end
    $scope module EXBarrier $end
     $var wire 1 I clock $end
     $var wire 32 Q io_in_result $end
     $var wire 5 l rd $end
     $var wire 32 "! result $end
     $var wire 1 "( io_out_control_regWrite $end
     $var wire 1 "B io_in_control_regWrite $end
     $var wire 1 "L control_regWrite $end
     $var wire 1 "] reset $end
     $var wire 5 #( io_out_rd $end
     $var wire 32 #E io_out_result $end
     $var wire 5 #F io_in_rd $end
    $upscope $end
    $scope module IFBarrier $end
     $var wire 32 R io_in_inst_instruction $end
     $var wire 1 "T clock $end
     $var wire 32 "U pc $end
     $var wire 32 "| io_in_pc $end
     $var wire 32 #H io_out_pc $end
     $var wire 1 #L reset $end
     $var wire 32 #S io_out_inst_instruction $end
    $upscope $end
  $upscope $end
$upscope $end
$enddefinitions $end
$dumpvars
0#D
0"c
0"1
b00000000000000000000000000000000 #K
b00000000000000000000000000000000 "U
b00000000000000000000000000000000 "8
0#W
b00000 "9
b00000000000000000000000000000000 "4
b00000000000000000000000000000000 Q
b00000000000000000000000000000000 #*
0~
b00000000000000000000000000000000 b
0L
0"@
b00000 n
b000000000000 "\
1-
b00000000000000000000000000000000 #Z
b000000000000 #5
b00000000000000000000000000000000 "G
0z
0"n
b00000000000000000000000000000000 s
0r
0]
0@
0+
b00000000000000000000000000000000 #9
b00000000000000000000000000000000 #$
b00000000000000000000000000000000 "&
b000000000000 5
b00000000000000000000000000000000 q
0"d
b0000 ?
b00000 "'
b00000000000000000000000000000000 T
0"2
b00000 "j
b00000 "M
0"`
b00000000000000000000000000000000 e
b00000000000000000000000000000000 P
0"C
b00000000000000000000000000000000 3
b00000000000000000000000000000000 "g
b00000000000000000000000000000000 #H
b000000000000 Y
b00000000000000000000000000000000 /
b000000000000000000000000000000000000000000000000000000000000000 "u
b0000 t
b00000 #(
0"=
b00000000000000000000000000000000 "%
0;
0#L
b00000000000000000000000000000000 #4
0"k
0#/
b00000000000000000000000000000000 "6
b00000000000000000000000000000000 S
b00000000000000000000000000000000 >
b00000000000000000000000000000000 "!
0"_
0N
b00000 [
b00000000000000000000000000000000 2
0#_
0|
1#V
0J
b00000000000000000000000000000000 .
b00000000000000000000000000000000 #X
b00000000000000000000000000000000 "b
b00000000000000000000000000000000 #C
0"]
b00000000000000000000000000000000 M
b000000000000000000000000000000000000000000000000000000000000000 "W
b00000000000000000000000000000000 "^
b00000000000000000000000000000000 {
0#:
b00000000000000000000000000000000 #"
b00000000000000000000000000000000 ",
b00000000000000000000000000000000 "A
b00000000000000000000000000000000 "$
0#`
b00000000000000000000000000000000 =
b00000000000000000000000000000000 "q
b00000000000000000000000000000000 #R
b00000 4
b00000000000000000000000000000000 "?
b00000000000000000000000000000000 "7
b00000000000000000000000000000000 ""
b000000000000000000000000000000000000000000000000000000000000000 "Q
1}
0#\
0j
b0000 "I
0#
b00000000000000000000000000000000 "m
b00000000000000000000000000000000 "P
b0000 #;
b00000 "{
0"y
0h
0#=
b00000000000000000000000000000000 a
b00000 "w
0y
0#N
0"X
b00000 "E
b00000000000000000000000000000000 H
0*
b00000000000000000000000000000000 #U
b00000000000000000000000000000000 #@
b00000000000000000000000000000000 ##
19
0"L
0#-
0X
b00000000000000000000000000000000 <
0&
b00000000000000000000000000000000 ">
b000000000000 w
1#.
b00000 v
0#]
b00000000000000000000000000000000 #E
0V
0"J
0#+
b00000000000000000000000000000000 O
b00000000000000000000000000000000 :
b0000 "v
b00000 #F
b00000000000000000000000000000000 #A
b00000 #1
0"[
0#'
b00000000000000000000000000000000 ".
0"F
b00000000000000000000000000000000 K
0")
b00000000000000000000000000000000 `
b00000 p
0F
0%
b00000000000000000000000000000000 #P
b00000000000000000000000000000000 #3
0#6
b000000000000 D
06
0!
b00000 "S
b00000000000000000000000000000000 "N
b00000000000000000000000000000000 k
0"f
0#G
0"Z
0#&
0I
0"(
b00000000000000000000000000000000 "~
b00000 A
b00000000000000000000000000000000 i
b00000000000000000000000000000000 #%
0"V
b00000 o
0E
00
b00000000000000000000000000000000 #[
b00000000000000000000000000000000 "z
b00000000000000000000000000000000 )
b00000000000000000000000000000000 #S
b00000000000000000000000000000000 "r
b00000 Z
0(
b00000000000000000000000000000000 #>
b00000000000000000000000000000000 #!
b00000000000000000000000000000000 "+
b000000000000000000000000000000000000000000000000000000000000000 "o
0u
0"i
0#J
b00000000000000000000000000000000 "<
0"T
0"e
b00000 "R
b00000000000000000000000000000000 U
0"H
0"3
0#)
07
0"
b00000000000000000000000000000000 #M
b00000000000000000000000000000000 "l
b00000000000000000000000000000000 8
b00000000000000000000000000000000 "O
0"a
0"/
b00000000000000000000000000000000 "}
b00000000000000000000000000000000 #^
b00000000000000000000000000000000 #,
b000000000000000000000000000000000000000000000000000000000000000 '
b0000 "#
0"t
b00000 #B
0#8
0"B
b00000000000000000000000000000000 \
b00000000000000000000000000000000 G
0#Q
0"p
0_
b00000000000000000000000000000000 ";
b00000 l
0B
b00000000000000000000000000000000 C
b000000000000 "5
1f
b00000000000000000000000000000000 #7
b000000000000000000000000000000000000000000000000000000000000000 #I
b000000000000000000000000000000000000000000000000000000000000000 d
b00000000000000000000000000000000 "|
b00000 #0
b00000 ":
b00000000000000000000000000000000 g
b00000000000000000000000000000000 R
b00000000000000000000000000000000 "-
0"0
b000000000000000000000000000000000000000000000000000000000000000 "*
b00000 m
1"D
b00000000000000000000000000000000 "x
b00000000000000000000000000000000 #Y
b00000 "h
0#T
b00000 "K
0"s
b00000000000000000000000000000000 #<
b00000000000000000000000000000000 c
0#?
b00000000000000000000000000000000 x
b00000000000000000000000000000000 1
0^
b00000000000000000000000000000000 W
0,
b000000000000 #2
0$
b00000000000000000000000000000000 #O
b00000000000000000000000000000000 "Y
$end
#0
1#\
1h
b1111 ?
b00000000000000000000000000000100 #[
1"]
1#L
b1111 "v
1"t
1L
1#=
b1111 #;
#1
1#J
1#6
1"Z
17
1j
1"F
1"
1"H
1"_
1")
1y
1#`
16
1#/
1"T
1#T
1I
1^
1"V
#6
0#T
0#/
0I
0#`
0"
0"H
07
0#J
0"Z
0"V
0")
0"_
0y
06
0"F
0^
0"T
0j
0#6
#11
1#J
1#6
1"Z
17
1j
1"F
1"
1"H
1"_
1")
1y
1#`
16
1#/
1"T
1#T
1I
1^
1"V
#16
0#T
0#/
0I
0#`
0"
0"H
07
0#J
0"Z
0"V
0")
0"_
0y
06
0"F
0^
0"T
0j
0#6
#21
1#J
1#6
1"Z
17
1j
1"F
1"
1"H
1"_
1")
1y
1#`
16
1#/
1"T
1#T
1I
1^
1"V
#26
0#T
0#/
0I
0#`
0"
0"H
07
0#J
0"Z
0"V
0")
0"_
0y
06
0"F
0^
0"T
0j
0#6
#31
1#J
1#6
1"Z
17
1j
1"F
1"
1"H
1"_
1")
1y
1#`
16
1#/
1"T
1#T
1I
1^
1"V
#36
0#T
0#/
0I
0#`
0"
0"H
07
0#J
0"Z
0"V
0")
0"_
0y
06
0"F
0^
0"T
0j
0#6
#41
1#J
1#6
1"Z
17
1j
1"F
1"
1"H
1"_
1")
1y
1#`
16
1#/
1"T
1#T
1I
1^
1"V
#46
0#/
0I
b00000000000100001000000000010011 <
0"
0"H
07
b00000000000000000000000000000000 #[
0#J
b00000000000000000000000000010011 #S
1#G
0")
0"_
1*
b0000 ?
b00000000000100001000000000010011 "Y
0y
06
1,
0h
b0000 #;
1"3
1"C
0#\
1"i
b00000000000100001000000000010011 T
0^
b00000000000000000000000000010011 "}
1"X
b00000000000100001000000000010011 #!
0#=
0#6
0#T
1"e
1#W
1r
1"/
0#`
1"k
1"s
0"t
b00000000000100001000000000010011 3
0L
b00000000000000000000000000010011 "&
0"Z
0"V
b00000000000000000000000000010011 "x
0#L
0"F
1&
0"]
0"T
b00000000000000000000000000010011 R
0j
1#:
b0000 "v
1#D
#51
1#J
b00000000000100001000000000010011 "O
1#6
1"Z
17
1j
b00000000000100001000000000010011 #C
1"F
1"
1"B
1"H
1"_
1X
1")
1y
1#`
1#-
16
1#/
1"T
b00000000000100001000000000010011 #"
1#T
1I
1^
1"V
1"d
#56
0#/
0I
0"
0"H
07
b00000000000000000000000000000100 "<
0#J
b00000000000000000000000000000100 =
0")
0"_
b00000000000000000000000000010011 <
b00000000000000000000000000000100 .
0y
06
b00000000000000000000000000010011 "Y
0^
b00000000000000000000000000000100 #4
b000000000100 w
0#6
0#T
0#`
b00000000000000000000000000010011 T
b00000000000000000000000000000100 #%
0"Z
0"V
b00000000000000000000000000010011 #!
0"F
b00000000000000000000000000010011 3
0"T
0j
#61
1#J
1#6
1"Z
17
b000000000100 D
1"
b00000000000000000000000000010011 "O
1"H
1")
1#`
b000000000100 "5
b00000000000000000000000000010011 #"
1#/
1"(
1"T
1#T
1"L
1"V
1j
1"J
1"F
1"_
1y
16
b00000000000000000000000000010011 #C
1I
1^
b000000000100 "\
#66
0#T
0#/
0I
0#`
0"
b00000000000000000000000000001000 .
0"H
07
0#J
b00000000000000000000000000001000 #%
0"Z
0"V
0")
0"_
b00000000000000000000000000001000 #4
0y
06
b00000000000000000000000000001000 "<
b000000001000 w
0"F
b00000000000000000000000000001000 =
0^
0"T
0j
0#6
#71
1#J
1#6
1"Z
1z
17
1j
1"c
1#Q
1"F
1"
1~
b000000001000 "\
b000000001000 D
1"_
1"H
1")
1y
b000000001000 "5
1#`
16
1#/
1"T
1#T
1I
1^
1"V
#76
0#T
0#/
0I
0#`
0"
b00000000000000000000000000001100 #4
0"H
b000000001100 w
07
0#J
0"Z
0"V
0")
0"_
0y
06
b00000000000000000000000000001100 #%
b00000000000000000000000000001100 "<
0"F
b00000000000000000000000000001100 =
b00000000000000000000000000001100 .
0^
0"T
0j
0#6
#81
1#J
b000000001100 D
1#6
1"Z
17
1j
1"F
1"
1"H
1"_
1")
1y
b000000001100 "5
1#`
16
1#/
1"T
1#T
1I
1^
b000000001100 "\
1"V
#86
0#T
0#/
b00000000000000000000000000010000 "<
0I
0#`
0"
0"H
07
0#J
0"Z
b00000000000000000000000000010000 #%
0"V
0")
0"_
0y
06
b00000000000000000000000000010000 #4
0"F
b00000000000000000000000000010000 .
b00000000000000000000000000010000 =
0^
0"T
0j
b000000010000 w
0#6
#91
1#J
1#6
b000000010000 "\
1"Z
17
1j
1"F
1"
b000000010000 "5
1"H
1"_
1")
1y
b000000010000 D
1#`
16
1#/
1"T
1#T
1I
1^
1"V
#96
b00000000000000000000000000010100 #4
0#/
0I
0"
0"H
07
0#J
b00000000000000000000000000010100 "<
0")
0"_
0y
06
b00000000001000001000000000010011 3
b00000000001000001000000000010011 #!
b000000010100 w
0^
0#6
0#T
0#`
b00000000000000000000000000010100 =
b00000000000000000000000000010100 #%
b00000000001000001000000000010011 "Y
0"Z
0"V
0"F
b00000000001000001000000000010011 T
b00000000000000000000000000010100 .
0"T
0j
b00000000001000001000000000010011 <
#101
1#J
1#6
1"Z
17
1j
b00000000001000001000000000010011 #C
1"F
1"
1"H
b000000010100 D
1"_
1")
1y
b00000000001000001000000000010011 "O
1#`
b000000010100 "\
16
1#/
1"T
1#T
1I
1^
b00000000001000001000000000010011 #"
b000000010100 "5
1"V
#106
0#/
0I
0"
b000000011000 w
0"H
07
0#J
0")
0"_
b00000000000000000000000000010011 <
0y
06
b00000000000000000000000000010011 "Y
0^
0#6
0#T
b00000000000000000000000000011000 .
0#`
b00000000000000000000000000010011 T
0"Z
0"V
b00000000000000000000000000010011 #!
0"F
b00000000000000000000000000011000 #%
b00000000000000000000000000011000 =
b00000000000000000000000000010011 3
b00000000000000000000000000011000 #4
0"T
0j
b00000000000000000000000000011000 "<
#111
1#J
1#6
1"Z
17
1j
b000000011000 "5
1"F
1"
b00000000000000000000000000010011 "O
1"H
1"_
1")
1y
b000000011000 "\
1#`
b00000000000000000000000000010011 #"
16
1#/
b000000011000 D
1"T
1#T
b00000000000000000000000000010011 #C
1I
1^
1"V
#116
0#T
0#/
b00000000000000000000000000011100 "<
b00000000000000000000000000011100 #4
0I
0#`
0"
0"H
07
b000000011100 w
0#J
0"Z
0"V
0")
0"_
0y
06
0"F
b00000000000000000000000000011100 =
b00000000000000000000000000011100 .
b00000000000000000000000000011100 #%
0^
0"T
0j
0#6
#121
1#J
1#6
1"Z
17
b000000011100 D
1j
b000000011100 "5
1"F
1"
1"H
1"_
1")
b000000011100 "\
1y
1#`
16
1#/
1"T
1#T
1I
1^
1"V
#126
0#T
0#/
b00000000000000000000000000100000 .
0I
0#`
0"
b00000000000000000000000000100000 =
0"H
b00000000000000000000000000100000 "<
07
0#J
b00000000000000000000000000100000 #4
0"Z
0"V
0")
0"_
0y
06
b000000100000 w
0"F
0^
0"T
0j
b00000000000000000000000000100000 #%
0#6
#131
1#J
1#6
1"Z
17
1j
1"F
1"
1"H
1"_
1")
b000000100000 "5
1y
b000000100000 D
1#`
b000000100000 "\
16
1#/
1"T
1#T
1I
1^
1"V
#136
0#T
0#/
0I
0#`
0"
b00000000000000000000000000100100 #%
0"H
b00000000000000000000000000100100 #4
07
0#J
0"Z
0"V
0")
0"_
0y
06
0"F
b000000100100 w
b00000000000000000000000000100100 "<
b00000000000000000000000000100100 =
0^
0"T
0j
b00000000000000000000000000100100 .
0#6
#141
1#J
1#6
1"Z
b000000100100 "\
17
1j
1"F
1"
1"H
1"_
1")
b000000100100 "5
b000000100100 D
1y
1#`
16
1#/
1"T
1#T
1I
1^
1"V
#146
0#/
0I
0"
0"H
07
b00000000001100001000000000010011 T
0#J
b00000000001100001000000000010011 <
0")
0"_
0y
06
b00000000001100001000000000010011 #!
0^
b00000000000000000000000000101000 #4
0#6
0#T
0#`
b00000000000000000000000000101000 .
b00000000000000000000000000101000 #%
b00000000001100001000000000010011 3
b00000000000000000000000000101000 "<
0"Z
0"V
b000000101000 w
0"F
0"T
0j
b00000000000000000000000000101000 =
b00000000001100001000000000010011 "Y
#151
1#J
1#6
1"Z
b00000000001100001000000000010011 #"
17
1j
b000000101000 D
b000000101000 "5
1"F
1"
1"H
1"_
1")
b00000000001100001000000000010011 #C
b000000101000 "\
1y
1#`
16
1#/
1"T
1#T
1I
1^
1"V
b00000000001100001000000000010011 "O
#156
0#/
0I
0"
0"H
07
0#J
0")
0"_
b00000000000000000000000000010011 <
0y
06
b00000000000000000000000000101100 =
b00000000000000000000000000101100 "<
b00000000000000000000000000010011 "Y
0^
0#6
0#T
0#`
b00000000000000000000000000101100 #%
b00000000000000000000000000010011 T
0"Z
b00000000000000000000000000101100 .
0"V
b000000101100 w
b00000000000000000000000000010011 #!
0"F
b00000000000000000000000000101100 #4
b00000000000000000000000000010011 3
0"T
0j
#161
1#J
1#6
1"Z
17
1j
1"F
1"
b00000000000000000000000000010011 "O
1"H
1"_
1")
b000000101100 D
1y
b000000101100 "5
1#`
b00000000000000000000000000010011 #"
16
1#/
1"T
b000000101100 "\
1#T
b00000000000000000000000000010011 #C
1I
1^
1"V
#166
0#T
0#/
b00000000000000000000000000110000 #%
0I
0#`
0"
0"H
07
b00000000000000000000000000110000 =
0#J
b000000110000 w
0"Z
0"V
0")
0"_
b00000000000000000000000000110000 "<
0y
06
0"F
0^
0"T
0j
b00000000000000000000000000110000 #4
b00000000000000000000000000110000 .
0#6
#171
1#J
b000000110000 "5
1"Z
1#6
17
1j
1"F
1"
1"H
1"_
1")
1y
b000000110000 "\
1#`
b000000110000 D
16
1#/
1"T
1#T
1I
1^
1"V
#176
0#T
0#/
0I
0#`
0"
b00000000000000000000000000110100 "<
0"H
b00000000000000000000000000110100 .
07
0#J
0"Z
0"V
0")
0"_
0y
06
0"F
b00000000000000000000000000110100 #4
b00000000000000000000000000110100 #%
b00000000000000000000000000110100 =
0^
0"T
0j
b000000110100 w
0#6
#181
1#J
1#6
1"Z
17
1j
1"F
1"
1"H
1"_
1")
1y
b000000110100 D
1#`
b000000110100 "5
16
1#/
1"T
1#T
1I
b000000110100 "\
1^
1"V
#186
0#T
0#/
b00000000000000000000000000111000 "<
b00000000000000000000000000111000 =
0I
0#`
0"
0"H
07
0#J
0"Z
b000000111000 w
0"V
b00000000000000000000000000111000 #%
0")
0"_
b00000000000000000000000000111000 .
b00000000000000000000000000111000 #4
0y
06
0"F
0^
0"T
0j
0#6
#191
1#J
1#6
1"Z
17
1j
b000000111000 "\
1"F
b000000111000 D
1"
1"H
1"_
1")
1y
1#`
b000000111000 "5
16
1#/
1"T
1#T
1I
1^
1"V
#196
0#/
0I
b00000000000000000000000000111100 #%
0"
0"H
07
0#J
b00000000011100001000000000010011 T
0")
0"_
b00000000000000000000000000111100 "<
0y
06
b00000000000000000000000000111100 #4
b000000111100 w
b00000000000000000000000000111100 .
0^
0#6
0#T
b00000000011100001000000000010011 <
b00000000011100001000000000010011 "Y
0#`
0"Z
0"V
0"F
b00000000011100001000000000010011 #!
b00000000011100001000000000010011 3
0"T
0j
b00000000000000000000000000111100 =
#201
1#J
b00000000011100001000000000010011 #C
b000000111100 "5
1"Z
1#6
17
1j
1"F
b000000111100 "\
1"
1"H
1"_
1")
b000000111100 D
1y
1#`
16
1#/
1"T
1#T
1I
b00000000011100001000000000010011 "O
1^
b00000000011100001000000000010011 #"
1"V
#206
0#/
b00000000000000000000000001000000 .
0I
0"
0"H
07
0#J
0")
0"_
b00000000000000000000000000010011 <
0y
06
b00000000000000000000000001000000 #%
b00000000000000000000000000010011 "Y
0^
0#6
0#T
b00000000000000000000000001000000 #4
0#`
b00000000000000000000000000010011 T
0"Z
0"V
b00000000000000000000000000010011 #!
0"F
b00000000000000000000000001000000 =
b00000000000000000000000001000000 "<
b00000000000000000000000000010011 3
0"T
0j
b000001000000 w
#211
1#J
1#6
1"Z
b000001000000 "5
17
1j
b000001000000 "\
1"F
1"
b00000000000000000000000000010011 "O
1"H
1"_
1")
1y
1#`
b000001000000 D
b00000000000000000000000000010011 #"
16
1#/
1"T
1#T
b00000000000000000000000000010011 #C
1I
1^
1"V
#216
0#T
0#/
b00000000000000000000000001000100 =
0I
0#`
0"
0"H
07
b00000000000000000000000001000100 #%
0#J
0"Z
0"V
0")
0"_
0y
06
0"F
0^
0"T
0j
b00000000000000000000000001000100 "<
b00000000000000000000000001000100 #4
b00000000000000000000000001000100 .
b000001000100 w
0#6
#221
1#J
1#6
1"Z
17
1j
b000001000100 D
1"F
1"
1"H
1"_
1")
1y
1#`
b000001000100 "5
16
1#/
b000001000100 "\
1"T
1#T
1I
1^
1"V
