waveforms/arithImm.s.vcd
$date
2025-09-11T13:57+0000
$end
$version
0.2
$end
$comment

$end
$timescale 1ns  $end
$scope module Tile $end
 $var wire 1 2 io_regsWriteEnable $end
 $var wire 32 3 io_regsReadData $end
 $var wire 32 A io_IMEMAddress $end
 $var wire 1 Q io_regsDeviceWriteEnable $end
 $var wire 32 o io_DMEMAddress $end
 $var wire 32 "< io_DMEMWriteData $end
 $var wire 1 "A CPU $end
 $var wire 32 "G io_regsDeviceWriteData $end
 $var wire 5 "M io_regsDeviceWriteAddress $end
 $var wire 1 "[ clock $end
 $var wire 32 "c io_currentPC $end
 $var wire 5 "h io_regsAddress $end
 $var wire 1 "{ io_DMEMWriteEnable $end
 $var wire 32 "| io_memDeviceWriteAddress $end
 $var wire 32 #9 io_IMEMWriteData $end
 $var wire 32 #< io_memDeviceWriteData $end
 $var wire 32 #Q io_DMEMReadData $end
 $var wire 1 #W reset $end
 $var wire 1 #_ io_setup $end
 $var wire 1 #j io_memDeviceWriteEnable $end
 $var wire 32 #~ io_regsWriteData $end
  $scope module CPU.MEMBarrier $end
  $upscope $end
  $scope module CPU.EX $end
  $upscope $end
  $scope module CPU.EXBarrier $end
  $upscope $end
  $scope module CPU.MEM $end
  $upscope $end
  $scope module CPU.IDBarrier $end
  $upscope $end
  $scope module CPU.ID $end
  $upscope $end
  $scope module CPU.EX.ALU $end
  $upscope $end
  $scope module CPU.ID.registers $end
  $upscope $end
  $scope module CPU.IFBarrier $end
  $upscope $end
  $scope module CPU.IF $end
  $upscope $end
  $scope module CPU.IF.IMEM $end
  $upscope $end
  $scope module CPU.MEM.DMEM $end
  $upscope $end
  $scope module CPU.ID.Decoder $end
  $upscope $end
  $scope module CPU $end
   $var wire 1 % IDBarrier $end
   $var wire 32 / testHarness_setupSignals_IMEMsignals_address $end
   $var wire 32 5 testHarness_setupSignals_IMEMsignals_instruction $end
   $var wire 1 > testHarness_regUpdates_writeEnable $end
   $var wire 1 V ID $end
   $var wire 1 g testHarness_memUpdates_writeEnable $end
   $var wire 32 u testHarness_regUpdates_writeData $end
   $var wire 5 x testHarness_regUpdates_writeAddress $end
   $var wire 5 y testHarness_setupSignals_registerSignals_readAddress $end
   $var wire 32 { testHarness_testReadouts_registerRead $end
   $var wire 32 "$ testHarness_currentPC $end
   $var wire 1 ") IF $end
   $var wire 32 "= testHarness_memUpdates_writeAddress $end
   $var wire 1 "B IFBarrier $end
   $var wire 1 "C testHarness_setupSignals_DMEMsignals_setup $end
   $var wire 32 "R testHarness_testReadouts_DMEMread $end
   $var wire 32 "T testHarness_setupSignals_DMEMsignals_dataIn $end
   $var wire 1 "V testHarness_setupSignals_IMEMsignals_setup $end
   $var wire 1 "t clock $end
   $var wire 32 "x testHarness_setupSignals_DMEMsignals_dataAddress $end
   $var wire 1 #$ testHarness_setupSignals_registerSignals_setup $end
   $var wire 1 #) MEM $end
   $var wire 1 #> testHarness_setupSignals_registerSignals_writeEnable $end
   $var wire 1 #@ EXBarrier $end
   $var wire 1 #P EX $end
   $var wire 32 #i testHarness_memUpdates_writeData $end
   $var wire 32 #v testHarness_setupSignals_registerSignals_writeData $end
   $var wire 1 #z MEMBarrier $end
   $var wire 1 #{ reset $end
   $var wire 1 $# testHarness_setupSignals_DMEMsignals_writeEnable $end
    $scope module ID $end
     $var wire 1 ! testHarness_registerSetup_writeEnable $end
     $var wire 4 D io_alu_op $end
     $var wire 32 T testHarness_registerPeek $end
     $var wire 32 [ io_op_two $end
     $var wire 5 c io_rd $end
     $var wire 1 f testHarness_testUpdates_writeEnable $end
     $var wire 32 m testHarness_registerSetup_writeData $end
     $var wire 5 w testHarness_testUpdates_writeAddress $end
     $var wire 32 "2 io_pc $end
     $var wire 32 "4 io_inst_instruction $end
     $var wire 1 "; io_control_memRead $end
     $var wire 32 "H io_op_one $end
     $var wire 32 "N _GEN_0 $end
     $var wire 5 "Y io_wb_address $end
     $var wire 5 "b testHarness_registerSetup_readAddress $end
     $var wire 32 "e io_wb_data $end
     $var wire 1 "p registers $end
     $var wire 1 #- io_control_regWrite $end
     $var wire 32 #; _GEN_2 $end
     $var wire 1 #D Decoder $end
     $var wire 1 #b testHarness_registerSetup_setup $end
     $var wire 32 #f io_target $end
     $var wire 32 #g testHarness_testUpdates_writeData $end
     $var wire 1 #m io_wb_enable $end
     $var wire 1 #q clock $end
     $var wire 1 $" io_control_memWrite $end
      $scope module registers $end
       $var wire 1 ( testHarness_testUpdates_writeEnable $end
       $var wire 1 + testHarness_setup_setup $end
       $var wire 32 4 testHarness_testUpdates_writeData $end
       $var wire 5 6 readAddress1 $end
       $var wire 1 9 clock $end
       $var wire 32 ; io_readData1 $end
       $var wire 32 ? registerFile $end
       $var wire 1 H testHarness_setup_writeEnable $end
       $var wire 1 ^ writeEnable $end
       $var wire 5 d io_readAddress1 $end
       $var wire 5 z testHarness_testUpdates_writeAddress $end
       $var wire 1 ", io_writeEnable $end
       $var wire 32 "K testHarness_setup_writeData $end
       $var wire 32 "\ io_writeData $end
       $var wire 5 ## testHarness_setup_readAddress $end
       $var wire 32 #, io_readData2 $end
       $var wire 5 #1 writeAddress $end
       $var wire 5 #I io_writeAddress $end
       $var wire 5 #J io_readAddress2 $end
        $scope module registerFile $end
          $scope module _T_33 $end
           $var wire 1 # en $end
           $var wire 1 , pipeline_valid_0 $end
           $var wire 1 8 clk $end
           $var wire 5 "" pipeline_addr_0 $end
           $var wire 1 "* mask $end
           $var wire 1 "S valid $end
           $var wire 5 "} addr $end
           $var wire 32 #C pipeline_data_0 $end
           $var wire 32 #k data $end
          $upscope $end
          $scope module _T_41 $end
           $var wire 32 _ data $end
           $var wire 1 "! en $end
           $var wire 1 "o clk $end
           $var wire 5 #\ addr $end
          $upscope $end
          $scope module _T_38 $end
           $var wire 1 h clk $end
           $var wire 1 "P en $end
           $var wire 5 "` addr $end
           $var wire 32 #X data $end
          $upscope $end
        $upscope $end
      $upscope $end
      $scope module Decoder $end
       $var wire 1 0 io_controlSignals_memWrite $end
       $var wire 1 : io_controlSignals_memRead $end
       $var wire 1 | io_op2Select $end
       $var wire 1 "m io_controlSignals_regWrite $end
       $var wire 4 #0 io_ALUop $end
       $var wire 1 #3 io_op1Select $end
       $var wire 32 #8 io_instruction_instruction $end
       $var wire 3 #x io_immType $end
      $upscope $end
    $upscope $end
    $scope module MEM $end
     $var wire 1 K DMEM $end
     $var wire 32 R testHarness_testUpdates_writeAddress $end
     $var wire 32 "' testHarness_DMEMsetup_dataAddress $end
     $var wire 32 "3 io_data_in $end
     $var wire 32 "J io_address $end
     $var wire 1 "u testHarness_testUpdates_writeEnable $end
     $var wire 1 #& testHarness_DMEMsetup_writeEnable $end
     $var wire 32 #7 testHarness_DMEMpeek $end
     $var wire 1 #T testHarness_DMEMsetup_setup $end
     $var wire 32 #[ testHarness_testUpdates_writeData $end
     $var wire 1 #e clock $end
     $var wire 32 #p io_data_out $end
     $var wire 32 #w testHarness_DMEMsetup_dataIn $end
     $var wire 1 #| io_mem_write $end
      $scope module DMEM $end
       $var wire 32 * testHarness_testUpdates_writeData $end
       $var wire 1 . _GEN_6 $end
       $var wire 12 7 data__T_24_addr_pipe_0 $end
       $var wire 1 E testHarness_testUpdates_writeEnable $end
       $var wire 32 M testHarness_setup_dataAddress $end
       $var wire 12 O io_dataAddress $end
       $var wire 32 W testHarness_testUpdates_writeAddress $end
       $var wire 32 i addressSource $end
       $var wire 32 q data $end
       $var wire 1 "D io_writeEnable $end
       $var wire 1 "v testHarness_setup_writeEnable $end
       $var wire 1 "z testHarness_setup_setup $end
       $var wire 1 #H clock $end
       $var wire 32 #V testHarness_setup_dataIn $end
       $var wire 32 #a io_dataIn $end
       $var wire 32 #l io_dataOut $end
        $scope module data $end
          $scope module _T_26 $end
           $var wire 1 " clk $end
           $var wire 12 a addr $end
           $var wire 32 j pipeline_data_0 $end
           $var wire 1 "@ pipeline_valid_0 $end
           $var wire 32 "Q data $end
           $var wire 1 #B en $end
           $var wire 12 #K pipeline_addr_0 $end
           $var wire 1 #Y valid $end
           $var wire 1 #s mask $end
          $upscope $end
          $scope module _T_24 $end
           $var wire 32 C data $end
           $var wire 1 "] clk $end
           $var wire 1 #G en $end
           $var wire 12 #N addr $end
          $upscope $end
        $upscope $end
      $upscope $end
    $upscope $end
    $scope module EX $end
     $var wire 1 $ ALU $end
     $var wire 4 ~ io_alu_op $end
     $var wire 32 "1 io_op_two $end
     $var wire 32 "r io_op_one $end
     $var wire 32 #R io_result $end
      $scope module ALU $end
       $var wire 63 ' _GEN_5 $end
       $var wire 32 1 io_op_one $end
       $var wire 32 e io_result $end
       $var wire 63 n _GEN_7 $end
       $var wire 32 s _GEN_1 $end
       $var wire 63 "8 _GEN_4 $end
       $var wire 4 "^ io_alu_op $end
       $var wire 63 "f _GEN_3 $end
       $var wire 63 "l _GEN_6 $end
       $var wire 32 #% _GEN_0 $end
       $var wire 63 #( _GEN_9 $end
       $var wire 63 #. _GEN_10 $end
       $var wire 32 #L io_op_two $end
       $var wire 63 #d _GEN_8 $end
       $var wire 32 #r _GEN_2 $end
      $upscope $end
    $upscope $end
    $scope module IF $end
     $var wire 1 & testHarness_IMEMsetup_setup $end
     $var wire 1 L IMEM $end
     $var wire 32 X io_PC $end
     $var wire 32 \ testHarness_IMEMsetup_instruction $end
     $var wire 32 } PC $end
     $var wire 1 "7 clock $end
     $var wire 32 ": testHarness_PC $end
     $var wire 1 #/ reset $end
     $var wire 32 #2 io_inst_instruction $end
     $var wire 32 #= testHarness_IMEMsetup_address $end
     $var wire 32 #y _GEN_0 $end
      $scope module IMEM $end
       $var wire 32 @ testHarness_setupSignals_instruction $end
       $var wire 12 J instructions__T_20_addr_pipe_0 $end
       $var wire 1 t clock $end
       $var wire 32 "O testHarness_setupSignals_address $end
       $var wire 1 "W _GEN_4 $end
       $var wire 32 "d io_instruction $end
       $var wire 1 #" testHarness_setupSignals_setup $end
       $var wire 32 #M addressSource $end
       $var wire 32 #Z testHarness_requestedAddress $end
       $var wire 32 #n io_instructionAddress $end
       $var wire 32 #u instructions $end
        $scope module instructions $end
          $scope module _T_18 $end
           $var wire 1 - valid $end
           $var wire 1 < mask $end
           $var wire 1 ` pipeline_valid_0 $end
           $var wire 12 "# addr $end
           $var wire 1 "% clk $end
           $var wire 32 "n data $end
           $var wire 12 "q pipeline_addr_0 $end
           $var wire 32 #] pipeline_data_0 $end
           $var wire 1 #t en $end
          $upscope $end
          $scope module _T_20 $end
           $var wire 1 p en $end
           $var wire 12 "F addr $end
           $var wire 1 "k clk $end
           $var wire 32 #: data $end
          $upscope $end
        $upscope $end
      $upscope $end
    $upscope $end
    $scope module IDBarrier $end
     $var wire 1 ) control_memWrite $end
     $var wire 1 = io_out_control_memWrite $end
     $var wire 32 B io_out_target $end
     $var wire 5 F rd $end
     $var wire 32 I io_in_op_two $end
     $var wire 32 ] alu_op $end
     $var wire 32 l op_two $end
     $var wire 1 r reset $end
     $var wire 1 "& io_out_control_memRead $end
     $var wire 32 "/ io_in_op_one $end
     $var wire 4 "0 io_out_alu_op $end
     $var wire 5 "5 io_out_rd $end
     $var wire 32 "9 io_out_op_two $end
     $var wire 1 "> io_in_control_regWrite $end
     $var wire 1 "I control_memRead $end
     $var wire 5 "g io_in_rd $end
     $var wire 1 "y io_out_control_regWrite $end
     $var wire 32 "~ io_in_target $end
     $var wire 32 #' op_one $end
     $var wire 1 #* io_in_control_memWrite $end
     $var wire 32 #+ io_out_op_one $end
     $var wire 1 #F control_regWrite $end
     $var wire 4 #U io_in_alu_op $end
     $var wire 1 #} io_in_control_memRead $end
     $var wire 32 $! target $end
     $var wire 1 $$ clock $end
    $upscope $end
    $scope module MEMBarrier $end
     $var wire 1 G control_memRead $end
     $var wire 32 N rd $end
     $var wire 1 S reset $end
     $var wire 1 "( control_regWrite $end
     $var wire 32 "+ io_in_mem $end
     $var wire 32 "E result $end
     $var wire 5 "L io_in_rd $end
     $var wire 1 "Z io_in_control_memRead $end
     $var wire 1 "_ io_in_control_regWrite $end
     $var wire 1 "w io_out_control_regWrite $end
     $var wire 32 #4 io_out_result $end
     $var wire 5 #5 io_out_rd $end
     $var wire 32 #E io_in_result $end
     $var wire 1 #O clock $end
    $upscope $end
    $scope module EXBarrier $end
     $var wire 1 P clock $end
     $var wire 32 U io_out_target $end
     $var wire 32 Y io_in_result $end
     $var wire 1 b control_memRead $end
     $var wire 32 k io_in_target $end
     $var wire 5 v rd $end
     $var wire 1 "- io_out_control_memRead $end
     $var wire 32 ". result $end
     $var wire 1 "6 io_out_control_regWrite $end
     $var wire 32 "? target $end
     $var wire 1 "U io_in_control_regWrite $end
     $var wire 1 "X io_in_control_memRead $end
     $var wire 1 "a control_regWrite $end
     $var wire 1 "s reset $end
     $var wire 1 #! io_out_control_memWrite $end
     $var wire 1 #? io_in_control_memWrite $end
     $var wire 5 #A io_out_rd $end
     $var wire 1 #S control_memWrite $end
     $var wire 32 #^ io_out_result $end
     $var wire 5 #` io_in_rd $end
    $upscope $end
    $scope module IFBarrier $end
     $var wire 32 Z io_in_inst_instruction $end
     $var wire 1 "i clock $end
     $var wire 32 "j pc $end
     $var wire 32 #6 io_in_pc $end
     $var wire 32 #c io_out_pc $end
     $var wire 1 #h reset $end
     $var wire 32 #o io_out_inst_instruction $end
    $upscope $end
  $upscope $end
$upscope $end
$enddefinitions $end
$dumpvars
0#D
0=
b00000000000000000000000000000000 "j
b00000000000000000000000000000000 #6
0"P
0#t
0#W
0"v
b00000000000000000000000000000000 "4
0#S
0L
0"@
b000000000000 "q
b00000000000000000000000000000000 #w
b00000000000000000000000000000000 #o
b00000000000000000000000000000000 #Z
0#!
b00000000000000000000000000000000 "\
b00000000000000000000000000000000 "G
b00000000000000000000000000000000 #=
1p
0#O
0r
b00000000000000000000000000000000 s
0H
b000000000000 #N
b00000000000000000000000000000000 A
0+
b00000000000000000000000000000000 #k
b00000000000000000000000000000000 #V
b00000000000000000000000000000000 #9
b000000000000 J
b000000000000000000000000000000000000000000000000000000000000000 "8
b0000 "0
0#b
b00000 "Y
b00000000000000000000000000000000 q
b00000000000000000000000000000000 T
0>
b00000000000000000000000000000000 #i
b00000000000000000000000000000000 ?
b0000 "^
b00000000000000000000000000000000 m
0$"
b00000 "M
b00000 y
b00000000000000000000000000000000 e
0#$
0"C
0:
b00000000000000000000000000000000 3
b000000000000000000000000000000000000000000000000000000000000000 #(
0`
b00000000000000000000000000000000 #v
b00000000000000000000000000000000 /
b00000000000000000000000000000000 "c
b00000000000000000000000000000000 "1
0#m
0"o
0#P
b00000000000000000000000000000000 #8
b00000000000000000000000000000000 _
b00000000000000000000000000000000 B
b00000000000000000000000000000000 #f
0"k
b00000000000000000000000000000000 #4
b00000000000000000000000000000000 [
0#/
0"_
0#@
b00000 x
b00000 c
09
b00000000000000000000000000000000 #y
0"-
b00000 F
0#_
b00000000000000000000000000000000 "Q
b00000000000000000000000000000000 #2
1#s
0|
b00000000000000000000000000000000 #u
0-
0"z
b00000 "g
b00000000000000000000000000000000 #C
b00000000000000000000000000000000 #X
0#>
b00000000000000000000000000000000 "E
0"]
b00000 "5
b00000000000000000000000000000000 M
b000000000000 7
b00000 6
b00000000000000000000000000000000 {
b00000000000000000000000000000000 "$
b00000000000000000000000000000000 o
b00000000000000000000000000000000 #g
b00000000000000000000000000000000 #R
b00000000000000000000000000000000 "T
b00000000000000000000000000000000 "?
b000000000000000000000000000000000000000000000000000000000000000 #d
b000000000000000000000000000000000000000000000000000000000000000 "f
0"{
0"I
0#*
b00000 w
08
0",
b00000000000000000000000000000000 #c
0#{
b00000000000000000000000000000000 N
b00000000000000000000000000000000 "e
0#
1.
b00000000000000000000000000000000 "3
b000000000000000000000000000000000000000000000000000000000000000 #.
b000 #x
b0000 ~
0"y
b00000 #\
0h
0K
0"m
0"X
b00000000000000000000000000000000 ]
0G
0";
b00000000000000000000000000000000 #r
0"&
b00000000000000000000000000000000 @
b00000000000000000000000000000000 $!
b00000000000000000000000000000000 Y
0#-
0"7
b00000000000000000000000000000000 #n
0&
b00000000000000000000000000000000 #Q
b00000 v
0#z
b00000 #J
0#H
b00000 #5
b00000000000000000000000000000000 #E
b00000000000000000000000000000000 "d
b00000000000000000000000000000000 l
b00000000000000000000000000000000 "2
b00000 ""
0V
0#Y
b00000 #1
b00000000000000000000000000000000 }
0g
0"[
b00000000000000000000000000000000 ".
0")
b0000 #U
1<
1"*
0)
b00000 d
b00000000000000000000000000000000 ;
0#h
0%
0#}
b00000 ##
b00000000000000000000000000000000 "=
b00000000000000000000000000000000 "R
b00000000000000000000000000000000 Z
0"U
0!
b00000000000000000000000000000000 #L
b00000000000000000000000000000000 #a
b000000000000 "F
b00000000000000000000000000000000 "N
b00000000000000000000000000000000 "9
b00000000000000000000000000000000 k
0"w
0f
0"Z
0Q
0#&
0"(
b00000000000000000000000000000000 "~
b00000000000000000000000000000000 i
b00000000000000000000000000000000 #%
b00000000000000000000000000000000 "/
0b
0"V
0E
00
b00000000000000000000000000000000 #p
b00000 #`
b00000000000000000000000000000000 #[
b00000 "b
b00000000000000000000000000000000 "r
b00000000000000000000000000000000 "H
b000000000000 "#
0"u
b000000000000 #K
b00000000000000000000000000000000 "+
0(
b000000000000 O
0#|
0"i
b00000000000000000000000000000000 "<
b00000000000000000000000000000000 "'
0#F
b00000000000000000000000000000000 j
b00000000000000000000000000000000 U
0#)
0"
b00000000000000000000000000000000 #M
b00000000000000000000000000000000 "O
b00000000000000000000000000000000 ":
0"a
0#B
0$#
1#G
0"D
0P
b00000000000000000000000000000000 I
b00000000000000000000000000000000 4
b00000000000000000000000000000000 #^
b00000 z
b00000000000000000000000000000000 #,
b00000000000000000000000000000000 "K
b000000000000000000000000000000000000000000000000000000000000000 n
b000000000000000000000000000000000000000000000000000000000000000 '
0#j
0"t
b00000 "L
0"B
b00000000000000000000000000000000 \
0"%
b00000000000000000000000000000000 *
0"p
0t
b00000000000000000000000000000000 u
0"S
0">
b00000000000000000000000000000000 X
b00000000000000000000000000000000 C
0"6
0"!
b00000000000000000000000000000000 #;
b000000000000000000000000000000000000000000000000000000000000000 "l
b000000000000 a
b0000 #0
0S
b00000000000000000000000000000000 #~
b00000000000000000000000000000000 #7
02
b00000000000000000000000000000000 #]
b00000000000000000000000000000000 "|
0$$
b00000000000000000000000000000000 "J
b00000000000000000000000000000000 #+
b00000000000000000000000000000000 R
b00000000000000000000000000000000 5
b00000 "}
b00000000000000000000000000000000 "x
b00000 "h
0#q
0#T
0#?
b00000000000000000000000000000000 #'
b00000 #A
0"s
0#"
0"A
b00000 "`
b00000 #I
b00000000000000000000000000000000 #<
b00000000000000000000000000000000 1
0#e
0^
0#3
1"W
b00000000000000000000000000000000 W
0,
b00000000000000000000000000000000 #l
0$
b00000000000000000000000000000000 "n
b00000000000000000000000000000000 #:
b0000 D
$end
#0
1r
1"s
b1111 #0
1#{
b1111 D
b1111 #U
1S
b00000000000000000000000000000100 #y
1#W
1#h
1#/
#1
1P
1"
1"]
18
1h
1"%
1"k
1#O
1#H
1"[
1"7
1t
1"o
1#e
19
1"t
1$$
1#q
1"i
#6
0"7
09
08
0P
0"]
0h
0#H
0"t
0#O
0"[
0"i
0"k
0t
0#q
0"
0#e
0"%
0"o
0$$
#11
1P
1"
1"]
18
1h
1"%
1"k
1#O
1#H
1"[
1"7
1t
1"o
1#e
19
1"t
1$$
1#q
1"i
#16
0"7
09
08
0P
0"]
0h
0#H
0"t
0#O
0"[
0"i
0"k
0t
0#q
0"
0#e
0"%
0"o
0$$
#21
1P
1"
1"]
18
1h
1"%
1"k
1#O
1#H
1"[
1"7
1t
1"o
1#e
19
1"t
1$$
1#q
1"i
#26
0"7
09
08
0P
0"]
0h
0#H
0"t
0#O
0"[
0"i
0"k
0t
0#q
0"
0#e
0"%
0"o
0$$
#31
1P
1"
1"]
18
1h
1"%
1"k
1#O
1#H
1"[
1"7
1t
1"o
1#e
19
1"t
1$$
1#q
1"i
#36
0"7
09
08
0P
0"]
0h
0#H
0"t
0#O
0"[
0"i
0"k
0t
0#q
0"
0#e
0"%
0"o
0$$
#41
1P
1"
1"]
18
1h
1"%
1"k
1#O
1#H
1"[
1"7
1t
1"o
1#e
19
1"t
1$$
1#q
1"i
#46
1#b
0"7
09
08
0S
0P
1#"
0#H
1"C
0#O
b00000000000100000000000010010011 "n
1-
0#W
0"[
b00000000000000000000000000010011 "4
b00000000000000000000000000000000 #y
1&
0r
0#h
0"k
1"m
0t
b00000000000000000000000000010011 Z
b00000000000000000000000000010011 #o
0"
b00000000000100000000000010010011 @
b00000000000000000000000000010011 #8
0"%
0"o
1#t
0$$
1#T
1"z
1+
1#_
b0000 #U
0"]
0h
b00000000000100000000000010010011 \
0"t
b00000000000000000000000000010011 #2
b0000 #0
0#{
b00000000000100000000000010010011 #9
0"s
1#$
0"i
0#/
0#q
b0000 D
1#-
1"V
0#e
b00000000000100000000000010010011 5
1|
1">
#51
b00000000000100000000000010010011 #:
b00000000000100000000000010010011 "d
1P
1"
1"]
18
1`
1h
1"%
1"k
1"y
1#O
1#H
1"[
1"7
1t
1"o
1#e
19
b00000000000100000000000010010011 #]
1"t
1$$
1#q
1"U
1#F
1"i
#56
0"7
09
08
0P
0#H
0#O
0"[
b00000000000000000000000000000100 #M
b000000000100 "#
0"k
0t
b00000000000000000000000000000100 #=
0"
0"%
0"o
0$$
b00000000000000000000000000010011 @
b00000000000000000000000000000100 "O
0"]
b00000000000000000000000000000100 /
0h
0"t
b00000000000000000000000000010011 #9
b00000000000000000000000000000100 A
0"i
0#q
0#e
b00000000000000000000000000010011 5
b00000000000000000000000000010011 "n
b00000000000000000000000000010011 \
#61
1P
1"6
b000000000100 J
18
b00000000000000000000000000010011 "d
1"%
1#O
1#H
1"[
1t
1"o
19
b000000000100 "q
1$$
b000000000100 "F
b00000000000000000000000000010011 #:
1"_
1"
1"]
1h
1"k
b00000000000000000000000000010011 #]
1"7
1#e
1"t
1#q
1"i
1"a
#66
0"7
09
08
b00000000000000000000000000001000 A
0P
0"]
0h
b000000001000 "#
0#H
0"t
0#O
0"[
b00000000000000000000000000001000 #=
0"i
0"k
0t
0#q
0"
0#e
b00000000000000000000000000001000 "O
0"%
0"o
b00000000000000000000000000001000 #M
0$$
b00000000000000000000000000001000 /
#71
1"w
1P
1"
1"]
1"(
18
1",
1h
1"%
1"k
1#O
1#H
1"[
b000000001000 "q
1"7
1"o
1t
1#e
19
1"t
1$$
1#q
1#m
b000000001000 "F
b000000001000 J
1"i
#76
0"7
09
08
0P
0"]
b00000000000000000000000000001100 /
0h
b00000000000000000000000000001100 A
0#H
0"t
0#O
b00000000000000000000000000001100 #=
0"[
0"i
0"k
0t
0#q
b00000000000000000000000000001100 #M
0"
0#e
b000000001100 "#
0"%
0"o
b00000000000000000000000000001100 "O
0$$
#81
1P
1"
1"]
18
1h
1"%
b000000001100 J
1"k
1#O
1#H
1"[
b000000001100 "F
1"7
1t
b000000001100 "q
1"o
1#e
19
1"t
1$$
1#q
1"i
#86
b00000000000000000000000000010000 "O
0"7
09
08
0P
0"]
0h
0#H
0"t
0#O
0"[
b000000010000 "#
0"i
0"k
b00000000000000000000000000010000 A
0t
0#q
b00000000000000000000000000010000 #=
0"
b00000000000000000000000000010000 /
0#e
0"%
0"o
0$$
b00000000000000000000000000010000 #M
#91
1P
1"
1"]
18
b000000010000 J
1h
1"%
1"k
b000000010000 "F
b000000010000 "q
1#O
1#H
1"[
1"7
1t
1"o
1#e
19
1"t
1$$
1#q
1"i
#96
0"7
09
08
0P
0#H
0#O
0"[
0"k
0t
0"
b00000000000000000000000000010100 #M
0"%
0"o
0$$
b000000010100 "#
b11111111111100000000000100010011 "n
0"]
b00000000000000000000000000010100 #=
0h
0"t
b00000000000000000000000000010100 "O
0"i
0#q
b00000000000000000000000000010100 A
b11111111111100000000000100010011 \
0#e
b11111111111100000000000100010011 #9
b00000000000000000000000000010100 /
b11111111111100000000000100010011 @
b11111111111100000000000100010011 5
#101
1P
1"
1"]
18
b000000010100 "q
b11111111111100000000000100010011 #:
1h
1"%
1"k
b11111111111100000000000100010011 "d
1#O
1#H
b000000010100 "F
1"[
b000000010100 J
1"7
1t
1"o
1#e
19
1"t
1$$
b11111111111100000000000100010011 #]
1#q
1"i
#106
0"7
09
08
b00000000000000000000000000011000 "O
0P
0#H
0#O
0"[
0"k
0t
b00000000000000000000000000011000 /
0"
b00000000000000000000000000011000 A
b000000011000 "#
b00000000000000000000000000011000 #=
0"%
0"o
b00000000000000000000000000011000 #M
0$$
b00000000000000000000000000010011 @
0"]
0h
0"t
b00000000000000000000000000010011 #9
0"i
0#q
0#e
b00000000000000000000000000010011 5
b00000000000000000000000000010011 "n
b00000000000000000000000000010011 \
#111
b000000011000 "q
b00000000000000000000000000010011 #:
1P
1"
1"]
18
b00000000000000000000000000010011 "d
1h
1"%
1"k
1#O
1#H
b00000000000000000000000000010011 #]
1"[
1"7
1t
1"o
1#e
19
1"t
1$$
b000000011000 J
1#q
b000000011000 "F
1"i
#116
0"7
09
08
b000000011100 "#
b00000000000000000000000000011100 /
0P
0"]
0h
0#H
0"t
0#O
0"[
b00000000000000000000000000011100 #M
0"i
0"k
b00000000000000000000000000011100 "O
0t
0#q
b00000000000000000000000000011100 A
0"
0#e
b00000000000000000000000000011100 #=
0"%
0"o
0$$
#121
b000000011100 J
b000000011100 "q
1P
1"
1"]
18
b000000011100 "F
1h
1"%
1"k
1#O
1#H
1"[
1"7
1t
1"o
1#e
19
1"t
1$$
1#q
1"i
#126
0"7
09
08
0P
b000000100000 "#
0"]
b00000000000000000000000000100000 A
0h
0#H
0"t
0#O
b00000000000000000000000000100000 #=
b00000000000000000000000000100000 #M
0"[
b00000000000000000000000000100000 /
0"i
0"k
0t
0#q
0"
0#e
0"%
0"o
0$$
b00000000000000000000000000100000 "O
#131
1P
b000000100000 J
1"
1"]
18
1h
1"%
1"k
1#O
1#H
1"[
b000000100000 "q
1"7
1"o
1t
1#e
19
1"t
1$$
b000000100000 "F
1#q
1"i
#136
0"7
09
08
0P
0"]
0h
0#H
0"t
0#O
b00000000000000000000000000100100 #M
0"[
b00000000000000000000000000100100 "O
b00000000000000000000000000100100 /
0"i
0"k
0t
0#q
b000000100100 "#
0"
b00000000000000000000000000100100 #=
0#e
0"%
0"o
b00000000000000000000000000100100 A
0$$
#141
1P
1"
1"]
18
1h
1"%
1"k
1#O
1#H
b000000100100 "q
1"[
1"7
1t
1"o
1#e
19
1"t
b000000100100 "F
1$$
b000000100100 J
1#q
1"i
#146
0"7
09
08
0P
0#H
0#O
0"[
b00000000001100000000000110010011 5
0"k
0t
b00000000000000000000000000101000 A
0"
b00000000000000000000000000101000 #M
0"%
0"o
b00000000000000000000000000101000 "O
0$$
b00000000001100000000000110010011 \
0"]
0h
0"t
b00000000001100000000000110010011 "n
b00000000001100000000000110010011 #9
0"i
b000000101000 "#
0#q
0#e
b00000000001100000000000110010011 @
b00000000000000000000000000101000 #=
b00000000000000000000000000101000 /
#151
b000000101000 "q
b00000000001100000000000110010011 #]
1P
1"
1"]
18
1h
1"%
b000000101000 "F
1"k
b00000000001100000000000110010011 #:
1#O
1#H
1"[
1"7
1t
1"o
b00000000001100000000000110010011 "d
1#e
19
1"t
1$$
1#q
b000000101000 J
1"i
#156
0"7
09
08
0P
0#H
0#O
b000000101100 "#
0"[
0"k
0t
0"
b00000000000000000000000000101100 #=
0"%
0"o
b00000000000000000000000000101100 "O
0$$
b00000000000000000000000000010011 @
0"]
0h
0"t
b00000000000000000000000000010011 #9
0"i
0#q
b00000000000000000000000000101100 #M
b00000000000000000000000000101100 /
0#e
b00000000000000000000000000101100 A
b00000000000000000000000000010011 5
b00000000000000000000000000010011 "n
b00000000000000000000000000010011 \
#161
b00000000000000000000000000010011 #:
1P
1"
1"]
18
b000000101100 "q
b00000000000000000000000000010011 "d
1h
1"%
1"k
1#O
1#H
b00000000000000000000000000010011 #]
1"[
1"7
1t
b000000101100 J
1"o
b000000101100 "F
1#e
19
1"t
1$$
1#q
1"i
#166
0"7
09
08
b000000110000 "#
0P
b00000000000000000000000000110000 /
0"]
b00000000000000000000000000110000 #=
0h
0#H
0"t
0#O
b00000000000000000000000000110000 A
0"[
0"i
0"k
0t
0#q
0"
0#e
b00000000000000000000000000110000 "O
0"%
0"o
0$$
b00000000000000000000000000110000 #M
#171
1P
1"
1"]
18
1h
1"%
1"k
1#O
1#H
1"[
1"7
1t
1"o
1#e
19
b000000110000 "q
1"t
1$$
1#q
b000000110000 "F
1"i
b000000110000 J
#176
0"7
09
08
b00000000000000000000000000110100 A
0P
0"]
b00000000000000000000000000110100 /
0h
b00000000000000000000000000110100 "O
0#H
0"t
0#O
b00000000000000000000000000110100 #=
0"[
0"i
0"k
0t
0#q
0"
0#e
0"%
0"o
b00000000000000000000000000110100 #M
0$$
b000000110100 "#
#181
1P
1"
1"]
18
1h
1"%
1"k
1#O
1#H
b000000110100 "q
1"[
1"7
1t
1"o
1#e
19
b000000110100 "F
1"t
1$$
1#q
b000000110100 J
1"i
#186
0"7
09
08
b00000000000000000000000000111000 A
0P
0"]
b00000000000000000000000000111000 "O
0h
0#H
0"t
0#O
b000000111000 "#
0"[
b00000000000000000000000000111000 #=
b00000000000000000000000000111000 #M
0"i
0"k
0t
0#q
b00000000000000000000000000111000 /
0"
0#e
0"%
0"o
0$$
#191
1P
1"
1"]
18
b000000111000 J
1h
1"%
1"k
1#O
1#H
1"[
1"7
1t
1"o
b000000111000 "q
1#e
19
1"t
1$$
1#q
b000000111000 "F
1"i
