waveforms/constants.s.vcd
$date
2025-09-08T08:14+0000
$end
$version
0.2
$end
$comment

$end
$timescale 1ns  $end
$scope module Tile $end
 $var wire 1 * io_regsWriteEnable $end
 $var wire 32 + io_regsReadData $end
 $var wire 32 4 io_IMEMAddress $end
 $var wire 1 < io_regsDeviceWriteEnable $end
 $var wire 32 I io_DMEMAddress $end
 $var wire 32 Z io_DMEMWriteData $end
 $var wire 1 ] CPU $end
 $var wire 32 _ io_regsDeviceWriteData $end
 $var wire 5 a io_regsDeviceWriteAddress $end
 $var wire 1 i clock $end
 $var wire 32 l io_currentPC $end
 $var wire 5 m io_regsAddress $end
 $var wire 1 u io_DMEMWriteEnable $end
 $var wire 32 v io_memDeviceWriteAddress $end
 $var wire 32 ~ io_IMEMWriteData $end
 $var wire 32 "! io_memDeviceWriteData $end
 $var wire 32 ") io_DMEMReadData $end
 $var wire 1 ", reset $end
 $var wire 1 "2 io_setup $end
 $var wire 1 "7 io_memDeviceWriteEnable $end
 $var wire 32 "A io_regsWriteData $end
  $scope module CPU.MEM $end
  $upscope $end
  $scope module CPU.ID.registers $end
  $upscope $end
  $scope module CPU.IF $end
  $upscope $end
  $scope module CPU.IF.IMEM $end
  $upscope $end
  $scope module CPU.MEM.DMEM $end
  $upscope $end
  $scope module CPU $end
   $var wire 1 2 testHarness_regUpdates_writeEnable $end
   $var wire 1 > ID $end
   $var wire 1 D testHarness_memUpdates_writeEnable $end
   $var wire 32 K testHarness_regUpdates_writeData $end
   $var wire 5 L testHarness_regUpdates_writeAddress $end
   $var wire 5 M testHarness_setupSignals_registerSignals_readAddress $end
   $var wire 32 P testHarness_testReadouts_registerRead $end
   $var wire 32 T testHarness_currentPC $end
   $var wire 1 W IF $end
   $var wire 32 [ testHarness_memUpdates_writeAddress $end
   $var wire 1 ^ testHarness_setupSignals_DMEMsignals_setup $end
   $var wire 32 d testHarness_testReadouts_DMEMread $end
   $var wire 32 f testHarness_setupSignals_DMEMsignals_dataIn $end
   $var wire 1 g testHarness_setupSignals_IMEMsignals_setup $end
   $var wire 1 q clock $end
   $var wire 32 s testHarness_setupSignals_DMEMsignals_dataAddress $end
   $var wire 1 x testHarness_setupSignals_registerSignals_setup $end
   $var wire 1 { MEM $end
   $var wire 1 "" testHarness_setupSignals_registerSignals_writeEnable $end
   $var wire 32 "6 testHarness_memUpdates_writeData $end
   $var wire 32 "= testHarness_setupSignals_registerSignals_writeData $end
   $var wire 1 "@ reset $end
   $var wire 1 "B testHarness_setupSignals_DMEMsignals_writeEnable $end
    $scope module MEM $end
     $var wire 1 8 DMEM $end
     $var wire 32 ; testHarness_testUpdates_writeAddress $end
     $var wire 32 U testHarness_DMEMsetup_dataAddress $end
     $var wire 1 p testHarness_testUpdates_writeEnable $end
     $var wire 1 z testHarness_DMEMsetup_writeEnable $end
     $var wire 32 } testHarness_DMEMpeek $end
     $var wire 1 "* testHarness_DMEMsetup_setup $end
     $var wire 32 "0 testHarness_testUpdates_writeData $end
     $var wire 1 "4 clock $end
     $var wire 32 "> testHarness_DMEMsetup_dataIn $end
      $scope module DMEM $end
       $var wire 32 & testHarness_testUpdates_writeData $end
       $var wire 1 ) _GEN_6 $end
       $var wire 12 - data__T_24_addr_pipe_0 $end
       $var wire 1 6 testHarness_testUpdates_writeEnable $end
       $var wire 32 : testHarness_setup_dataAddress $end
       $var wire 32 ? testHarness_testUpdates_writeAddress $end
       $var wire 32 F addressSource $end
       $var wire 32 J data $end
       $var wire 1 r testHarness_setup_writeEnable $end
       $var wire 1 t testHarness_setup_setup $end
       $var wire 1 "& clock $end
       $var wire 32 "+ testHarness_setup_dataIn $end
       $var wire 32 "9 io_dataOut $end
        $scope module data $end
          $scope module _T_26 $end
           $var wire 1 ! clk $end
           $var wire 12 B addr $end
           $var wire 32 G pipeline_data_0 $end
           $var wire 1 \ pipeline_valid_0 $end
           $var wire 32 c data $end
           $var wire 1 "# en $end
           $var wire 12 "' pipeline_addr_0 $end
           $var wire 1 "- valid $end
           $var wire 1 "< mask $end
          $upscope $end
          $scope module _T_24 $end
           $var wire 32 5 data $end
           $var wire 1 h clk $end
           $var wire 1 "% en $end
           $var wire 12 "( addr $end
          $upscope $end
        $upscope $end
      $upscope $end
    $upscope $end
    $scope module ID $end
     $var wire 1 " testHarness_registerSetup_writeEnable $end
     $var wire 32 = testHarness_registerPeek $end
     $var wire 1 C testHarness_testUpdates_writeEnable $end
     $var wire 32 H testHarness_registerSetup_writeData $end
     $var wire 5 N testHarness_testUpdates_writeAddress $end
     $var wire 5 k testHarness_registerSetup_readAddress $end
     $var wire 1 o registers $end
     $var wire 1 "3 testHarness_registerSetup_setup $end
     $var wire 32 "5 testHarness_testUpdates_writeData $end
     $var wire 1 ": clock $end
      $scope module registers $end
       $var wire 1 % testHarness_testUpdates_writeEnable $end
       $var wire 1 ' testHarness_setup_setup $end
       $var wire 32 , testHarness_testUpdates_writeData $end
       $var wire 5 . readAddress1 $end
       $var wire 1 0 clock $end
       $var wire 32 1 io_readData1 $end
       $var wire 32 3 registerFile $end
       $var wire 1 7 testHarness_setup_writeEnable $end
       $var wire 1 @ writeEnable $end
       $var wire 5 O testHarness_testUpdates_writeAddress $end
       $var wire 32 ` testHarness_setup_writeData $end
       $var wire 5 y testHarness_setup_readAddress $end
        $scope module registerFile $end
          $scope module _T_33 $end
           $var wire 1 # en $end
           $var wire 1 ( pipeline_valid_0 $end
           $var wire 1 / clk $end
           $var wire 5 S pipeline_addr_0 $end
           $var wire 1 V mask $end
           $var wire 1 e valid $end
           $var wire 5 w addr $end
           $var wire 32 "$ pipeline_data_0 $end
           $var wire 32 "8 data $end
          $upscope $end
          $scope module _T_41 $end
           $var wire 32 A data $end
           $var wire 1 R en $end
           $var wire 1 n clk $end
           $var wire 5 "1 addr $end
          $upscope $end
          $scope module _T_38 $end
           $var wire 1 E clk $end
           $var wire 1 b en $end
           $var wire 5 j addr $end
           $var wire 32 ". data $end
          $upscope $end
        $upscope $end
      $upscope $end
    $upscope $end
    $scope module IF $end
     $var wire 1 $ testHarness_IMEMsetup_setup $end
     $var wire 1 9 IMEM $end
     $var wire 32 Q PC $end
     $var wire 1 X clock $end
     $var wire 32 Y testHarness_PC $end
     $var wire 1 | reset $end
     $var wire 32 "? _GEN_0 $end
      $scope module IMEM $end
       $var wire 32 "/ testHarness_requestedAddress $end
       $var wire 32 "; io_instructionAddress $end
      $upscope $end
    $upscope $end
  $upscope $end
  $scope module CPU.ID $end
  $upscope $end
$upscope $end
$enddefinitions $end
$dumpvars
0X
0C
0"7
0""
1"<
b00000000000000000000000000000000 Y
0o
b00000000000000000000000000000000 ">
0R
b00000000000000000000000000000000 "8
b00000000000000000000000000000000 l
b00000000000000000000000000000000 :
b00000000000000000000000000000000 Q
b00000000000000000000000000000000 }
0g
b00000000000000000000000000000000 `
b00000000000000000000000000000000 K
b00000000000000000000000000000000 ".
b000000000000 "(
0"@
0D
0/
0"#
0x
0":
b00000 S
0z
0r
b00000000000000000000000000000000 s
1)
0]
b00000 j
b00000000000000000000000000000000 A
0@
0W
b00000000000000000000000000000000 ;
0%
b00000 O
b000000000000 -
b00000000000000000000000000000000 "=
b00000000000000000000000000000000 Z
0p
b00000000000000000000000000000000 T
0>
0"2
b00000000000000000000000000000000 ?
06
0!
b00000 .
b00000000000000000000000000000000 "9
0"4
b00000 y
b00000000000000000000000000000000 P
b00000000000000000000000000000000 3
0{
b00000000000000000000000000000000 "5
b00000000000000000000000000000000 J
b000000000000 "'
b00000000000000000000000000000000 "/
0"*
0b
0E
00
0(
b00000000000000000000000000000000 "+
b00000000000000000000000000000000 _
0u
1V
b00000000000000000000000000000000 [
b00000000000000000000000000000000 "6
b00000000000000000000000000000000 "!
0q
0i
b00000000000000000000000000000000 U
0"3
b00000 a
07
b00000 L
0"
09
0"-
b00000000000000000000000000000000 f
0e
b00000 "1
b00000000000000000000000000000000 I
b00000000000000000000000000000000 4
0|
b00000000000000000000000000000000 "0
b00000000000000000000000000000000 d
0"B
b00000000000000000000000000000000 G
b00000000000000000000000000000000 "A
b00000000000000000000000000000000 "$
b00000000000000000000000000000000 ,
b00000 M
0t
b00000000000000000000000000000000 ";
b00000000000000000000000000000000 &
0n
b00000000000000000000000000000000 =
0<
0'
b00000000000000000000000000000000 "?
b00000 w
08
0#
0",
02
b000000000000 B
b00000000000000000000000000000000 5
b00000000000000000000000000000000 ~
0h
b00000 m
b00000000000000000000000000000000 c
b00000000000000000000000000000000 ")
b00000000000000000000000000000000 F
b00000000000000000000000000000000 1
0\
b00000000000000000000000000000000 H
0"&
b00000000000000000000000000000000 +
0*
0^
b00000 k
1"%
0$
b00000 N
b00000000000000000000000000000000 v
$end
#0
1|
1",
1"@
#1
1q
1h
1/
1i
1"&
1"4
1":
10
1n
1E
1X
1!
#6
0"4
0n
0X
0h
0"&
00
0E
0i
0/
0!
0q
0":
#11
1q
1h
1/
1i
1"&
1"4
1":
10
1n
1E
1X
1!
#16
0"4
0n
0X
0h
0"&
00
0E
0i
0/
0!
0q
0":
#21
1q
1h
1/
1i
1"&
1"4
1":
10
1n
1E
1X
1!
#26
0"4
0n
0X
0h
0"&
00
0E
0i
0/
0!
0q
0":
#31
1q
1h
1/
1i
1"&
1"4
1":
10
1n
1E
1X
1!
#36
0"4
0n
0X
0h
0"&
00
0E
0i
0/
0!
0q
0":
#41
1q
1h
1/
1i
1"&
1"4
1":
10
1n
1E
1X
1!
#46
0"@
0n
1x
1g
0X
0",
00
0E
0i
0/
0!
1t
1$
1^
0q
0":
1"*
0"4
1'
b00000000000000000000000000010011 ~
1"3
0h
0"&
1"2
0|
#51
1q
1h
1/
1i
1"&
1"4
1":
10
1n
1E
1X
1!
#56
0"4
0n
0X
0h
0"&
00
0E
0i
0/
0!
b00000000000000000000000000000100 4
0q
0":
#61
1q
1h
1/
1i
1"&
1"4
1":
10
1n
1E
1X
1!
#66
b00000000000000000000000000001000 4
0"4
0n
0X
0h
0"&
00
0E
0i
0/
0!
0q
0":
#71
1q
1h
1/
1i
1"&
1"4
1":
10
1n
1E
1X
1!
#76
b00000000000000000000000000001100 4
0"4
0n
0X
0h
0"&
00
0E
0i
0/
0!
0q
0":
#81
1q
1h
1/
1i
1"&
1"4
1":
10
1n
1E
1X
1!
#86
0"4
0n
0X
0h
0"&
00
0E
0i
0/
0!
b00000000000000000000000000010000 4
0q
0":
#91
1q
1h
1/
1i
1"&
1"4
1":
10
1n
1E
1X
1!
#96
0n
b00000000000000000000000000010100 4
0X
00
0E
0i
0/
0!
0q
0":
0"4
b00000000000000000000000000110011 ~
0h
0"&
#101
1q
1h
1/
1i
1"&
1"4
1":
10
1n
1E
1X
1!
#106
0n
0X
00
0E
0i
0/
0!
0q
0":
0"4
b00000000000000000000000000010011 ~
0h
0"&
b00000000000000000000000000011000 4
#111
1q
1h
1/
1i
1"&
1"4
1":
10
1n
1E
1X
1!
#116
0"4
0n
0X
0h
0"&
00
0E
0i
0/
0!
0q
b00000000000000000000000000011100 4
0":
#121
1q
1h
1/
1i
1"&
1"4
1":
10
1n
1E
1X
1!
#126
0"4
0n
0X
0h
0"&
00
0E
0i
0/
0!
b00000000000000000000000000100000 4
0q
0":
#131
1q
1h
1/
1i
1"&
1"4
1":
10
1n
1E
1X
1!
#136
0"4
0n
0X
0h
0"&
00
0E
0i
0/
0!
b00000000000000000000000000100100 4
0q
0":
#141
1q
1h
1/
1i
1"&
1"4
1":
10
1n
1E
1X
1!
#146
0n
0X
00
0E
0i
0/
0!
0q
b00001010101111001110000010110111 ~
0":
0"4
0h
0"&
b00000000000000000000000000101000 4
#151
1q
1h
1/
1i
1"&
1"4
1":
10
1n
1E
1X
1!
#156
0n
0X
00
0E
0i
0/
0!
0q
0":
0"4
b00000000000000000000000000010011 ~
0h
0"&
b00000000000000000000000000101100 4
#161
1q
1h
1/
1i
1"&
1"4
1":
10
1n
1E
1X
1!
#166
0"4
0n
0X
0h
0"&
00
0E
0i
0/
0!
b00000000000000000000000000110000 4
0q
0":
#171
1q
1h
1/
1i
1"&
1"4
1":
10
1n
1E
1X
1!
#176
0"4
0n
0X
0h
0"&
00
0E
0i
0/
0!
b00000000000000000000000000110100 4
0q
0":
#181
1q
1h
1/
1i
1"&
1"4
1":
10
1n
1E
1X
1!
#186
0"4
0n
0X
0h
0"&
00
0E
0i
0/
0!
0q
0":
b00000000000000000000000000111000 4
#191
1q
1h
1/
1i
1"&
1"4
1":
10
1n
1E
1X
1!
#196
b11101111000000001000000010010011 ~
0n
0X
00
0E
0i
0/
0!
0q
0":
0"4
0h
0"&
b00000000000000000000000000111100 4
#201
1q
1h
1/
1i
1"&
1"4
1":
10
1n
1E
1X
1!
#206
0n
0X
00
0E
0i
0/
0!
0q
0":
0"4
b00000000000000000000000000010011 ~
0h
0"&
b00000000000000000000000001000000 4
#211
1q
1h
1/
1i
1"&
1"4
1":
10
1n
1E
1X
1!
#216
0"4
0n
0X
0h
0"&
00
0E
0i
0/
0!
0q
b00000000000000000000000001000100 4
0":
#221
1q
1h
1/
1i
1"&
1"4
1":
10
1n
1E
1X
1!
#226
b00000000000000000000000001001000 4
0"4
0n
0X
0h
0"&
00
0E
0i
0/
0!
0q
0":
#231
1q
1h
1/
1i
1"&
1"4
1":
10
1n
1E
1X
1!
#236
b00000000000000000000000001001100 4
0"4
0n
0X
0h
0"&
00
0E
0i
0/
0!
0q
0":
#241
1q
1h
1/
1i
1"&
1"4
1":
10
1n
1E
1X
1!
#246
0n
0X
00
0E
0i
0/
0!
0q
0":
0"4
b00000000000000000000000000110011 ~
0h
0"&
b00000000000000000000000001010000 4
#251
1q
1h
1/
1i
1"&
1"4
1":
10
1n
1E
1X
1!
#256
0n
0X
00
0E
0i
0/
0!
0q
0":
0"4
b00000000000000000000000000010011 ~
0h
b00000000000000000000000001010100 4
0"&
#261
1q
1h
1/
1i
1"&
1"4
1":
10
1n
1E
1X
1!
#266
0"4
0n
0X
b00000000000000000000000001011000 4
0h
0"&
00
0E
0i
0/
0!
0q
0":
#271
1q
1h
1/
1i
1"&
1"4
1":
10
1n
1E
1X
1!
#276
0"4
0n
0X
0h
0"&
00
0E
0i
0/
0!
b00000000000000000000000001011100 4
0q
0":
#281
1q
1h
1/
1i
1"&
1"4
1":
10
1n
1E
1X
1!
#286
0"4
0n
b00000000000000000000000001100000 4
0X
0h
0"&
00
0E
0i
0/
0!
0q
0":
#291
1q
1h
1/
1i
1"&
1"4
1":
10
1n
1E
1X
1!
#296
0n
0X
b00000010000000000000000010010011 ~
00
0E
0i
0/
0!
0q
0":
0"4
0h
0"&
b00000000000000000000000001100100 4
#301
1q
1h
1/
1i
1"&
1"4
1":
10
1n
1E
1X
1!
#306
0n
0X
b00000000000000000000000001101000 4
00
0E
0i
0/
0!
0q
0":
0"4
b00000000000000000000000000010011 ~
0h
0"&
#311
1q
1h
1/
1i
1"&
1"4
1":
10
1n
1E
1X
1!
#316
0"4
0n
0X
0h
0"&
00
0E
0i
0/
0!
b00000000000000000000000001101100 4
0q
0":
#321
1q
1h
1/
1i
1"&
1"4
1":
10
1n
1E
1X
1!
#326
0"4
0n
0X
b00000000000000000000000001110000 4
0h
0"&
00
0E
0i
0/
0!
0q
0":
#331
1q
1h
1/
1i
1"&
1"4
1":
10
1n
1E
1X
1!
#336
0"4
0n
0X
0h
0"&
00
0E
0i
0/
0!
b00000000000000000000000001110100 4
0q
0":
#341
1q
1h
1/
1i
1"&
1"4
1":
10
1n
1E
1X
1!
#346
0n
0X
00
0E
0i
0/
0!
0q
0":
0"4
0h
0"&
b00000000000000000000000001111000 4
b00000000000000000001000010110111 ~
#351
1q
1h
1/
1i
1"&
1"4
1":
10
1n
1E
1X
1!
#356
0n
0X
b00000000000000000000000001111100 4
00
0E
0i
0/
0!
0q
0":
0"4
b00000000000000000000000000010011 ~
0h
0"&
#361
1q
1h
1/
1i
1"&
1"4
1":
10
1n
1E
1X
1!
#366
0"4
0n
0X
0h
0"&
00
0E
0i
0/
0!
b00000000000000000000000010000000 4
0q
0":
#371
1q
1h
1/
1i
1"&
1"4
1":
10
1n
1E
1X
1!
#376
0"4
0n
0X
0h
0"&
00
0E
0i
0/
0!
b00000000000000000000000010000100 4
0q
0":
#381
1q
1h
1/
1i
1"&
1"4
1":
10
1n
1E
1X
1!
#386
0"4
b00000000000000000000000010001000 4
0n
0X
0h
0"&
00
0E
0i
0/
0!
0q
0":
#391
1q
1h
1/
1i
1"&
1"4
1":
10
1n
1E
1X
1!
#396
b00000000000000000000000010001100 4
0n
0X
00
0E
0i
0/
0!
0q
0":
b10000000000000001000000010010011 ~
0"4
0h
0"&
#401
1q
1h
1/
1i
1"&
1"4
1":
10
1n
1E
1X
1!
#406
0n
0X
00
0E
0i
0/
0!
0q
0":
0"4
b00000000000000000000000000010011 ~
b00000000000000000000000010010000 4
0h
0"&
#411
1q
1h
1/
1i
1"&
1"4
1":
10
1n
1E
1X
1!
#416
0"4
0n
0X
0h
0"&
00
0E
0i
0/
0!
b00000000000000000000000010010100 4
0q
0":
#421
1q
1h
1/
1i
1"&
1"4
1":
10
1n
1E
1X
1!
#426
0"4
0n
0X
0h
0"&
00
0E
0i
0/
0!
b00000000000000000000000010011000 4
0q
0":
#431
1q
1h
1/
1i
1"&
1"4
1":
10
1n
1E
1X
1!
#436
0"4
0n
0X
0h
0"&
00
0E
0i
0/
0!
b00000000000000000000000010011100 4
0q
0":
#441
1q
1h
1/
1i
1"&
1"4
1":
10
1n
1E
1X
1!
#446
0n
b00000000000000000000000010100000 4
0X
00
0E
0i
0/
0!
0q
0":
0"4
0h
0"&
b01111111111100000000000010010011 ~
#451
1q
1h
1/
1i
1"&
1"4
1":
10
1n
1E
1X
1!
#456
0n
0X
00
0E
0i
0/
0!
b00000000000000000000000010100100 4
0q
0":
0"4
b00000000000000000000000000010011 ~
0h
0"&
#461
1q
1h
1/
1i
1"&
1"4
1":
10
1n
1E
1X
1!
#466
0"4
0n
0X
0h
0"&
00
0E
0i
0/
0!
0q
0":
b00000000000000000000000010101000 4
#471
1q
1h
1/
1i
1"&
1"4
1":
10
1n
1E
1X
1!
#476
0"4
0n
0X
0h
0"&
00
0E
0i
0/
0!
b00000000000000000000000010101100 4
0q
0":
#481
1q
1h
1/
1i
1"&
1"4
1":
10
1n
1E
1X
1!
#486
0"4
0n
0X
b00000000000000000000000010110000 4
0h
0"&
00
0E
0i
0/
0!
0q
0":
#491
1q
1h
1/
1i
1"&
1"4
1":
10
1n
1E
1X
1!
#496
0n
0X
b00000000000000000000000010110100 4
00
0E
0i
0/
0!
0q
0":
0"4
b00000000000000000000000000110011 ~
0h
0"&
#501
1q
1h
1/
1i
1"&
1"4
1":
10
1n
1E
1X
1!
#506
0n
0X
00
0E
0i
0/
0!
0q
0":
b00000000000000000000000010111000 4
0"4
b00000000000000000000000000010011 ~
0h
0"&
#511
1q
1h
1/
1i
1"&
1"4
1":
10
1n
1E
1X
1!
#516
0"4
0n
b00000000000000000000000010111100 4
0X
0h
0"&
00
0E
0i
0/
0!
0q
0":
#521
1q
1h
1/
1i
1"&
1"4
1":
10
1n
1E
1X
1!
#526
0"4
0n
0X
0h
0"&
00
0E
0i
0/
0!
b00000000000000000000000011000000 4
0q
0":
#531
1q
1h
1/
1i
1"&
1"4
1":
10
1n
1E
1X
1!
#536
0"4
0n
0X
0h
0"&
00
0E
0i
0/
0!
b00000000000000000000000011000100 4
0q
0":
#541
1q
1h
1/
1i
1"&
1"4
1":
10
1n
1E
1X
1!
#546
0n
0X
00
0E
0i
0/
0!
0q
0":
0"4
b00000000000000000000000000110011 ~
b00000000000000000000000011001000 4
0h
0"&
#551
1q
1h
1/
1i
1"&
1"4
1":
10
1n
1E
1X
1!
#556
0n
b00000000000000000000000011001100 4
0X
00
0E
0i
0/
0!
0q
0":
0"4
b00000000000000000000000000010011 ~
0h
0"&
#561
1q
1h
1/
1i
1"&
1"4
1":
10
1n
1E
1X
1!
#566
b00000000000000000000000011010000 4
0"4
0n
0X
0h
0"&
00
0E
0i
0/
0!
0q
0":
#571
1q
1h
1/
1i
1"&
1"4
1":
10
1n
1E
1X
1!
#576
0"4
0n
b00000000000000000000000011010100 4
0X
0h
0"&
00
0E
0i
0/
0!
0q
0":
#581
1q
1h
1/
1i
1"&
1"4
1":
10
1n
1E
1X
1!
#586
0"4
0n
0X
b00000000000000000000000011011000 4
0h
0"&
00
0E
0i
0/
0!
0q
0":
#591
1q
1h
1/
1i
1"&
1"4
1":
10
1n
1E
1X
1!
#596
0"4
0n
0X
b00000000000000000000000011011100 4
0h
0"&
00
0E
0i
0/
0!
0q
0":
#601
1q
1h
1/
1i
1"&
1"4
1":
10
1n
1E
1X
1!
#606
0"4
0n
b00000000000000000000000011100000 4
0X
0h
0"&
00
0E
0i
0/
0!
0q
0":
#611
1q
1h
1/
1i
1"&
1"4
1":
10
1n
1E
1X
1!
#616
0"4
0n
b00000000000000000000000011100100 4
0X
0h
0"&
00
0E
0i
0/
0!
0q
0":
#621
1q
1h
1/
1i
1"&
1"4
1":
10
1n
1E
1X
1!
#626
0"4
0n
0X
0h
0"&
00
0E
0i
0/
0!
b00000000000000000000000011101000 4
0q
0":
#631
1q
1h
1/
1i
1"&
1"4
1":
10
1n
1E
1X
1!
#636
b00000000000000000000000011101100 4
0"4
0n
0X
0h
0"&
00
0E
0i
0/
0!
0q
0":
#641
1q
1h
1/
1i
1"&
1"4
1":
10
1n
1E
1X
1!
#646
b01110 M
0X
0E
0/
b01110 k
0q
1e
0"4
1b
12
1%
b01110 a
17
0n
b01110 L
b01110 w
1""
00
0!
0i
1#
0":
b01110 .
b00000000000000000000111111111100 4
b01110 y
1C
1"
b01110 j
1*
1<
0h
0"&
b01110 O
b00000000000000000000000000000000 ~
1@
b01110 N
b01110 m
#651
b01110 S
1"4
1"&
1":
10
1n
1E
1!
1(
1q
1h
1/
1i
1X
#656
b01010 N
b01010 O
b01010 w
0n
b01010 a
0X
b01010 .
b01010 M
00
0E
0i
0/
0!
0q
0":
0"4
b01010 y
0h
0"&
b01010 m
b01010 L
b01010 j
b01010 k
#661
1q
1h
1/
b01010 S
1i
1"&
1"4
1":
10
1n
1E
1X
1!
#666
0n
b10001 k
b10001 j
0X
b10001 L
00
0E
0i
0/
0!
b10001 O
0q
0":
b10001 w
b10001 m
0"4
0h
0"&
b10001 M
b10001 y
b10001 .
b10001 N
b10001 a
#671
b10001 S
1q
1h
1/
1i
1"&
1"4
1":
10
1n
1E
1X
1!
#676
0n
b00000 y
0X
b00000 k
00
0E
0i
0/
0!
b00000 L
b00000 w
b00000 N
0b
0q
0":
b00000 M
0"4
b00000 .
b00000 j
b00000 O
0h
b00000 a
0"&
0#
0e
b00000 m
#681
0(
b00000 S
1"&
1"4
1":
10
1n
1E
1!
1q
1h
1/
1i
1X
#686
0n
b00100 O
b00100 N
0X
b00100 j
00
0E
0i
0/
0!
b00100 k
b00100 .
0q
1#
0":
1e
0"4
b00100 w
0h
b00100 y
0"&
b00100 L
b00100 a
1b
b00100 m
b00100 M
#691
1"&
1"4
1":
10
1n
1E
1!
b00100 S
1(
1q
1h
1/
1i
1X
#696
b11000 w
0n
0X
00
0E
0i
0/
0!
b11000 M
b11000 k
b11000 y
b11000 N
b11000 L
0q
b11000 .
0":
0"4
b11000 O
b11000 m
b11000 a
b11000 j
0h
0"&
#701
1q
1h
b11000 S
1/
1i
1"&
1"4
1":
10
1n
1E
1X
1!
#706
b00110 .
b00110 O
0X
0E
0/
b00110 y
b00000000000000000000000000010111 "8
b00110 L
b00000000000000000000000000010111 `
0q
b00110 m
0"4
b00110 k
b00000000000000000000000000010111 "5
b00110 N
b00000000000000000000000000010111 ,
0n
b00110 j
00
0!
0i
b00000000000000000000000000010111 H
b00000000000000000000000000010111 "=
b00000000000000000000000000010111 K
0":
b00110 M
b00110 w
b00000000000000000000000000010111 _
0h
0"&
b00110 a
b00000000000000000000000000010111 "A
#711
b00000000000000000000000000010111 "$
1"&
1"4
1":
10
1n
1E
b00000000000000000000000000010111 1
b00000000000000000000000000010111 =
b00000000000000000000000000010111 +
1!
b00000000000000000000000000010111 ".
1q
1h
1/
1i
b00110 S
b00000000000000000000000000010111 P
1X
#716
b10100 a
b00000000000000000000000000000000 P
b00000000000000000000000000000000 K
b00000000000000000000000000000000 "8
0X
b00000000000000000000000000000000 "=
b10100 k
0E
0/
b00000000000000000000000000000000 =
b10100 N
b00000000000000000000000000000000 H
0q
b00000000000000000000000000000000 "5
0"4
b00000000000000000000000000000000 _
b10100 w
b00000000000000000000000000000000 ,
b00000000000000000000000000000000 ".
b10100 j
b00000000000000000000000000000000 +
b10100 y
0n
b10100 O
00
0!
0i
b10100 M
0":
b00000000000000000000000000000000 `
b10100 L
b00000000000000000000000000000000 "A
0h
0"&
b10100 m
b10100 .
b00000000000000000000000000000000 1
#721
1"&
1"4
1":
10
1n
1E
1!
b00000000000000000000000000000000 "$
1q
1h
1/
1i
b10100 S
1X
#726
0X
0E
0/
b00111 .
b00111 N
0q
b00111 k
b00000000000000000000000000101011 _
b00000000000000000000000000101011 `
b00000000000000000000000000101011 "A
0"4
b00000000000000000000000000101011 "8
b00000000000000000000000000101011 ,
b00111 L
b00000000000000000000000000101011 K
b00111 w
0n
b00111 M
00
0!
0i
b00111 O
b00111 m
b00000000000000000000000000101011 "5
0":
b00000000000000000000000000101011 H
b00111 j
0h
b00111 y
0"&
b00000000000000000000000000101011 "=
b00111 a
#731
b00111 S
b00000000000000000000000000101011 =
1"&
1"4
1":
10
1n
1E
b00000000000000000000000000101011 1
b00000000000000000000000000101011 P
b00000000000000000000000000101011 "$
1!
1q
1h
1/
b00000000000000000000000000101011 ".
1i
b00000000000000000000000000101011 +
1X
#736
b00001 k
b00001 w
b00001 j
b00000000000000000000000000000000 K
b00000000000000000000000000000000 "8
b00000000000000000000000000000000 P
0X
b00000000000000000000000000000000 "=
0E
0/
b00000000000000000000000000000000 =
b00000000000000000000000000000000 H
0q
b00001 L
b00000000000000000000000000000000 "5
0"4
b00000000000000000000000000000000 _
b00000000000000000000000000000000 ,
b00001 m
b00000000000000000000000000000000 ".
b00000000000000000000000000000000 +
0n
00
0!
0i
b00001 y
b00001 N
0":
b00000000000000000000000000000000 `
b00001 .
b00001 O
b00000000000000000000000000000000 "A
b00001 M
0h
0"&
b00001 a
b00000000000000000000000000000000 1
#741
1"&
1"4
1":
10
1n
1E
b00001 S
1!
b00000000000000000000000000000000 "$
1q
1h
1/
1i
1X
#746
b11011 w
0n
0X
b11011 k
00
0E
0i
0/
0!
b11011 a
b11011 j
0q
0":
0"4
b11011 m
0h
b11011 M
0"&
b11011 y
b11011 L
b11011 .
b11011 N
b11011 O
#751
1q
1h
1/
b11011 S
1i
1"&
1"4
1":
10
1n
1E
1X
1!
#756
0n
b01101 M
0X
00
0E
0i
0/
0!
b01101 j
b01101 O
0q
0":
b01101 y
b01101 .
0"4
b01101 N
b01101 k
b01101 m
0h
0"&
b01101 a
b01101 L
b01101 w
#761
1q
1h
b01101 S
1/
1i
1"&
1"4
1":
10
1n
1E
1X
1!
#766
b01011 O
b01011 y
0n
b01011 k
b01011 j
b01011 .
0X
00
0E
0i
0/
0!
b01011 m
b01011 w
b01011 M
0q
0":
b01011 a
b01011 N
0"4
0h
0"&
b01011 L
#771
1q
1h
1/
1i
1"&
1"4
1":
10
1n
b01011 S
1E
1X
1!
#776
b01100 k
0n
0X
b01100 j
b01100 m
b01100 w
00
0E
0i
0/
0!
b01100 N
0q
0":
b01100 M
0"4
b01100 .
b01100 a
b01100 L
0h
0"&
b01100 y
b01100 O
#781
1q
1h
1/
b01100 S
1i
1"&
1"4
1":
10
1n
1E
1X
1!
#786
b00011 j
0n
b00011 M
0X
00
0E
0i
0/
0!
b00011 L
0q
0":
b00011 w
b00011 y
0"4
b00011 N
0h
b00011 O
0"&
b00011 k
b00011 .
b00011 a
b00011 m
#791
1q
1h
1/
1i
1"&
1"4
1":
10
1n
1E
b00011 S
1X
1!
#796
b00000000000000000000000000001010 "A
b00101 j
b00000000000000000000000000001010 "=
b00000000000000000000000000001010 ,
0X
b00000000000000000000000000001010 K
b00101 k
0E
0/
b00000000000000000000000000001010 "8
b00000000000000000000000000001010 _
b00101 O
0q
b00101 N
b00000000000000000000000000001010 "5
0"4
b00101 w
b00101 y
b00000000000000000000000000001010 H
b00101 m
0n
b00101 a
00
0!
0i
b00101 .
0":
b00101 L
0h
0"&
b00101 M
b00000000000000000000000000001010 `
#801
b00000000000000000000000000001010 ".
1"&
1"4
1":
10
1n
1E
1!
b00101 S
b00000000000000000000000000001010 +
1q
1h
1/
1i
b00000000000000000000000000001010 "$
b00000000000000000000000000001010 =
b00000000000000000000000000001010 1
b00000000000000000000000000001010 P
1X
#806
b00000000000000000000000000000000 P
b00000000000000000000000000000000 K
b00000000000000000000000000000000 "8
0X
b00000000000000000000000000000000 "=
0E
0/
b00000000000000000000000000000000 =
b10011 j
b10011 k
b00000000000000000000000000000000 H
0q
b00000000000000000000000000000000 "5
0"4
b00000000000000000000000000000000 _
b10011 .
b00000000000000000000000000000000 ,
b10011 y
b00000000000000000000000000000000 ".
b00000000000000000000000000000000 +
0n
b10011 O
b10011 N
00
0!
0i
b10011 M
b10011 a
b10011 w
0":
b00000000000000000000000000000000 `
b00000000000000000000000000000000 "A
0h
0"&
b10011 m
b00000000000000000000000000000000 1
b10011 L
#811
1"&
1"4
1":
10
1n
1E
1!
b10011 S
b00000000000000000000000000000000 "$
1q
1h
1/
1i
1X
