waveforms/forward1.s.vcd
$date
2025-09-08T08:14+0000
$end
$version
0.2
$end
$comment

$end
$timescale 1ns  $end
$scope module Tile $end
 $var wire 1 * io_regsWriteEnable $end
 $var wire 32 + io_regsReadData $end
 $var wire 32 4 io_IMEMAddress $end
 $var wire 1 < io_regsDeviceWriteEnable $end
 $var wire 32 I io_DMEMAddress $end
 $var wire 32 Z io_DMEMWriteData $end
 $var wire 1 ] CPU $end
 $var wire 32 _ io_regsDeviceWriteData $end
 $var wire 5 a io_regsDeviceWriteAddress $end
 $var wire 1 i clock $end
 $var wire 32 l io_currentPC $end
 $var wire 5 m io_regsAddress $end
 $var wire 1 u io_DMEMWriteEnable $end
 $var wire 32 v io_memDeviceWriteAddress $end
 $var wire 32 ~ io_IMEMWriteData $end
 $var wire 32 "! io_memDeviceWriteData $end
 $var wire 32 ") io_DMEMReadData $end
 $var wire 1 ", reset $end
 $var wire 1 "2 io_setup $end
 $var wire 1 "7 io_memDeviceWriteEnable $end
 $var wire 32 "A io_regsWriteData $end
  $scope module CPU.MEM $end
  $upscope $end
  $scope module CPU.ID.registers $end
  $upscope $end
  $scope module CPU.IF $end
  $upscope $end
  $scope module CPU.IF.IMEM $end
  $upscope $end
  $scope module CPU.MEM.DMEM $end
  $upscope $end
  $scope module CPU $end
   $var wire 1 2 testHarness_regUpdates_writeEnable $end
   $var wire 1 > ID $end
   $var wire 1 D testHarness_memUpdates_writeEnable $end
   $var wire 32 K testHarness_regUpdates_writeData $end
   $var wire 5 L testHarness_regUpdates_writeAddress $end
   $var wire 5 M testHarness_setupSignals_registerSignals_readAddress $end
   $var wire 32 P testHarness_testReadouts_registerRead $end
   $var wire 32 T testHarness_currentPC $end
   $var wire 1 W IF $end
   $var wire 32 [ testHarness_memUpdates_writeAddress $end
   $var wire 1 ^ testHarness_setupSignals_DMEMsignals_setup $end
   $var wire 32 d testHarness_testReadouts_DMEMread $end
   $var wire 32 f testHarness_setupSignals_DMEMsignals_dataIn $end
   $var wire 1 g testHarness_setupSignals_IMEMsignals_setup $end
   $var wire 1 q clock $end
   $var wire 32 s testHarness_setupSignals_DMEMsignals_dataAddress $end
   $var wire 1 x testHarness_setupSignals_registerSignals_setup $end
   $var wire 1 { MEM $end
   $var wire 1 "" testHarness_setupSignals_registerSignals_writeEnable $end
   $var wire 32 "6 testHarness_memUpdates_writeData $end
   $var wire 32 "= testHarness_setupSignals_registerSignals_writeData $end
   $var wire 1 "@ reset $end
   $var wire 1 "B testHarness_setupSignals_DMEMsignals_writeEnable $end
    $scope module MEM $end
     $var wire 1 8 DMEM $end
     $var wire 32 ; testHarness_testUpdates_writeAddress $end
     $var wire 32 U testHarness_DMEMsetup_dataAddress $end
     $var wire 1 p testHarness_testUpdates_writeEnable $end
     $var wire 1 z testHarness_DMEMsetup_writeEnable $end
     $var wire 32 } testHarness_DMEMpeek $end
     $var wire 1 "* testHarness_DMEMsetup_setup $end
     $var wire 32 "0 testHarness_testUpdates_writeData $end
     $var wire 1 "4 clock $end
     $var wire 32 "> testHarness_DMEMsetup_dataIn $end
      $scope module DMEM $end
       $var wire 32 & testHarness_testUpdates_writeData $end
       $var wire 1 ) _GEN_6 $end
       $var wire 12 - data__T_24_addr_pipe_0 $end
       $var wire 1 6 testHarness_testUpdates_writeEnable $end
       $var wire 32 : testHarness_setup_dataAddress $end
       $var wire 32 ? testHarness_testUpdates_writeAddress $end
       $var wire 32 F addressSource $end
       $var wire 32 J data $end
       $var wire 1 r testHarness_setup_writeEnable $end
       $var wire 1 t testHarness_setup_setup $end
       $var wire 1 "& clock $end
       $var wire 32 "+ testHarness_setup_dataIn $end
       $var wire 32 "9 io_dataOut $end
        $scope module data $end
          $scope module _T_26 $end
           $var wire 1 ! clk $end
           $var wire 12 B addr $end
           $var wire 32 G pipeline_data_0 $end
           $var wire 1 \ pipeline_valid_0 $end
           $var wire 32 c data $end
           $var wire 1 "# en $end
           $var wire 12 "' pipeline_addr_0 $end
           $var wire 1 "- valid $end
           $var wire 1 "< mask $end
          $upscope $end
          $scope module _T_24 $end
           $var wire 32 5 data $end
           $var wire 1 h clk $end
           $var wire 1 "% en $end
           $var wire 12 "( addr $end
          $upscope $end
        $upscope $end
      $upscope $end
    $upscope $end
    $scope module ID $end
     $var wire 1 " testHarness_registerSetup_writeEnable $end
     $var wire 32 = testHarness_registerPeek $end
     $var wire 1 C testHarness_testUpdates_writeEnable $end
     $var wire 32 H testHarness_registerSetup_writeData $end
     $var wire 5 N testHarness_testUpdates_writeAddress $end
     $var wire 5 k testHarness_registerSetup_readAddress $end
     $var wire 1 o registers $end
     $var wire 1 "3 testHarness_registerSetup_setup $end
     $var wire 32 "5 testHarness_testUpdates_writeData $end
     $var wire 1 ": clock $end
      $scope module registers $end
       $var wire 1 % testHarness_testUpdates_writeEnable $end
       $var wire 1 ' testHarness_setup_setup $end
       $var wire 32 , testHarness_testUpdates_writeData $end
       $var wire 5 . readAddress1 $end
       $var wire 1 0 clock $end
       $var wire 32 1 io_readData1 $end
       $var wire 32 3 registerFile $end
       $var wire 1 7 testHarness_setup_writeEnable $end
       $var wire 1 @ writeEnable $end
       $var wire 5 O testHarness_testUpdates_writeAddress $end
       $var wire 32 ` testHarness_setup_writeData $end
       $var wire 5 y testHarness_setup_readAddress $end
        $scope module registerFile $end
          $scope module _T_33 $end
           $var wire 1 # en $end
           $var wire 1 ( pipeline_valid_0 $end
           $var wire 1 / clk $end
           $var wire 5 S pipeline_addr_0 $end
           $var wire 1 V mask $end
           $var wire 1 e valid $end
           $var wire 5 w addr $end
           $var wire 32 "$ pipeline_data_0 $end
           $var wire 32 "8 data $end
          $upscope $end
          $scope module _T_41 $end
           $var wire 32 A data $end
           $var wire 1 R en $end
           $var wire 1 n clk $end
           $var wire 5 "1 addr $end
          $upscope $end
          $scope module _T_38 $end
           $var wire 1 E clk $end
           $var wire 1 b en $end
           $var wire 5 j addr $end
           $var wire 32 ". data $end
          $upscope $end
        $upscope $end
      $upscope $end
    $upscope $end
    $scope module IF $end
     $var wire 1 $ testHarness_IMEMsetup_setup $end
     $var wire 1 9 IMEM $end
     $var wire 32 Q PC $end
     $var wire 1 X clock $end
     $var wire 32 Y testHarness_PC $end
     $var wire 1 | reset $end
     $var wire 32 "? _GEN_0 $end
      $scope module IMEM $end
       $var wire 32 "/ testHarness_requestedAddress $end
       $var wire 32 "; io_instructionAddress $end
      $upscope $end
    $upscope $end
  $upscope $end
  $scope module CPU.ID $end
  $upscope $end
$upscope $end
$enddefinitions $end
$dumpvars
0X
b00000000000000000000000000000000 Y
0C
0""
0"7
1"<
0o
b00000000000000000000000000000000 ">
0R
b00000000000000000000000000000000 "8
b00000000000000000000000000000000 l
b00000000000000000000000000000000 :
b00000000000000000000000000000000 Q
b00000000000000000000000000000000 }
0g
b00000000000000000000000000000000 `
b00000000000000000000000000000000 ".
b00000000000000000000000000000000 K
b000000000000 "(
0"@
0D
0/
0"#
0x
0":
b00000 S
0z
0r
0]
b00000000000000000000000000000000 s
1)
b00000 j
0@
b00000000000000000000000000000000 A
0W
b00000 O
0%
b00000000000000000000000000000000 ;
b000000000000 -
b00000000000000000000000000000000 "=
b00000000000000000000000000000000 Z
0p
b00000000000000000000000000000000 T
0>
0"2
b00000000000000000000000000000000 ?
06
0!
b00000 .
b00000000000000000000000000000000 "9
0"4
b00000 y
b00000000000000000000000000000000 P
b00000000000000000000000000000000 3
0{
b00000000000000000000000000000000 "5
b00000000000000000000000000000000 J
b000000000000 "'
b00000000000000000000000000000000 "/
0"*
0b
0E
00
0(
b00000000000000000000000000000000 "+
b00000000000000000000000000000000 _
1V
0u
b00000000000000000000000000000000 [
b00000000000000000000000000000000 "6
b00000000000000000000000000000000 "!
0q
0i
b00000000000000000000000000000000 U
0"3
b00000 a
07
b00000 L
0"
09
0"-
0e
b00000000000000000000000000000000 f
b00000 "1
b00000000000000000000000000000000 I
b00000000000000000000000000000000 4
0|
b00000000000000000000000000000000 "0
b00000000000000000000000000000000 d
0"B
b00000000000000000000000000000000 G
b00000000000000000000000000000000 "A
b00000000000000000000000000000000 "$
b00000000000000000000000000000000 ,
b00000 M
0t
b00000000000000000000000000000000 ";
b00000000000000000000000000000000 &
0n
0<
b00000000000000000000000000000000 =
0'
b00000000000000000000000000000000 "?
b00000 w
08
0",
0#
02
b000000000000 B
b00000000000000000000000000000000 5
b00000000000000000000000000000000 ~
0h
b00000 m
b00000000000000000000000000000000 c
b00000000000000000000000000000000 ")
b00000000000000000000000000000000 F
b00000000000000000000000000000000 1
0\
b00000000000000000000000000000000 H
0"&
b00000000000000000000000000000000 +
0*
0^
b00000 k
b00000 N
0$
1"%
b00000000000000000000000000000000 v
$end
#0
1"@
1|
1",
#1
1q
1":
1"&
1!
10
1n
1E
1"4
1/
1i
1X
1h
#6
0X
0!
0i
0q
0"4
0E
0n
0h
00
0":
0/
0"&
#11
1q
1":
1"&
1!
10
1n
1E
1"4
1/
1i
1X
1h
#16
0X
0!
0i
0q
0"4
0E
0n
0h
00
0":
0/
0"&
#21
1q
1":
1"&
1!
10
1n
1E
1"4
1/
1i
1X
1h
#26
0X
0!
0i
0q
0"4
0E
0n
0h
00
0":
0/
0"&
#31
1q
1":
1"&
1!
10
1n
1E
1"4
1/
1i
1X
1h
#36
0X
0!
0i
0q
0"4
0E
0n
0h
00
0":
0/
0"&
#41
1q
1":
1"&
1!
10
1n
1E
1"4
1/
1i
1X
1h
#46
0X
1'
0"4
0E
0"@
00
0":
0/
0"&
0q
0!
0i
1"2
1x
1t
b00011010111000001011000110010011 ~
0",
1^
1$
1"3
0n
0h
1"*
1g
0|
#51
1q
1":
1"&
1!
10
1n
1E
1"4
1/
1i
1X
1h
#56
0X
0"4
0E
b00000000000000000000000000000100 4
00
0":
0/
0"&
0q
0!
0i
b00000000000000000000000000010011 ~
0n
0h
#61
1q
1":
1"&
1!
10
1n
1E
1"4
1/
1i
1X
1h
#66
0X
0!
0i
0q
0"4
0E
b00000000000000000000000000001000 4
0n
0h
00
0":
0/
0"&
#71
1q
1":
1"&
1!
10
1n
1E
1"4
1/
1i
1X
1h
#76
0X
0!
0i
0q
0"4
0E
0n
0h
00
0":
0/
0"&
b00000000000000000000000000001100 4
#81
1q
1":
1"&
1!
10
1n
1E
1"4
1/
1i
1X
1h
#86
0X
0!
0i
0q
0"4
0E
0n
0h
00
0":
b00000000000000000000000000010000 4
0/
0"&
#91
1q
1":
1"&
1!
10
1n
1E
1"4
1/
1i
1X
1h
#96
0X
0"4
0E
00
0":
0/
0"&
0q
0!
0i
b00000000010100010101000100010011 ~
b00000000000000000000000000010100 4
0n
0h
#101
1q
1":
1"&
1!
10
1n
1E
1"4
1/
1i
1X
1h
#106
0X
b00000000000000000000000000011000 4
0"4
0E
00
0":
0/
0"&
0q
0!
0i
b00000000000000000000000000010011 ~
0n
0h
#111
1q
1":
1"&
1!
10
1n
1E
1"4
1/
1i
1X
1h
#116
0X
0!
0i
0q
b00000000000000000000000000011100 4
0"4
0E
0n
0h
00
0":
0/
0"&
#121
1q
1":
1"&
1!
10
1n
1E
1"4
1/
1i
1X
1h
#126
0X
0!
0i
0q
b00000000000000000000000000100000 4
0"4
0E
0n
0h
00
0":
0/
0"&
#131
1q
1":
1"&
1!
10
1n
1E
1"4
1/
1i
1X
1h
#136
0X
0!
0i
0q
0"4
0E
b00000000000000000000000000100100 4
0n
0h
00
0":
0/
0"&
#141
1q
1":
1"&
1!
10
1n
1E
1"4
1/
1i
1X
1h
#146
0X
0"4
0E
b00010111011100010000000010010011 ~
00
0":
0/
0"&
0q
0!
0i
b00000000000000000000000000101000 4
0n
0h
#151
1q
1":
1"&
1!
10
1n
1E
1"4
1/
1i
1X
1h
#156
0X
0"4
0E
00
0":
0/
0"&
0q
0!
0i
b00000000000000000000000000010011 ~
b00000000000000000000000000101100 4
0n
0h
#161
1q
1":
1"&
1!
10
1n
1E
1"4
1/
1i
1X
1h
#166
0X
0!
0i
0q
0"4
0E
0n
0h
00
0":
0/
0"&
b00000000000000000000000000110000 4
#171
1q
1":
1"&
1!
10
1n
1E
1"4
1/
1i
1X
1h
#176
0X
0!
0i
0q
0"4
0E
0n
0h
00
0":
0/
0"&
b00000000000000000000000000110100 4
#181
1q
1":
1"&
1!
10
1n
1E
1"4
1/
1i
1X
1h
#186
0X
0!
0i
0q
b00000000000000000000000000111000 4
0"4
0E
0n
0h
00
0":
0/
0"&
#191
1q
1":
1"&
1!
10
1n
1E
1"4
1/
1i
1X
1h
#196
0X
0"4
0E
b01000000001100001101000100010011 ~
00
0":
0/
0"&
0q
0!
0i
b00000000000000000000000000111100 4
0n
0h
#201
1q
1":
1"&
1!
10
1n
1E
1"4
1/
1i
1X
1h
#206
0X
0"4
0E
00
0":
0/
0"&
0q
0!
0i
b00000000000000000000000001000000 4
b00000000000000000000000000010011 ~
0n
0h
#211
1q
1":
1"&
1!
10
1n
1E
1"4
1/
1i
1X
1h
#216
0X
0!
0i
0q
0"4
0E
b00000000000000000000000001000100 4
0n
0h
00
0":
0/
0"&
#221
1q
1":
1"&
1!
10
1n
1E
1"4
1/
1i
1X
1h
#226
0X
0!
0i
0q
0"4
0E
0n
0h
00
0":
b00000000000000000000000001001000 4
0/
0"&
#231
1q
1":
1"&
1!
10
1n
1E
1"4
1/
1i
1X
1h
#236
0X
0!
0i
0q
0"4
0E
b00000000000000000000000001001100 4
0n
0h
00
0":
0/
0"&
#241
1q
1":
1"&
1!
10
1n
1E
1"4
1/
1i
1X
1h
#246
0X
0"4
0E
00
0":
0/
0"&
b00000000000000000000000001010000 4
0q
0!
0i
b01000000001000001000000100110011 ~
0n
0h
#251
1q
1":
1"&
1!
10
1n
1E
1"4
1/
1i
1X
1h
#256
0X
0"4
0E
00
0":
0/
0"&
b00000000000000000000000001010100 4
0q
0!
0i
b00000000000000000000000000010011 ~
0n
0h
#261
1q
1":
1"&
1!
10
1n
1E
1"4
1/
1i
1X
1h
#266
0X
0!
0i
0q
0"4
0E
0n
0h
00
0":
0/
0"&
b00000000000000000000000001011000 4
#271
1q
1":
1"&
1!
10
1n
1E
1"4
1/
1i
1X
1h
#276
0X
0!
0i
0q
0"4
0E
b00000000000000000000000001011100 4
0n
0h
00
0":
0/
0"&
#281
1q
1":
1"&
1!
10
1n
1E
1"4
1/
1i
1X
1h
#286
0X
0!
0i
0q
0"4
0E
b00000000000000000000000001100000 4
0n
0h
00
0":
0/
0"&
#291
1q
1":
1"&
1!
10
1n
1E
1"4
1/
1i
1X
1h
#296
0X
0"4
0E
b00000000101100001001000100010011 ~
00
0":
0/
0"&
0q
0!
0i
0n
0h
b00000000000000000000000001100100 4
#301
1q
1":
1"&
1!
10
1n
1E
1"4
1/
1i
1X
1h
#306
0X
0"4
0E
00
0":
0/
0"&
0q
0!
0i
b00000000000000000000000001101000 4
b00000000000000000000000000010011 ~
0n
0h
#311
1q
1":
1"&
1!
10
1n
1E
1"4
1/
1i
1X
1h
#316
0X
0!
0i
0q
0"4
0E
0n
0h
00
0":
b00000000000000000000000001101100 4
0/
0"&
#321
1q
1":
1"&
1!
10
1n
1E
1"4
1/
1i
1X
1h
#326
0X
0!
0i
0q
0"4
0E
0n
0h
00
0":
b00000000000000000000000001110000 4
0/
0"&
#331
1q
1":
1"&
1!
10
1n
1E
1"4
1/
1i
1X
1h
#336
0X
0!
0i
0q
0"4
0E
b00000000000000000000000001110100 4
0n
0h
00
0":
0/
0"&
#341
1q
1":
1"&
1!
10
1n
1E
1"4
1/
1i
1X
1h
#346
0X
0"4
0E
00
0":
0/
0"&
0q
0!
0i
b00000000000000000000000001111000 4
0n
0h
b00000000000100011000000100110011 ~
#351
1q
1":
1"&
1!
10
1n
1E
1"4
1/
1i
1X
1h
#356
0X
0"4
0E
00
0":
0/
0"&
0q
0!
0i
b00000000000000000000000001111100 4
b00000000000000000000000000010011 ~
0n
0h
#361
1q
1":
1"&
1!
10
1n
1E
1"4
1/
1i
1X
1h
#366
0X
0!
0i
0q
0"4
0E
b00000000000000000000000010000000 4
0n
0h
00
0":
0/
0"&
#371
1q
1":
1"&
1!
10
1n
1E
1"4
1/
1i
1X
1h
#376
0X
0!
0i
0q
0"4
0E
b00000000000000000000000010000100 4
0n
0h
00
0":
0/
0"&
#381
1q
1":
1"&
1!
10
1n
1E
1"4
1/
1i
1X
1h
#386
0X
0!
0i
0q
0"4
0E
0n
0h
00
0":
0/
0"&
b00000000000000000000000010001000 4
#391
1q
1":
1"&
1!
10
1n
1E
1"4
1/
1i
1X
1h
#396
0X
b00000000011000010001000110010011 ~
0"4
0E
b00000000000000000000000010001100 4
00
0":
0/
0"&
0q
0!
0i
0n
0h
#401
1q
1":
1"&
1!
10
1n
1E
1"4
1/
1i
1X
1h
#406
0X
0"4
0E
b00000000000000000000000010010000 4
00
0":
0/
0"&
0q
0!
0i
b00000000000000000000000000010011 ~
0n
0h
#411
1q
1":
1"&
1!
10
1n
1E
1"4
1/
1i
1X
1h
#416
0X
0!
0i
0q
b00000000000000000000000010010100 4
0"4
0E
0n
0h
00
0":
0/
0"&
#421
1q
1":
1"&
1!
10
1n
1E
1"4
1/
1i
1X
1h
#426
0X
0!
0i
0q
0"4
0E
b00000000000000000000000010011000 4
0n
0h
00
0":
0/
0"&
#431
1q
1":
1"&
1!
10
1n
1E
1"4
1/
1i
1X
1h
#436
0X
0!
0i
0q
0"4
0E
b00000000000000000000000010011100 4
0n
0h
00
0":
0/
0"&
#441
1q
1":
1"&
1!
10
1n
1E
1"4
1/
1i
1X
1h
#446
0X
0"4
0E
00
0":
0/
0"&
0q
0!
0i
0n
0h
b11110110010000001110000100010011 ~
b00000000000000000000000010100000 4
#451
1q
1":
1"&
1!
10
1n
1E
1"4
1/
1i
1X
1h
#456
0X
0"4
0E
00
0":
0/
0"&
0q
0!
0i
b00000000000000000000000000010011 ~
0n
0h
b00000000000000000000000010100100 4
#461
1q
1":
1"&
1!
10
1n
1E
1"4
1/
1i
1X
1h
#466
0X
0!
0i
0q
0"4
0E
b00000000000000000000000010101000 4
0n
0h
00
0":
0/
0"&
#471
1q
1":
1"&
1!
10
1n
1E
1"4
1/
1i
1X
1h
#476
0X
0!
0i
0q
0"4
0E
b00000000000000000000000010101100 4
0n
0h
00
0":
0/
0"&
#481
1q
1":
1"&
1!
10
1n
1E
1"4
1/
1i
1X
1h
#486
0X
0!
0i
0q
0"4
0E
b00000000000000000000000010110000 4
0n
0h
00
0":
0/
0"&
#491
1q
1":
1"&
1!
10
1n
1E
1"4
1/
1i
1X
1h
#496
0X
0"4
0E
b00000000001100011111000110110011 ~
00
0":
0/
0"&
0q
0!
0i
0n
0h
b00000000000000000000000010110100 4
#501
1q
1":
1"&
1!
10
1n
1E
1"4
1/
1i
1X
1h
#506
0X
0"4
0E
00
0":
0/
0"&
0q
0!
0i
b00000000000000000000000000010011 ~
0n
0h
b00000000000000000000000010111000 4
#511
1q
1":
1"&
1!
10
1n
1E
1"4
1/
1i
1X
1h
#516
0X
0!
0i
0q
0"4
0E
b00000000000000000000000010111100 4
0n
0h
00
0":
0/
0"&
#521
1q
1":
1"&
1!
10
1n
1E
1"4
1/
1i
1X
1h
#526
0X
0!
0i
0q
0"4
0E
b00000000000000000000000011000000 4
0n
0h
00
0":
0/
0"&
#531
1q
1":
1"&
1!
10
1n
1E
1"4
1/
1i
1X
1h
#536
0X
0!
0i
0q
0"4
0E
0n
0h
00
0":
b00000000000000000000000011000100 4
0/
0"&
#541
1q
1":
1"&
1!
10
1n
1E
1"4
1/
1i
1X
1h
#546
0X
0"4
0E
00
0":
0/
0"&
0q
0!
0i
b00001000010000011111000110010011 ~
0n
0h
b00000000000000000000000011001000 4
#551
1q
1":
1"&
1!
10
1n
1E
1"4
1/
1i
1X
1h
#556
0X
0"4
0E
00
0":
0/
0"&
0q
0!
0i
b00000000000000000000000000010011 ~
b00000000000000000000000011001100 4
0n
0h
#561
1q
1":
1"&
1!
10
1n
1E
1"4
1/
1i
1X
1h
#566
0X
0!
0i
0q
0"4
0E
b00000000000000000000000011010000 4
0n
0h
00
0":
0/
0"&
#571
1q
1":
1"&
1!
10
1n
1E
1"4
1/
1i
1X
1h
#576
0X
0!
0i
0q
0"4
0E
0n
0h
00
0":
b00000000000000000000000011010100 4
0/
0"&
#581
1q
1":
1"&
1!
10
1n
1E
1"4
1/
1i
1X
1h
#586
0X
0!
0i
0q
0"4
0E
0n
0h
00
0":
b00000000000000000000000011011000 4
0/
0"&
#591
1q
1":
1"&
1!
10
1n
1E
1"4
1/
1i
1X
1h
#596
0X
0"4
0E
00
0":
b11101011010000001100000010010011 ~
0/
0"&
0q
0!
0i
0n
0h
b00000000000000000000000011011100 4
#601
1q
1":
1"&
1!
10
1n
1E
1"4
1/
1i
1X
1h
#606
0X
0"4
0E
b00000000000000000000000011100000 4
00
0":
0/
0"&
0q
0!
0i
b00000000000000000000000000010011 ~
0n
0h
#611
1q
1":
1"&
1!
10
1n
1E
1"4
1/
1i
1X
1h
#616
0X
0!
0i
0q
b00000000000000000000000011100100 4
0"4
0E
0n
0h
00
0":
0/
0"&
#621
1q
1":
1"&
1!
10
1n
1E
1"4
1/
1i
1X
1h
#626
0X
0!
0i
0q
0"4
0E
b00000000000000000000000011101000 4
0n
0h
00
0":
0/
0"&
#631
1q
1":
1"&
1!
10
1n
1E
1"4
1/
1i
1X
1h
#636
0X
0!
0i
0q
0"4
0E
0n
0h
00
0":
b00000000000000000000000011101100 4
0/
0"&
#641
1q
1":
1"&
1!
10
1n
1E
1"4
1/
1i
1X
1h
#646
0X
0"4
0E
b00000000000000000000000011110000 4
00
0":
0/
0"&
0q
0!
0i
b00000000000100001110000100110011 ~
0n
0h
#651
1q
1":
1"&
1!
10
1n
1E
1"4
1/
1i
1X
1h
#656
0X
0"4
0E
00
0":
0/
0"&
0q
0!
0i
b00000000000000000000000011110100 4
b00000000000000000000000000010011 ~
0n
0h
#661
1q
1":
1"&
1!
10
1n
1E
1"4
1/
1i
1X
1h
#666
0X
0!
0i
0q
0"4
0E
b00000000000000000000000011111000 4
0n
0h
00
0":
0/
0"&
#671
1q
1":
1"&
1!
10
1n
1E
1"4
1/
1i
1X
1h
#676
0X
0!
0i
0q
0"4
0E
b00000000000000000000000011111100 4
0n
0h
00
0":
0/
0"&
#681
1q
1":
1"&
1!
10
1n
1E
1"4
1/
1i
1X
1h
#686
0X
0!
0i
0q
0"4
0E
b00000000000000000000000100000000 4
0n
0h
00
0":
0/
0"&
#691
1q
1":
1"&
1!
10
1n
1E
1"4
1/
1i
1X
1h
#696
0X
0"4
0E
00
0":
0/
0"&
0q
0!
0i
b00000000000000000000000100000100 4
b00000111100000001000000100010011 ~
0n
0h
#701
1q
1":
1"&
1!
10
1n
1E
1"4
1/
1i
1X
1h
#706
0X
0"4
0E
b00000000000000000000000100001000 4
00
0":
0/
0"&
0q
0!
0i
b00000000000000000000000000010011 ~
0n
0h
#711
1q
1":
1"&
1!
10
1n
1E
1"4
1/
1i
1X
1h
#716
0X
0!
0i
0q
0"4
0E
0n
0h
00
0":
0/
0"&
b00000000000000000000000100001100 4
#721
1q
1":
1"&
1!
10
1n
1E
1"4
1/
1i
1X
1h
#726
0X
0!
0i
0q
0"4
0E
b00000000000000000000000100010000 4
0n
0h
00
0":
0/
0"&
#731
1q
1":
1"&
1!
10
1n
1E
1"4
1/
1i
1X
1h
#736
0X
0!
0i
0q
0"4
0E
b00000000000000000000000100010100 4
0n
0h
00
0":
0/
0"&
#741
1q
1":
1"&
1!
10
1n
1E
1"4
1/
1i
1X
1h
#746
0X
0"4
0E
00
0":
b00000000000000000000000100011000 4
0/
0"&
0q
0!
0i
b11110001111000010011000100010011 ~
0n
0h
#751
1q
1":
1"&
1!
10
1n
1E
1"4
1/
1i
1X
1h
#756
0X
0"4
0E
00
0":
0/
0"&
0q
0!
0i
b00000000000000000000000100011100 4
b00000000000000000000000000010011 ~
0n
0h
#761
1q
1":
1"&
1!
10
1n
1E
1"4
1/
1i
1X
1h
#766
0X
0!
0i
0q
b00000000000000000000000100100000 4
0"4
0E
0n
0h
00
0":
0/
0"&
#771
1q
1":
1"&
1!
10
1n
1E
1"4
1/
1i
1X
1h
#776
0X
0!
0i
0q
0"4
0E
b00000000000000000000000100100100 4
0n
0h
00
0":
0/
0"&
#781
1q
1":
1"&
1!
10
1n
1E
1"4
1/
1i
1X
1h
#786
0X
0!
0i
0q
0"4
0E
b00000000000000000000000100101000 4
0n
0h
00
0":
0/
0"&
#791
1q
1":
1"&
1!
10
1n
1E
1"4
1/
1i
1X
1h
#796
0X
0"4
0E
b00000000000000000000000100101100 4
00
0":
b00000000000000010101000110010011 ~
0/
0"&
0q
0!
0i
0n
0h
#801
1q
1":
1"&
1!
10
1n
1E
1"4
1/
1i
1X
1h
#806
0X
0"4
0E
00
0":
0/
0"&
0q
0!
0i
b00000000000000000000000100110000 4
b00000000000000000000000000010011 ~
0n
0h
#811
1q
1":
1"&
1!
10
1n
1E
1"4
1/
1i
1X
1h
#816
0X
0!
0i
0q
0"4
0E
b00000000000000000000000100110100 4
0n
0h
00
0":
0/
0"&
#821
1q
1":
1"&
1!
10
1n
1E
1"4
1/
1i
1X
1h
#826
0X
0!
0i
0q
0"4
0E
b00000000000000000000000100111000 4
0n
0h
00
0":
0/
0"&
#831
1q
1":
1"&
1!
10
1n
1E
1"4
1/
1i
1X
1h
#836
0X
0!
0i
0q
0"4
0E
b00000000000000000000000100111100 4
0n
0h
00
0":
0/
0"&
#841
1q
1":
1"&
1!
10
1n
1E
1"4
1/
1i
1X
1h
#846
0X
0"4
0E
00
0":
0/
0"&
b11101111011100001010000100010011 ~
0q
0!
0i
b00000000000000000000000101000000 4
0n
0h
#851
1q
1":
1"&
1!
10
1n
1E
1"4
1/
1i
1X
1h
#856
0X
0"4
0E
00
0":
0/
0"&
0q
0!
0i
b00000000000000000000000101000100 4
b00000000000000000000000000010011 ~
0n
0h
#861
1q
1":
1"&
1!
10
1n
1E
1"4
1/
1i
1X
1h
#866
0X
0!
0i
0q
0"4
0E
b00000000000000000000000101001000 4
0n
0h
00
0":
0/
0"&
#871
1q
1":
1"&
1!
10
1n
1E
1"4
1/
1i
1X
1h
#876
0X
0!
0i
0q
0"4
0E
0n
0h
00
0":
b00000000000000000000000101001100 4
0/
0"&
#881
1q
1":
1"&
1!
10
1n
1E
1"4
1/
1i
1X
1h
#886
0X
0!
0i
0q
b00000000000000000000000101010000 4
0"4
0E
0n
0h
00
0":
0/
0"&
#891
1q
1":
1"&
1!
10
1n
1E
1"4
1/
1i
1X
1h
#896
0X
0"4
0E
b01000000000100001101000010010011 ~
00
0":
0/
0"&
0q
0!
0i
0n
0h
b00000000000000000000000101010100 4
#901
1q
1":
1"&
1!
10
1n
1E
1"4
1/
1i
1X
1h
#906
0X
0"4
0E
b00000000000000000000000101011000 4
00
0":
0/
0"&
0q
0!
0i
b00000000000000000000000000010011 ~
0n
0h
#911
1q
1":
1"&
1!
10
1n
1E
1"4
1/
1i
1X
1h
#916
0X
0!
0i
0q
b00000000000000000000000101011100 4
0"4
0E
0n
0h
00
0":
0/
0"&
#921
1q
1":
1"&
1!
10
1n
1E
1"4
1/
1i
1X
1h
#926
0X
0!
0i
0q
0"4
0E
b00000000000000000000000101100000 4
0n
0h
00
0":
0/
0"&
#931
1q
1":
1"&
1!
10
1n
1E
1"4
1/
1i
1X
1h
#936
0X
0!
0i
0q
0"4
0E
b00000000000000000000000101100100 4
0n
0h
00
0":
0/
0"&
#941
1q
1":
1"&
1!
10
1n
1E
1"4
1/
1i
1X
1h
#946
0X
0"4
0E
b00000000001100001110000100110011 ~
00
0":
0/
0"&
0q
0!
0i
0n
0h
b00000000000000000000000101101000 4
#951
1q
1":
1"&
1!
10
1n
1E
1"4
1/
1i
1X
1h
#956
0X
0"4
0E
00
0":
b00000000000000000000000101101100 4
0/
0"&
0q
0!
0i
b00000000000000000000000000010011 ~
0n
0h
#961
1q
1":
1"&
1!
10
1n
1E
1"4
1/
1i
1X
1h
#966
0X
0!
0i
0q
0"4
0E
b00000000000000000000000101110000 4
0n
0h
00
0":
0/
0"&
#971
1q
1":
1"&
1!
10
1n
1E
1"4
1/
1i
1X
1h
#976
0X
0!
0i
0q
0"4
0E
b00000000000000000000000101110100 4
0n
0h
00
0":
0/
0"&
#981
1q
1":
1"&
1!
10
1n
1E
1"4
1/
1i
1X
1h
#986
0X
0!
0i
0q
0"4
0E
b00000000000000000000000101111000 4
0n
0h
00
0":
0/
0"&
#991
1q
1":
1"&
1!
10
1n
1E
1"4
1/
1i
1X
1h
#996
0X
0"4
0E
b00000000000100010100000100110011 ~
b00000000000000000000000101111100 4
00
0":
0/
0"&
0q
0!
0i
0n
0h
#1001
1q
1":
1"&
1!
10
1n
1E
1"4
1/
1i
1X
1h
#1006
0X
0"4
0E
00
0":
0/
0"&
b00000000000000000000000110000000 4
0q
0!
0i
b00000000000000000000000000010011 ~
0n
0h
#1011
1q
1":
1"&
1!
10
1n
1E
1"4
1/
1i
1X
1h
#1016
0X
0!
0i
0q
0"4
0E
0n
0h
00
0":
0/
0"&
b00000000000000000000000110000100 4
#1021
1q
1":
1"&
1!
10
1n
1E
1"4
1/
1i
1X
1h
#1026
0X
0!
0i
0q
0"4
0E
0n
0h
00
0":
0/
0"&
b00000000000000000000000110001000 4
#1031
1q
1":
1"&
1!
10
1n
1E
1"4
1/
1i
1X
1h
#1036
0X
0!
0i
0q
b00000000000000000000000110001100 4
0"4
0E
0n
0h
00
0":
0/
0"&
#1041
1q
1":
1"&
1!
10
1n
1E
1"4
1/
1i
1X
1h
