waveforms/load.s.vcd
$date
2025-09-09T10:38+0000
$end
$version
0.2
$end
$comment

$end
$timescale 1ns  $end
$scope module Tile $end
 $var wire 1 2 io_regsWriteEnable $end
 $var wire 32 3 io_regsReadData $end
 $var wire 32 A io_IMEMAddress $end
 $var wire 1 O io_regsDeviceWriteEnable $end
 $var wire 32 k io_DMEMAddress $end
 $var wire 32 "8 io_DMEMWriteData $end
 $var wire 1 "< CPU $end
 $var wire 32 "D io_regsDeviceWriteData $end
 $var wire 5 "I io_regsDeviceWriteAddress $end
 $var wire 1 "V clock $end
 $var wire 32 "^ io_currentPC $end
 $var wire 5 "c io_regsAddress $end
 $var wire 1 "v io_DMEMWriteEnable $end
 $var wire 32 "w io_memDeviceWriteAddress $end
 $var wire 32 #3 io_IMEMWriteData $end
 $var wire 32 #6 io_memDeviceWriteData $end
 $var wire 32 #M io_DMEMReadData $end
 $var wire 1 #S reset $end
 $var wire 1 #Z io_setup $end
 $var wire 1 #e io_memDeviceWriteEnable $end
 $var wire 32 #x io_regsWriteData $end
  $scope module CPU.MEMBarrier $end
  $upscope $end
  $scope module CPU.EX $end
  $upscope $end
  $scope module CPU.EXBarrier $end
  $upscope $end
  $scope module CPU.MEM $end
  $upscope $end
  $scope module CPU.IDBarrier $end
  $upscope $end
  $scope module CPU.ID $end
  $upscope $end
  $scope module CPU.EX.ALU $end
  $upscope $end
  $scope module CPU.ID.registers $end
  $upscope $end
  $scope module CPU.IFBarrier $end
  $upscope $end
  $scope module CPU.IF $end
  $upscope $end
  $scope module CPU.IF.IMEM $end
  $upscope $end
  $scope module CPU.MEM.DMEM $end
  $upscope $end
  $scope module CPU.ID.Decoder $end
  $upscope $end
  $scope module CPU $end
   $var wire 1 % IDBarrier $end
   $var wire 32 / testHarness_setupSignals_IMEMsignals_address $end
   $var wire 32 5 testHarness_setupSignals_IMEMsignals_instruction $end
   $var wire 1 > testHarness_regUpdates_writeEnable $end
   $var wire 1 S ID $end
   $var wire 1 d testHarness_memUpdates_writeEnable $end
   $var wire 32 q testHarness_regUpdates_writeData $end
   $var wire 5 t testHarness_regUpdates_writeAddress $end
   $var wire 5 u testHarness_setupSignals_registerSignals_readAddress $end
   $var wire 32 w testHarness_testReadouts_registerRead $end
   $var wire 32 ~ testHarness_currentPC $end
   $var wire 1 "& IF $end
   $var wire 32 "9 testHarness_memUpdates_writeAddress $end
   $var wire 1 "= IFBarrier $end
   $var wire 1 "> testHarness_setupSignals_DMEMsignals_setup $end
   $var wire 32 "N testHarness_testReadouts_DMEMread $end
   $var wire 32 "P testHarness_setupSignals_DMEMsignals_dataIn $end
   $var wire 1 "R testHarness_setupSignals_IMEMsignals_setup $end
   $var wire 1 "o clock $end
   $var wire 32 "s testHarness_setupSignals_DMEMsignals_dataAddress $end
   $var wire 1 "| testHarness_setupSignals_registerSignals_setup $end
   $var wire 1 ## MEM $end
   $var wire 1 #8 testHarness_setupSignals_registerSignals_writeEnable $end
   $var wire 1 #: EXBarrier $end
   $var wire 1 #L EX $end
   $var wire 32 #d testHarness_memUpdates_writeData $end
   $var wire 32 #q testHarness_setupSignals_registerSignals_writeData $end
   $var wire 1 #t MEMBarrier $end
   $var wire 1 #u reset $end
   $var wire 1 #z testHarness_setupSignals_DMEMsignals_writeEnable $end
    $scope module ID $end
     $var wire 1 ! testHarness_registerSetup_writeEnable $end
     $var wire 4 C io_alu_op $end
     $var wire 32 R testHarness_registerPeek $end
     $var wire 32 X io_op_two $end
     $var wire 5 ` io_rd $end
     $var wire 1 c testHarness_testUpdates_writeEnable $end
     $var wire 32 i testHarness_registerSetup_writeData $end
     $var wire 5 s testHarness_testUpdates_writeAddress $end
     $var wire 32 ". io_pc $end
     $var wire 32 "0 io_inst_instruction $end
     $var wire 1 "7 io_control_memRead $end
     $var wire 32 "C io_op_one $end
     $var wire 32 "J _GEN_0 $end
     $var wire 5 "U io_wb_address $end
     $var wire 5 "] testHarness_registerSetup_readAddress $end
     $var wire 32 "` io_wb_data $end
     $var wire 1 "k registers $end
     $var wire 1 #' io_control_regWrite $end
     $var wire 32 #5 _GEN_2 $end
     $var wire 1 #? Decoder $end
     $var wire 1 #^ testHarness_registerSetup_setup $end
     $var wire 32 #b testHarness_testUpdates_writeData $end
     $var wire 1 #h io_wb_enable $end
     $var wire 1 #l clock $end
     $var wire 1 #y io_control_memWrite $end
      $scope module registers $end
       $var wire 1 ( testHarness_testUpdates_writeEnable $end
       $var wire 1 + testHarness_setup_setup $end
       $var wire 32 4 testHarness_testUpdates_writeData $end
       $var wire 5 6 readAddress1 $end
       $var wire 1 9 clock $end
       $var wire 32 ; io_readData1 $end
       $var wire 32 ? registerFile $end
       $var wire 1 F testHarness_setup_writeEnable $end
       $var wire 1 [ writeEnable $end
       $var wire 5 a io_readAddress1 $end
       $var wire 5 v testHarness_testUpdates_writeAddress $end
       $var wire 1 "( io_writeEnable $end
       $var wire 32 "G testHarness_setup_writeData $end
       $var wire 32 "W io_writeData $end
       $var wire 5 "{ testHarness_setup_readAddress $end
       $var wire 32 #& io_readData2 $end
       $var wire 5 #+ writeAddress $end
       $var wire 5 #E io_writeAddress $end
       $var wire 5 #F io_readAddress2 $end
        $scope module registerFile $end
          $scope module _T_33 $end
           $var wire 1 # en $end
           $var wire 1 , pipeline_valid_0 $end
           $var wire 1 8 clk $end
           $var wire 5 | pipeline_addr_0 $end
           $var wire 1 "' mask $end
           $var wire 1 "O valid $end
           $var wire 5 "x addr $end
           $var wire 32 #> pipeline_data_0 $end
           $var wire 32 #f data $end
          $upscope $end
          $scope module _T_41 $end
           $var wire 32 \ data $end
           $var wire 1 { en $end
           $var wire 1 "j clk $end
           $var wire 5 #X addr $end
          $upscope $end
          $scope module _T_38 $end
           $var wire 1 e clk $end
           $var wire 1 "L en $end
           $var wire 5 "[ addr $end
           $var wire 32 #T data $end
          $upscope $end
        $upscope $end
      $upscope $end
      $scope module Decoder $end
       $var wire 1 0 io_controlSignals_memWrite $end
       $var wire 1 : io_controlSignals_memRead $end
       $var wire 1 x io_op2Select $end
       $var wire 1 "h io_controlSignals_regWrite $end
       $var wire 4 #* io_ALUop $end
       $var wire 1 #- io_op1Select $end
       $var wire 32 #2 io_instruction_instruction $end
      $upscope $end
    $upscope $end
    $scope module MEM $end
     $var wire 1 I DMEM $end
     $var wire 32 P testHarness_testUpdates_writeAddress $end
     $var wire 1 "! io_mem_read $end
     $var wire 32 "$ testHarness_DMEMsetup_dataAddress $end
     $var wire 32 "/ io_data_in $end
     $var wire 32 "F io_address $end
     $var wire 1 "p testHarness_testUpdates_writeEnable $end
     $var wire 1 "~ testHarness_DMEMsetup_writeEnable $end
     $var wire 32 #1 testHarness_DMEMpeek $end
     $var wire 1 #P testHarness_DMEMsetup_setup $end
     $var wire 32 #W testHarness_testUpdates_writeData $end
     $var wire 1 #a clock $end
     $var wire 32 #k io_data_out $end
     $var wire 32 #r testHarness_DMEMsetup_dataIn $end
     $var wire 1 #v io_mem_write $end
      $scope module DMEM $end
       $var wire 32 * testHarness_testUpdates_writeData $end
       $var wire 1 . _GEN_6 $end
       $var wire 12 7 data__T_24_addr_pipe_0 $end
       $var wire 1 D testHarness_testUpdates_writeEnable $end
       $var wire 32 K testHarness_setup_dataAddress $end
       $var wire 12 M io_dataAddress $end
       $var wire 32 T testHarness_testUpdates_writeAddress $end
       $var wire 32 f addressSource $end
       $var wire 32 m data $end
       $var wire 1 "? io_writeEnable $end
       $var wire 1 "q testHarness_setup_writeEnable $end
       $var wire 1 "u testHarness_setup_setup $end
       $var wire 1 #D clock $end
       $var wire 32 #R testHarness_setup_dataIn $end
       $var wire 32 #] io_dataIn $end
       $var wire 32 #g io_dataOut $end
        $scope module data $end
          $scope module _T_26 $end
           $var wire 1 " clk $end
           $var wire 12 ^ addr $end
           $var wire 32 g pipeline_data_0 $end
           $var wire 1 "; pipeline_valid_0 $end
           $var wire 32 "M data $end
           $var wire 1 #< en $end
           $var wire 12 #G pipeline_addr_0 $end
           $var wire 1 #U valid $end
           $var wire 1 #n mask $end
          $upscope $end
          $scope module _T_24 $end
           $var wire 32 B data $end
           $var wire 1 "X clk $end
           $var wire 1 #C en $end
           $var wire 12 #J addr $end
          $upscope $end
        $upscope $end
      $upscope $end
    $upscope $end
    $scope module EX $end
     $var wire 1 $ ALU $end
     $var wire 4 z io_alu_op $end
     $var wire 32 "- io_op_two $end
     $var wire 32 "m io_op_one $end
     $var wire 32 #N io_result $end
      $scope module ALU $end
       $var wire 63 ' _GEN_5 $end
       $var wire 32 1 io_op_one $end
       $var wire 32 b io_result $end
       $var wire 63 j _GEN_7 $end
       $var wire 32 o _GEN_1 $end
       $var wire 63 "4 _GEN_4 $end
       $var wire 4 "Y io_alu_op $end
       $var wire 63 "a _GEN_3 $end
       $var wire 63 "g _GEN_6 $end
       $var wire 32 "} _GEN_0 $end
       $var wire 63 #" _GEN_9 $end
       $var wire 63 #( _GEN_10 $end
       $var wire 32 #H io_op_two $end
       $var wire 63 #` _GEN_8 $end
       $var wire 32 #m _GEN_2 $end
      $upscope $end
    $upscope $end
    $scope module IF $end
     $var wire 1 & testHarness_IMEMsetup_setup $end
     $var wire 1 J IMEM $end
     $var wire 32 U io_PC $end
     $var wire 32 Y testHarness_IMEMsetup_instruction $end
     $var wire 32 y PC $end
     $var wire 1 "3 clock $end
     $var wire 32 "6 testHarness_PC $end
     $var wire 1 #) reset $end
     $var wire 32 #, io_inst_instruction $end
     $var wire 32 #7 testHarness_IMEMsetup_address $end
     $var wire 32 #s _GEN_0 $end
      $scope module IMEM $end
       $var wire 32 @ testHarness_setupSignals_instruction $end
       $var wire 12 H instructions__T_20_addr_pipe_0 $end
       $var wire 1 p clock $end
       $var wire 32 "K testHarness_setupSignals_address $end
       $var wire 1 "S _GEN_4 $end
       $var wire 32 "_ io_instruction $end
       $var wire 1 "z testHarness_setupSignals_setup $end
       $var wire 32 #I addressSource $end
       $var wire 32 #V testHarness_requestedAddress $end
       $var wire 32 #i io_instructionAddress $end
       $var wire 32 #p instructions $end
        $scope module instructions $end
          $scope module _T_18 $end
           $var wire 1 - valid $end
           $var wire 1 < mask $end
           $var wire 1 ] pipeline_valid_0 $end
           $var wire 12 } addr $end
           $var wire 1 "" clk $end
           $var wire 32 "i data $end
           $var wire 12 "l pipeline_addr_0 $end
           $var wire 32 #Y pipeline_data_0 $end
           $var wire 1 #o en $end
          $upscope $end
          $scope module _T_20 $end
           $var wire 1 l en $end
           $var wire 12 "B addr $end
           $var wire 1 "f clk $end
           $var wire 32 #4 data $end
          $upscope $end
        $upscope $end
      $upscope $end
    $upscope $end
    $scope module IDBarrier $end
     $var wire 1 ) control_memWrite $end
     $var wire 1 = io_out_control_memWrite $end
     $var wire 5 E rd $end
     $var wire 32 G io_in_op_two $end
     $var wire 32 Z alu_op $end
     $var wire 32 h op_two $end
     $var wire 1 n reset $end
     $var wire 1 "# io_out_control_memRead $end
     $var wire 32 "+ io_in_op_one $end
     $var wire 4 ", io_out_alu_op $end
     $var wire 5 "1 io_out_rd $end
     $var wire 32 "5 io_out_op_two $end
     $var wire 1 ": io_in_control_regWrite $end
     $var wire 1 "E control_memRead $end
     $var wire 5 "b io_in_rd $end
     $var wire 1 "t io_out_control_regWrite $end
     $var wire 32 #! op_one $end
     $var wire 1 #$ io_in_control_memWrite $end
     $var wire 32 #% io_out_op_one $end
     $var wire 1 #B control_regWrite $end
     $var wire 4 #Q io_in_alu_op $end
     $var wire 1 #w io_in_control_memRead $end
     $var wire 1 #{ clock $end
    $upscope $end
    $scope module MEMBarrier $end
     $var wire 32 L rd $end
     $var wire 1 Q reset $end
     $var wire 1 "% control_regWrite $end
     $var wire 32 "@ result $end
     $var wire 5 "H io_in_rd $end
     $var wire 1 "Z io_in_control_regWrite $end
     $var wire 1 "r io_out_control_regWrite $end
     $var wire 32 #. io_out_result $end
     $var wire 5 #/ io_out_rd $end
     $var wire 32 #A io_in_result $end
     $var wire 1 #K clock $end
    $upscope $end
    $scope module EXBarrier $end
     $var wire 1 N clock $end
     $var wire 32 V io_in_result $end
     $var wire 1 _ control_memRead $end
     $var wire 5 r rd $end
     $var wire 1 ") io_out_control_memRead $end
     $var wire 32 "* result $end
     $var wire 1 "2 io_out_control_regWrite $end
     $var wire 32 "A io_out_op_two $end
     $var wire 1 "Q io_in_control_regWrite $end
     $var wire 1 "T io_in_control_memRead $end
     $var wire 1 "\ control_regWrite $end
     $var wire 1 "n reset $end
     $var wire 1 "y io_out_control_memWrite $end
     $var wire 1 #9 io_in_control_memWrite $end
     $var wire 5 #; io_out_rd $end
     $var wire 32 #= io_in_op_two $end
     $var wire 32 #@ op_two $end
     $var wire 1 #O control_memWrite $end
     $var wire 32 #[ io_out_result $end
     $var wire 5 #\ io_in_rd $end
    $upscope $end
    $scope module IFBarrier $end
     $var wire 32 W io_in_inst_instruction $end
     $var wire 1 "d clock $end
     $var wire 32 "e pc $end
     $var wire 32 #0 io_in_pc $end
     $var wire 32 #_ io_out_pc $end
     $var wire 1 #c reset $end
     $var wire 32 #j io_out_inst_instruction $end
    $upscope $end
  $upscope $end
$upscope $end
$enddefinitions $end
$dumpvars
b000000000000 }
0#D
1"S
b00000 |
0=
0#c
b00000 #;
b00000000000000000000000000000000 #6
b00000000000000000000000000000000 "M
b00000000000000000000000000000000 "8
b00000000000000000000000000000000 #.
b000000000000000000000000000000000000000000000000000000000000000 "g
0#t
0"v
0#S
0"r
b00000000000000000000000000000000 w
b00000000000000000000000000000000 b
1#C
0D
0"#
b00000000000000000000000000000000 #=
b00000000000000000000000000000000 "G
b00000000000000000000000000000000 "*
b000000000000000000000000000000000000000000000000000000000000000 j
0#O
b00000 "[
0"n
0]
0"Q
b00000000000000000000000000000000 #s
0"<
b00000000000000000000000000000000 A
b00000000000000000000000000000000 #k
b00000000000000000000000000000000 #V
0+
b00000000000000000000000000000000 "C
0#w
0p
0"d
0"O
b00000000000000000000000000000000 q
b00000000000000000000000000000000 T
b00000000000000000000000000000000 ?
0"2
b00000000000000000000000000000000 #i
0>
b000000000000000000000000000000000000000000000000000000000000000 "4
b0000 ",
0#^
b00000000000000000000000000000000 m
0O
0:
0#$
b00000000000000000000000000000000 P
b00000000000000000000000000000000 3
b00000000000000000000000000000000 #H
b000000000000 "B
b00000000000000000000000000000000 "5
b000000000000000000000000000000000000000000000000000000000000000 #(
0"?
b00000000000000000000000000000000 /
b00000000000000000000000000000000 #j
0#P
b00000000000000000000000000000000 "W
0"o
0"=
b00000000000000000000000000000000 B
b00000000000000000000000000000000 #W
b00000000000000000000000000000000 #f
0#a
0"k
b00000000000000000000000000000000 #4
0#L
b00000000000000000000000000000000 "6
0N
09
0"~
b00000000000000000000000000000000 #2
b0000 #Q
b00000 t
0J
0-
0"z
b00000000000000000000000000000000 "w
b00000 #+
b00000000000000000000000000000000 #&
b00000000000000000000000000000000 "0
b000000000000 7
b00000000000000000000000000000000 "^
b00000 6
0#:
b00000000000000000000000000000000 "A
b00000000000000000000000000000000 "$
b000000000000 H
1l
b00000000000000000000000000000000 o
0n
b000000000000 #J
b00000000000000000000000000000000 #g
b00000000000000000000000000000000 #R
b00000000000000000000000000000000 "i
b00000000000000000000000000000000 #5
b0000 #*
1.
b00000000000000000000000000000000 #x
0#{
b00000000000000000000000000000000 #N
b00000000000000000000000000000000 "m
b00000 E
b00000000000000000000000000000000 "e
b00000 "U
b00000000000000000000000000000000 "P
b00000000000000000000000000000000 #1
08
b000000000000000000000000000000000000000000000000000000000000000 #`
0#
b00000 #\
b00000 "{
0"y
0#Z
0"q
0"\
b00000 "I
0#o
b00000000000000000000000000000000 L
b00000 u
b00000000000000000000000000000000 ~
b000000000000000000000000000000000000000000000000000000000000000 #"
b00000 #X
0"X
0#9
b00000000000000000000000000000000 #r
b000000000000 "l
0"&
b00000000000000000000000000000000 @
0";
b00000000000000000000000000000000 "_
b00000000000000000000000000000000 #@
b00000000000000000000000000000000 Y
0#-
0"7
0""
0"L
0&
b00000 v
0#z
0"|
b00000000000000000000000000000000 #d
b0000 "Y
b00000 r
0#v
b00000 #F
b00000000000000000000000000000000 "`
b00000000000000000000000000000000 #A
b00000000000000000000000000000000 h
b00000 "H
0#'
b00000000000000000000000000000000 ".
b00000000000000000000000000000000 K
0#<
0")
0x
1<
0F
0":
0[
b00000000000000000000000000000000 #q
0#l
b00000 "c
0)
b00000000000000000000000000000000 "s
b00000 "x
b00000000000000000000000000000000 #T
b00000000000000000000000000000000 ;
0#h
0%
0"j
b00000000000000000000000000000000 #3
0#K
b00000000000000000000000000000000 Z
0#y
0!
0"f
b00000000000000000000000000000000 "N
b00000000000000000000000000000000 "9
b00000000000000000000000000000000 k
b00000000000000000000000000000000 V
0{
0"Z
0Q
b00000 s
0I
0"E
0"(
b00000000000000000000000000000000 #_
b00000000000000000000000000000000 i
b00000000000000000000000000000000 "D
b00000000000000000000000000000000 "/
b00000000000000000000000000000000 #%
1#n
0"V
00
b00000000000000000000000000000000 #[
b00000000000000000000000000000000 #p
0(
0"u
b00000000000000000000000000000000 #>
b00000 "b
b0000 z
b00000000000000000000000000000000 #!
b00000000000000000000000000000000 "+
b00000000000000000000000000000000 "@
0"T
b00000000000000000000000000000000 U
0#)
0"3
b00000 a
0"
b00000000000000000000000000000000 #M
b00000000000000000000000000000000 #b
b00000000000000000000000000000000 #0
b000000000000000000000000000000000000000000000000000000000000000 "a
b000000000000 ^
0#B
b00000 #/
b00000000000000000000000000000000 f
0e
b00000 "1
b00000000000000000000000000000000 4
b00000000000000000000000000000000 "}
b00000000000000000000000000000000 #I
b00000000000000000000000000000000 #,
b00000000000000000000000000000000 "K
b000000000000000000000000000000000000000000000000000000000000000 '
0#U
0"t
b00000000000000000000000000000000 y
0c
0#8
0##
b00000000000000000000000000000000 \
b00000000000000000000000000000000 G
0"%
b00000000000000000000000000000000 *
b00000 "]
0"p
0_
0"h
b0000 C
b00000000000000000000000000000000 X
0">
b00000000000000000000000000000000 #m
0"!
0S
b00000 `
b00000000000000000000000000000000 #7
0d
0#u
02
b00000000000000000000000000000000 #]
b00000 #E
b00000000000000000000000000000000 "J
b00000000000000000000000000000000 g
b00000000000000000000000000000000 R
b00000000000000000000000000000000 "-
b00000000000000000000000000000000 5
b00000000000000000000000000000000 #Y
1"'
0#?
b00000000000000000000000000000000 "F
b00000000000000000000000000000000 1
b000000000000 M
0#e
0"R
b00000000000000000000000000000000 W
0,
b000000000000 #G
0$
$end
#0
1n
1#S
1"n
b1111 #*
1#u
b1111 C
1#)
1Q
b1111 #Q
b00000000000000000000000000000100 #s
1#c
#1
1"V
1"
19
1#l
1#K
1""
1N
1#{
1"X
1#a
1e
18
1"o
1"d
1p
1"f
1"j
1#D
1"3
#6
0#{
0N
0"f
0""
0"3
0"j
0"V
08
0#K
0e
0#l
0"
0p
09
0#a
0"o
0"d
0#D
0"X
#11
1"V
1"
19
1#l
1#K
1""
1N
1#{
1"X
1#a
1e
18
1"o
1"d
1p
1"f
1"j
1#D
1"3
#16
0#{
0N
0"f
0""
0"3
0"j
0"V
08
0#K
0e
0#l
0"
0p
09
0#a
0"o
0"d
0#D
0"X
#21
1"V
1"
19
1#l
1#K
1""
1N
1#{
1"X
1#a
1e
18
1"o
1"d
1p
1"f
1"j
1#D
1"3
#26
0#{
0N
0"f
0""
0"3
0"j
0"V
08
0#K
0e
0#l
0"
0p
09
0#a
0"o
0"d
0#D
0"X
#31
1"V
1"
19
1#l
1#K
1""
1N
1#{
1"X
1#a
1e
18
1"o
1"d
1p
1"f
1"j
1#D
1"3
#36
0#{
0N
0"f
0""
0"3
0"j
0"V
08
0#K
0e
0#l
0"
0p
09
0#a
0"o
0"d
0#D
0"X
#41
1"V
1"
19
1#l
1#K
1""
1N
1#{
1"X
1#a
1e
18
1"o
1"d
1p
1"f
1"j
1#D
1"3
#46
0N
b0000 #*
1#o
b0000 #Q
b0000 C
b00000000010000000000000010010011 5
0#)
1#'
1"u
b00000000000000000000000000000000 #s
0"j
0#c
1#^
1#Z
1"z
0#K
0e
1":
0"
b00000000000000000000000000010011 #,
b00000000000000000000000000010011 "0
b00000000010000000000000010010011 @
1">
0#u
0"o
0"d
0#{
0"f
0"X
0""
0#S
0Q
1-
0"3
b00000000000000000000000000010011 #j
1&
b00000000010000000000000010010011 #3
b00000000000000000000000000010011 W
0"V
b00000000000000000000000000010011 #2
08
1"h
0"n
1#P
0n
0#l
1"|
0p
09
1+
b00000000010000000000000010010011 Y
b00000000010000000000000010010011 "i
1x
0#a
1"R
0#D
#51
1"V
1"
19
b00000000010000000000000010010011 "_
1#l
1#K
1""
1"Q
1N
1#{
b00000000010000000000000010010011 #Y
1#B
1#a
1"X
b00000000010000000000000010010011 #4
1e
18
1"o
1"t
1"d
1p
1"f
1"j
1]
1#D
1"3
#56
0N
b00000000000000000000000000010011 "i
b00000000000000000000000000010011 @
0"j
0#K
0e
0"
b000000000100 }
b00000000000000000000000000010011 5
0"o
0"d
0#{
0"f
b00000000000000000000000000010011 Y
0"X
0""
b00000000000000000000000000000100 A
b00000000000000000000000000000100 #I
0"3
b00000000000000000000000000000100 /
0"V
b00000000000000000000000000010011 #3
08
0#l
b00000000000000000000000000000100 "K
0p
09
0#a
b00000000000000000000000000000100 #7
0#D
#61
1"V
19
1#K
1"Z
b000000000100 H
1N
b00000000000000000000000000010011 "_
1#{
b00000000000000000000000000010011 #Y
18
1"o
b00000000000000000000000000010011 #4
1"f
1"3
1"\
1"
1#l
1""
1"X
1#a
1"2
1e
b000000000100 "l
1"d
1p
1"j
b000000000100 "B
1#D
#66
0#{
0N
0"f
0""
b00000000000000000000000000001000 /
b00000000000000000000000000001000 A
0"3
0"j
b000000001000 }
b00000000000000000000000000001000 #I
0"V
08
b00000000000000000000000000001000 #7
0#K
b00000000000000000000000000001000 "K
0e
0#l
0"
0p
09
0#a
0"o
0"d
0#D
0"X
#71
1"V
1#h
1"
19
1#l
1#K
1""
b000000001000 H
b000000001000 "l
1"(
1N
1#{
1"X
1#a
1e
b000000001000 "B
18
1"r
1"o
1"%
1"d
1p
1"f
1"j
1#D
1"3
#76
0#{
0N
0"f
0""
b00000000000000000000000000001100 A
b00000000000000000000000000001100 "K
0"3
b00000000000000000000000000001100 /
0"j
0"V
08
0#K
b00000000000000000000000000001100 #I
0e
b00000000000000000000000000001100 #7
0#l
0"
0p
09
b000000001100 }
0#a
0"o
0"d
0#D
0"X
#81
1"V
1"
19
1#l
b000000001100 "B
b000000001100 "l
1""
1#K
1N
1#{
1"X
1#a
b000000001100 H
1e
18
1"o
1"d
1p
1"f
1"j
1#D
1"3
#86
0#{
0N
0"f
0""
b00000000000000000000000000010000 /
0"3
b000000010000 }
0"j
0"V
b00000000000000000000000000010000 #7
08
b00000000000000000000000000010000 A
0#K
0e
b00000000000000000000000000010000 #I
0#l
0"
0p
09
b00000000000000000000000000010000 "K
0#a
0"o
0"d
0#D
0"X
#91
b000000010000 "l
1"V
1"
19
1#l
1#K
1""
1N
1#{
1"X
1#a
1e
b000000010000 "B
18
1"o
1"d
b000000010000 H
1p
1"j
1"f
1#D
1"3
#96
0N
b00000000010000000000000100010011 Y
0"j
b00000000000000000000000000010100 #7
0#K
b00000000010000000000000100010011 5
0e
0"
b00000000010000000000000100010011 #3
0"o
0"d
0#{
0"f
b00000000000000000000000000010100 /
b00000000000000000000000000010100 #I
0"X
0""
0"3
b00000000000000000000000000010100 A
b00000000000000000000000000010100 "K
0"V
08
b000000010100 }
0#l
b00000000010000000000000100010011 @
b00000000010000000000000100010011 "i
0p
09
0#a
0#D
#101
b00000000010000000000000100010011 "_
1"V
b00000000010000000000000100010011 #4
1"
19
b000000010100 "l
1#l
1#K
1""
b000000010100 "B
1N
1#{
1"X
1#a
b000000010100 H
1e
18
1"o
1"d
1p
1"f
1"j
b00000000010000000000000100010011 #Y
1#D
1"3
#106
0N
b00000000000000000000000000011000 "K
b00000000000000000000000000010011 "i
b00000000000000000000000000010011 @
0"j
b00000000000000000000000000011000 /
b00000000000000000000000000011000 #I
0#K
0e
0"
b00000000000000000000000000010011 5
0"o
0"d
0#{
0"f
b00000000000000000000000000010011 Y
0"X
0""
b000000011000 }
b00000000000000000000000000011000 A
0"3
0"V
b00000000000000000000000000010011 #3
08
b00000000000000000000000000011000 #7
0#l
0p
09
0#a
0#D
#111
1"V
1"
19
1#l
1#K
1""
b000000011000 "B
1N
b00000000000000000000000000010011 "_
1#{
1"X
1#a
b00000000000000000000000000010011 #Y
1e
18
1"o
b000000011000 H
b000000011000 "l
b00000000000000000000000000010011 #4
1p
1"f
1"j
1"d
1#D
1"3
#116
0#{
0N
0"f
0""
b000000011100 }
b00000000000000000000000000011100 #I
0"3
0"j
b00000000000000000000000000011100 #7
0"V
08
b00000000000000000000000000011100 /
b00000000000000000000000000011100 A
0#K
b00000000000000000000000000011100 "K
0e
0#l
0"
0p
09
0#a
0"o
0"d
0#D
0"X
#121
1"V
b000000011100 "B
b000000011100 H
1"
19
1#l
1#K
1""
1N
1#{
1"X
1#a
1e
b000000011100 "l
18
1"o
1"d
1p
1"f
1"j
1#D
1"3
#126
0#{
0N
0"f
0""
b000000100000 }
b00000000000000000000000000100000 "K
0"3
b00000000000000000000000000100000 /
0"j
0"V
08
b00000000000000000000000000100000 #7
b00000000000000000000000000100000 A
0#K
0e
0#l
0"
0p
09
b00000000000000000000000000100000 #I
0#a
0"o
0"d
0#D
0"X
#131
b000000100000 "B
1"V
1"
19
1#l
b000000100000 "l
1#K
1""
1N
1#{
1"X
1#a
1e
18
1"o
1"d
1p
b000000100000 H
1"j
1"f
1#D
1"3
#136
0#{
0N
0"f
0""
b00000000000000000000000000100100 #I
0"3
0"j
b00000000000000000000000000100100 A
b00000000000000000000000000100100 "K
0"V
08
0#K
0e
0#l
0"
0p
09
b00000000000000000000000000100100 /
b000000100100 }
b00000000000000000000000000100100 #7
0#a
0"o
0"d
0#D
0"X
#141
1"V
1"
19
b000000100100 H
1#l
1#K
1""
1N
1#{
1"X
1#a
1e
b000000100100 "B
b000000100100 "l
18
1"o
1"d
1p
1"f
1"j
1#D
1"3
#146
0N
b00000000000000000000000000101000 /
0"j
b00000000010000000000000110010011 #3
0#K
0e
0"
b00000000000000000000000000101000 #7
0"o
0"d
0#{
0"f
b00000000000000000000000000101000 #I
0"X
0""
b00000000010000000000000110010011 5
0"3
b00000000000000000000000000101000 "K
b000000101000 }
0"V
08
b00000000010000000000000110010011 @
b00000000010000000000000110010011 "i
0#l
0p
09
b00000000000000000000000000101000 A
b00000000010000000000000110010011 Y
0#a
0#D
#151
1"V
b000000101000 H
1"
19
1#l
b00000000010000000000000110010011 #4
1""
b00000000010000000000000110010011 "_
b000000101000 "B
1#K
1N
b000000101000 "l
1"X
1#a
1#{
1e
18
1"o
1"d
1p
b00000000010000000000000110010011 #Y
1"j
1"f
1#D
1"3
#156
0N
b00000000000000000000000000101100 /
b00000000000000000000000000101100 "K
b00000000000000000000000000010011 "i
b00000000000000000000000000010011 @
0"j
b00000000000000000000000000101100 #7
0#K
0e
0"
b000000101100 }
b00000000000000000000000000101100 A
b00000000000000000000000000010011 5
0"o
0"d
0#{
0"f
b00000000000000000000000000010011 Y
0"X
0""
0"3
b00000000000000000000000000101100 #I
0"V
b00000000000000000000000000010011 #3
08
0#l
0p
09
0#a
0#D
#161
1"V
1"
19
b000000101100 H
1#l
1#K
1""
b000000101100 "B
b000000101100 "l
b00000000000000000000000000010011 "_
1N
1"X
1#a
1#{
b00000000000000000000000000010011 #Y
1e
18
1"o
b00000000000000000000000000010011 #4
1"d
1p
1"f
1"j
1#D
1"3
#166
0#{
0N
0"f
0""
b00000000000000000000000000110000 #7
b00000000000000000000000000110000 #I
0"3
0"j
0"V
08
b00000000000000000000000000110000 A
b000000110000 }
0#K
0e
0#l
b00000000000000000000000000110000 "K
0"
0p
09
b00000000000000000000000000110000 /
0#a
0"o
0"d
0#D
0"X
#171
1"V
b000000110000 H
1"
19
1#l
1#K
1""
1N
1#{
1"X
1#a
1e
b000000110000 "B
18
1"o
b000000110000 "l
1"d
1p
1"f
1"j
1#D
1"3
#176
0#{
0N
0"f
0""
0"3
b000000110100 }
b00000000000000000000000000110100 #7
0"j
0"V
08
b00000000000000000000000000110100 #I
b00000000000000000000000000110100 A
0#K
0e
0#l
0"
0p
09
b00000000000000000000000000110100 "K
b00000000000000000000000000110100 /
0#a
0"o
0"d
0#D
0"X
#181
1"V
1"
19
1#l
1#K
b000000110100 "l
1""
1N
1#{
1"X
1#a
1e
b000000110100 "B
18
1"o
1"d
1p
b000000110100 H
1"j
1"f
1#D
1"3
#186
0#{
0N
0"f
0""
b00000000000000000000000000111000 A
b000000111000 }
0"3
b00000000000000000000000000111000 "K
0"j
0"V
08
0#K
0e
0#l
b00000000000000000000000000111000 /
0"
0p
09
b00000000000000000000000000111000 #7
b00000000000000000000000000111000 #I
0#a
0"o
0"d
0#D
0"X
#191
1"V
1"
19
1#l
1#K
b000000111000 "l
1""
b000000111000 "B
1N
1#{
1"X
1#a
1e
18
b000000111000 H
1"o
1"d
1p
1"f
1"j
1#D
1"3
#196
0N
b00000000000000000000000000111100 "K
0"j
b00000000010000000000001000010011 Y
b00000000010000000000001000010011 "i
0#K
0e
b00000000010000000000001000010011 5
0"
b00000000010000000000001000010011 #3
b00000000000000000000000000111100 #I
b00000000000000000000000000111100 #7
0"o
0"d
0#{
0"f
0"X
0""
b00000000000000000000000000111100 /
0"3
b000000111100 }
0"V
b00000000010000000000001000010011 @
08
0#l
b00000000000000000000000000111100 A
0p
09
0#a
0#D
