waveforms/load.s.vcd
$date
2025-09-08T08:14+0000
$end
$version
0.2
$end
$comment

$end
$timescale 1ns  $end
$scope module Tile $end
 $var wire 1 * io_regsWriteEnable $end
 $var wire 32 + io_regsReadData $end
 $var wire 32 4 io_IMEMAddress $end
 $var wire 1 < io_regsDeviceWriteEnable $end
 $var wire 32 I io_DMEMAddress $end
 $var wire 32 Z io_DMEMWriteData $end
 $var wire 1 ] CPU $end
 $var wire 32 _ io_regsDeviceWriteData $end
 $var wire 5 a io_regsDeviceWriteAddress $end
 $var wire 1 i clock $end
 $var wire 32 l io_currentPC $end
 $var wire 5 m io_regsAddress $end
 $var wire 1 u io_DMEMWriteEnable $end
 $var wire 32 v io_memDeviceWriteAddress $end
 $var wire 32 ~ io_IMEMWriteData $end
 $var wire 32 "! io_memDeviceWriteData $end
 $var wire 32 ") io_DMEMReadData $end
 $var wire 1 ", reset $end
 $var wire 1 "2 io_setup $end
 $var wire 1 "7 io_memDeviceWriteEnable $end
 $var wire 32 "A io_regsWriteData $end
  $scope module CPU.MEM $end
  $upscope $end
  $scope module CPU.ID.registers $end
  $upscope $end
  $scope module CPU.IF $end
  $upscope $end
  $scope module CPU.IF.IMEM $end
  $upscope $end
  $scope module CPU.MEM.DMEM $end
  $upscope $end
  $scope module CPU $end
   $var wire 1 2 testHarness_regUpdates_writeEnable $end
   $var wire 1 > ID $end
   $var wire 1 D testHarness_memUpdates_writeEnable $end
   $var wire 32 K testHarness_regUpdates_writeData $end
   $var wire 5 L testHarness_regUpdates_writeAddress $end
   $var wire 5 M testHarness_setupSignals_registerSignals_readAddress $end
   $var wire 32 P testHarness_testReadouts_registerRead $end
   $var wire 32 T testHarness_currentPC $end
   $var wire 1 W IF $end
   $var wire 32 [ testHarness_memUpdates_writeAddress $end
   $var wire 1 ^ testHarness_setupSignals_DMEMsignals_setup $end
   $var wire 32 d testHarness_testReadouts_DMEMread $end
   $var wire 32 f testHarness_setupSignals_DMEMsignals_dataIn $end
   $var wire 1 g testHarness_setupSignals_IMEMsignals_setup $end
   $var wire 1 q clock $end
   $var wire 32 s testHarness_setupSignals_DMEMsignals_dataAddress $end
   $var wire 1 x testHarness_setupSignals_registerSignals_setup $end
   $var wire 1 { MEM $end
   $var wire 1 "" testHarness_setupSignals_registerSignals_writeEnable $end
   $var wire 32 "6 testHarness_memUpdates_writeData $end
   $var wire 32 "= testHarness_setupSignals_registerSignals_writeData $end
   $var wire 1 "@ reset $end
   $var wire 1 "B testHarness_setupSignals_DMEMsignals_writeEnable $end
    $scope module MEM $end
     $var wire 1 8 DMEM $end
     $var wire 32 ; testHarness_testUpdates_writeAddress $end
     $var wire 32 U testHarness_DMEMsetup_dataAddress $end
     $var wire 1 p testHarness_testUpdates_writeEnable $end
     $var wire 1 z testHarness_DMEMsetup_writeEnable $end
     $var wire 32 } testHarness_DMEMpeek $end
     $var wire 1 "* testHarness_DMEMsetup_setup $end
     $var wire 32 "0 testHarness_testUpdates_writeData $end
     $var wire 1 "4 clock $end
     $var wire 32 "> testHarness_DMEMsetup_dataIn $end
      $scope module DMEM $end
       $var wire 32 & testHarness_testUpdates_writeData $end
       $var wire 1 ) _GEN_6 $end
       $var wire 12 - data__T_24_addr_pipe_0 $end
       $var wire 1 6 testHarness_testUpdates_writeEnable $end
       $var wire 32 : testHarness_setup_dataAddress $end
       $var wire 32 ? testHarness_testUpdates_writeAddress $end
       $var wire 32 F addressSource $end
       $var wire 32 J data $end
       $var wire 1 r testHarness_setup_writeEnable $end
       $var wire 1 t testHarness_setup_setup $end
       $var wire 1 "& clock $end
       $var wire 32 "+ testHarness_setup_dataIn $end
       $var wire 32 "9 io_dataOut $end
        $scope module data $end
          $scope module _T_26 $end
           $var wire 1 ! clk $end
           $var wire 12 B addr $end
           $var wire 32 G pipeline_data_0 $end
           $var wire 1 \ pipeline_valid_0 $end
           $var wire 32 c data $end
           $var wire 1 "# en $end
           $var wire 12 "' pipeline_addr_0 $end
           $var wire 1 "- valid $end
           $var wire 1 "< mask $end
          $upscope $end
          $scope module _T_24 $end
           $var wire 32 5 data $end
           $var wire 1 h clk $end
           $var wire 1 "% en $end
           $var wire 12 "( addr $end
          $upscope $end
        $upscope $end
      $upscope $end
    $upscope $end
    $scope module ID $end
     $var wire 1 " testHarness_registerSetup_writeEnable $end
     $var wire 32 = testHarness_registerPeek $end
     $var wire 1 C testHarness_testUpdates_writeEnable $end
     $var wire 32 H testHarness_registerSetup_writeData $end
     $var wire 5 N testHarness_testUpdates_writeAddress $end
     $var wire 5 k testHarness_registerSetup_readAddress $end
     $var wire 1 o registers $end
     $var wire 1 "3 testHarness_registerSetup_setup $end
     $var wire 32 "5 testHarness_testUpdates_writeData $end
     $var wire 1 ": clock $end
      $scope module registers $end
       $var wire 1 % testHarness_testUpdates_writeEnable $end
       $var wire 1 ' testHarness_setup_setup $end
       $var wire 32 , testHarness_testUpdates_writeData $end
       $var wire 5 . readAddress1 $end
       $var wire 1 0 clock $end
       $var wire 32 1 io_readData1 $end
       $var wire 32 3 registerFile $end
       $var wire 1 7 testHarness_setup_writeEnable $end
       $var wire 1 @ writeEnable $end
       $var wire 5 O testHarness_testUpdates_writeAddress $end
       $var wire 32 ` testHarness_setup_writeData $end
       $var wire 5 y testHarness_setup_readAddress $end
        $scope module registerFile $end
          $scope module _T_33 $end
           $var wire 1 # en $end
           $var wire 1 ( pipeline_valid_0 $end
           $var wire 1 / clk $end
           $var wire 5 S pipeline_addr_0 $end
           $var wire 1 V mask $end
           $var wire 1 e valid $end
           $var wire 5 w addr $end
           $var wire 32 "$ pipeline_data_0 $end
           $var wire 32 "8 data $end
          $upscope $end
          $scope module _T_41 $end
           $var wire 32 A data $end
           $var wire 1 R en $end
           $var wire 1 n clk $end
           $var wire 5 "1 addr $end
          $upscope $end
          $scope module _T_38 $end
           $var wire 1 E clk $end
           $var wire 1 b en $end
           $var wire 5 j addr $end
           $var wire 32 ". data $end
          $upscope $end
        $upscope $end
      $upscope $end
    $upscope $end
    $scope module IF $end
     $var wire 1 $ testHarness_IMEMsetup_setup $end
     $var wire 1 9 IMEM $end
     $var wire 32 Q PC $end
     $var wire 1 X clock $end
     $var wire 32 Y testHarness_PC $end
     $var wire 1 | reset $end
     $var wire 32 "? _GEN_0 $end
      $scope module IMEM $end
       $var wire 32 "/ testHarness_requestedAddress $end
       $var wire 32 "; io_instructionAddress $end
      $upscope $end
    $upscope $end
  $upscope $end
  $scope module CPU.ID $end
  $upscope $end
$upscope $end
$enddefinitions $end
$dumpvars
0X
b00000000000000000000000000000000 Y
0C
0"7
1"<
0""
b00000000000000000000000000000000 ">
0o
0R
b00000000000000000000000000000000 "8
b00000000000000000000000000000000 l
b00000000000000000000000000000000 :
b00000000000000000000000000000000 Q
b00000000000000000000000000000000 }
0g
b00000000000000000000000000000000 `
b00000000000000000000000000000000 ".
b00000000000000000000000000000000 K
b000000000000 "(
0"@
0D
0/
0"#
0x
0":
b00000 S
0z
0r
0]
b00000000000000000000000000000000 s
1)
b00000 j
b00000000000000000000000000000000 A
0@
0W
b00000000000000000000000000000000 ;
b00000 O
0%
b000000000000 -
b00000000000000000000000000000000 "=
b00000000000000000000000000000000 Z
0p
b00000000000000000000000000000000 T
0>
0"2
b00000000000000000000000000000000 ?
06
0!
b00000 .
b00000000000000000000000000000000 "9
0"4
b00000 y
b00000000000000000000000000000000 P
b00000000000000000000000000000000 3
0{
b00000000000000000000000000000000 "5
b00000000000000000000000000000000 J
b000000000000 "'
b00000000000000000000000000000000 "/
0"*
0b
0E
00
0(
b00000000000000000000000000000000 "+
b00000000000000000000000000000000 _
1V
0u
b00000000000000000000000000000000 [
b00000000000000000000000000000000 "6
b00000000000000000000000000000000 "!
0q
0i
b00000000000000000000000000000000 U
0"3
b00000 a
07
0"
b00000 L
09
0"-
0e
b00000000000000000000000000000000 f
b00000 "1
b00000000000000000000000000000000 I
b00000000000000000000000000000000 4
0|
b00000000000000000000000000000000 "0
b00000000000000000000000000000000 d
0"B
b00000000000000000000000000000000 G
b00000000000000000000000000000000 "A
b00000000000000000000000000000000 "$
b00000000000000000000000000000000 ,
b00000 M
0t
b00000000000000000000000000000000 ";
b00000000000000000000000000000000 &
0n
0<
0'
b00000000000000000000000000000000 =
b00000000000000000000000000000000 "?
b00000 w
08
0#
0",
02
b000000000000 B
b00000000000000000000000000000000 5
b00000000000000000000000000000000 ~
0h
b00000 m
b00000000000000000000000000000000 c
b00000000000000000000000000000000 ")
b00000000000000000000000000000000 F
b00000000000000000000000000000000 1
0\
b00000000000000000000000000000000 H
0"&
b00000000000000000000000000000000 +
0*
0^
b00000 k
b00000 N
0$
1"%
b00000000000000000000000000000000 v
$end
#0
1"@
1",
1|
#1
1/
1n
1"4
1i
1":
1"&
1!
1X
1h
1E
1q
10
#6
0"&
0q
00
0X
0i
0E
0h
0/
0"4
0":
0!
0n
#11
1/
1n
1"4
1i
1":
1"&
1!
1X
1h
1E
1q
10
#16
0"&
0q
00
0X
0i
0E
0h
0/
0"4
0":
0!
0n
#21
1/
1n
1"4
1i
1":
1"&
1!
1X
1h
1E
1q
10
#26
0"&
0q
00
0X
0i
0E
0h
0/
0"4
0":
0!
0n
#31
1/
1n
1"4
1i
1":
1"&
1!
1X
1h
1E
1q
10
#36
0"&
0q
00
0X
0i
0E
0h
0/
0"4
0":
0!
0n
#41
1/
1n
1"4
1i
1":
1"&
1!
1X
1h
1E
1q
10
#46
0"&
0i
0",
0"@
1x
0h
0|
0/
1g
b00000000010000000000000010010011 ~
1"2
0!
0n
0q
1'
00
1"3
0X
1"*
0E
1^
1t
1$
0"4
0":
#51
1/
1n
1"4
1i
1":
1"&
1!
1X
1h
1E
1q
10
#56
0"&
0i
0h
0/
b00000000000000000000000000000100 4
0!
0n
0q
00
0X
0E
b00000000000000000000000000010011 ~
0"4
0":
#61
1/
1n
1"4
1i
1":
1"&
1!
1X
1h
1E
1q
10
#66
0"&
0q
00
0X
0i
0E
0h
b00000000000000000000000000001000 4
0/
0"4
0":
0!
0n
#71
1/
1n
1"4
1i
1":
1"&
1!
1X
1h
1E
1q
10
#76
0"&
0q
00
0X
0i
0E
0h
0/
0"4
b00000000000000000000000000001100 4
0":
0!
0n
#81
1/
1n
1"4
1i
1":
1"&
1!
1X
1h
1E
1q
10
#86
0"&
0q
00
0X
0i
0E
0h
0/
b00000000000000000000000000010000 4
0"4
0":
0!
0n
#91
1/
1n
1"4
1i
1":
1"&
1!
1X
1h
1E
1q
10
#96
0"&
0i
0h
b00000000000000000000000000010100 4
0/
b00000000010000000000000100010011 ~
0!
0n
0q
00
0X
0E
0"4
0":
#101
1/
1n
1"4
1i
1":
1"&
1!
1X
1h
1E
1q
10
#106
0"&
0i
b00000000000000000000000000011000 4
0h
0/
0!
0n
0q
00
0X
0E
b00000000000000000000000000010011 ~
0"4
0":
#111
1/
1n
1"4
1i
1":
1"&
1!
1X
1h
1E
1q
10
#116
0"&
0q
00
0X
0i
0E
0h
0/
0"4
0":
0!
b00000000000000000000000000011100 4
0n
#121
1/
1n
1"4
1i
1":
1"&
1!
1X
1h
1E
1q
10
#126
0"&
0q
00
0X
0i
0E
0h
0/
b00000000000000000000000000100000 4
0"4
0":
0!
0n
#131
1/
1n
1"4
1i
1":
1"&
1!
1X
1h
1E
1q
10
#136
0"&
0q
00
0X
0i
0E
b00000000000000000000000000100100 4
0h
0/
0"4
0":
0!
0n
#141
1/
1n
1"4
1i
1":
1"&
1!
1X
1h
1E
1q
10
#146
0"&
0i
0h
0/
b00000000010000000000000110010011 ~
0!
0n
0q
00
0X
0E
b00000000000000000000000000101000 4
0"4
0":
#151
1/
1n
1"4
1i
1":
1"&
1!
1X
1h
1E
1q
10
#156
0"&
0i
b00000000000000000000000000101100 4
0h
0/
0!
0n
0q
00
0X
0E
b00000000000000000000000000010011 ~
0"4
0":
#161
1/
1n
1"4
1i
1":
1"&
1!
1X
1h
1E
1q
10
#166
0"&
0q
00
0X
0i
0E
0h
0/
0"4
0":
0!
b00000000000000000000000000110000 4
0n
#171
1/
1n
1"4
1i
1":
1"&
1!
1X
1h
1E
1q
10
#176
0"&
0q
00
0X
b00000000000000000000000000110100 4
0i
0E
0h
0/
0"4
0":
0!
0n
#181
1/
1n
1"4
1i
1":
1"&
1!
1X
1h
1E
1q
10
#186
0"&
0q
00
0X
b00000000000000000000000000111000 4
0i
0E
0h
0/
0"4
0":
0!
0n
#191
1/
1n
1"4
1i
1":
1"&
1!
1X
1h
1E
1q
10
#196
0"&
0i
0h
0/
b00000000000000000000000000111100 4
b00000000010000000000001000010011 ~
0!
0n
0q
00
0X
0E
0"4
0":
#201
1/
1n
1"4
1i
1":
1"&
1!
1X
1h
1E
1q
10
#206
0"&
0i
0h
0/
0!
0n
0q
00
0X
0E
b00000000000000000000000001000000 4
b00000000000000000000000000010011 ~
0"4
0":
#211
1/
1n
1"4
1i
1":
1"&
1!
1X
1h
1E
1q
10
#216
0"&
0q
00
0X
0i
0E
0h
0/
0"4
0":
0!
b00000000000000000000000001000100 4
0n
#221
1/
1n
1"4
1i
1":
1"&
1!
1X
1h
1E
1q
10
#226
0"&
0q
00
0X
0i
0E
0h
0/
b00000000000000000000000001001000 4
0"4
0":
0!
0n
#231
1/
1n
1"4
1i
1":
1"&
1!
1X
1h
1E
1q
10
#236
0"&
0q
b00000000000000000000000001001100 4
00
0X
0i
0E
0h
0/
0"4
0":
0!
0n
#241
1/
1n
1"4
1i
1":
1"&
1!
1X
1h
1E
1q
10
#246
0"&
0i
0h
0/
b00000000000000000000000001010000 4
0!
0n
0q
00
0X
0E
0"4
b00000000000000011010000110000011 ~
0":
#251
1/
1n
1"4
1i
1":
1"&
1!
1X
1h
1E
1q
10
#256
0"&
b00000000000000000000000001010100 4
0i
0h
0/
0!
0n
0q
00
0X
0E
b00000000000000000000000000010011 ~
0"4
0":
#261
1/
1n
1"4
1i
1":
1"&
1!
1X
1h
1E
1q
10
#266
0"&
0q
00
0X
0i
0E
0h
0/
0"4
b00000000000000000000000001011000 4
0":
0!
0n
#271
1/
1n
1"4
1i
1":
1"&
1!
1X
1h
1E
1q
10
#276
0"&
0q
00
0X
0i
0E
0h
0/
b00000000000000000000000001011100 4
0"4
0":
0!
0n
#281
1/
1n
1"4
1i
1":
1"&
1!
1X
1h
1E
1q
10
#286
0"&
0q
b00000000000000000000000001100000 4
00
0X
0i
0E
0h
0/
0"4
0":
0!
0n
#291
1/
1n
1"4
1i
1":
1"&
1!
1X
1h
1E
1q
10
#296
0"&
0i
0h
0/
0!
0n
0q
00
0X
b00000000000000000000000001100100 4
0E
0"4
0":
b00000000000000000000000000110011 ~
#301
1/
1n
1"4
1i
1":
1"&
1!
1X
1h
1E
1q
10
#306
0"&
0i
0h
0/
0!
0n
0q
00
0X
0E
b00000000000000000000000001101000 4
b00000000000000000000000000010011 ~
0"4
0":
#311
1/
1n
1"4
1i
1":
1"&
1!
1X
1h
1E
1q
10
#316
0"&
0q
00
b00000000000000000000000001101100 4
0X
0i
0E
0h
0/
0"4
0":
0!
0n
#321
1/
1n
1"4
1i
1":
1"&
1!
1X
1h
1E
1q
10
#326
0"&
0q
b00000000000000000000000001110000 4
00
0X
0i
0E
0h
0/
0"4
0":
0!
0n
#331
1/
1n
1"4
1i
1":
1"&
1!
1X
1h
1E
1q
10
#336
0"&
0q
00
0X
0i
0E
b00000000000000000000000001110100 4
0h
0/
0"4
0":
0!
0n
#341
1/
1n
1"4
1i
1":
1"&
1!
1X
1h
1E
1q
10
#346
0"&
b00000000000000000000000001111000 4
0i
0h
0/
0!
0n
0q
00
0X
0E
0"4
0":
b00000000000000000000000000110011 ~
#351
1/
1n
1"4
1i
1":
1"&
1!
1X
1h
1E
1q
10
#356
0"&
0i
0h
0/
b00000000000000000000000001111100 4
0!
0n
0q
00
0X
0E
b00000000000000000000000000010011 ~
0"4
0":
#361
1/
1n
1"4
1i
1":
1"&
1!
1X
1h
1E
1q
10
#366
0"&
0q
00
b00000000000000000000000010000000 4
0X
0i
0E
0h
0/
0"4
0":
0!
0n
#371
1/
1n
1"4
1i
1":
1"&
1!
1X
1h
1E
1q
10
#376
0"&
0q
00
0X
0i
0E
0h
0/
b00000000000000000000000010000100 4
0"4
0":
0!
0n
#381
1/
1n
1"4
1i
1":
1"&
1!
1X
1h
1E
1q
10
#386
0"&
0q
00
0X
0i
0E
b00000000000000000000000010001000 4
0h
0/
0"4
0":
0!
0n
#391
1/
1n
1"4
1i
1":
1"&
1!
1X
1h
1E
1q
10
#396
0"&
0i
b00000000000000000000000010001100 4
0h
0/
0!
0n
0q
00
0X
0E
0"4
b00000000000000011010000110000011 ~
0":
#401
1/
1n
1"4
1i
1":
1"&
1!
1X
1h
1E
1q
10
#406
0"&
0i
0h
0/
b00000000000000000000000010010000 4
0!
0n
0q
00
0X
0E
b00000000000000000000000000010011 ~
0"4
0":
#411
1/
1n
1"4
1i
1":
1"&
1!
1X
1h
1E
1q
10
#416
0"&
0q
00
0X
0i
0E
b00000000000000000000000010010100 4
0h
0/
0"4
0":
0!
0n
#421
1/
1n
1"4
1i
1":
1"&
1!
1X
1h
1E
1q
10
#426
0"&
0q
00
0X
0i
0E
0h
0/
b00000000000000000000000010011000 4
0"4
0":
0!
0n
#431
1/
1n
1"4
1i
1":
1"&
1!
1X
1h
1E
1q
10
#436
0"&
0q
00
b00000000000000000000000010011100 4
0X
0i
0E
0h
0/
0"4
0":
0!
0n
#441
1/
1n
1"4
1i
1":
1"&
1!
1X
1h
1E
1q
10
#446
0"&
0i
0h
0/
0!
b00000000000000000000000010100000 4
0n
0q
00
0X
0E
0"4
0":
b00000000000000000000000000110011 ~
#451
1/
1n
1"4
1i
1":
1"&
1!
1X
1h
1E
1q
10
#456
0"&
b00000000000000000000000010100100 4
0i
0h
0/
0!
0n
0q
00
0X
0E
b00000000000000000000000000010011 ~
0"4
0":
#461
1/
1n
1"4
1i
1":
1"&
1!
1X
1h
1E
1q
10
#466
0"&
0q
b00000000000000000000000010101000 4
00
0X
0i
0E
0h
0/
0"4
0":
0!
0n
#471
1/
1n
1"4
1i
1":
1"&
1!
1X
1h
1E
1q
10
#476
0"&
0q
00
0X
0i
0E
b00000000000000000000000010101100 4
0h
0/
0"4
0":
0!
0n
#481
1/
1n
1"4
1i
1":
1"&
1!
1X
1h
1E
1q
10
#486
0"&
0q
00
0X
0i
0E
b00000000000000000000000010110000 4
0h
0/
0"4
0":
0!
0n
#491
1/
1n
1"4
1i
1":
1"&
1!
1X
1h
1E
1q
10
#496
0"&
0i
0h
0/
b00000000000000000000000010110100 4
0!
0n
0q
00
0X
0E
0"4
0":
b00000000000000000000000000110011 ~
#501
1/
1n
1"4
1i
1":
1"&
1!
1X
1h
1E
1q
10
#506
0"&
0i
0h
0/
0!
0n
0q
00
0X
0E
b00000000000000000000000000010011 ~
0"4
b00000000000000000000000010111000 4
0":
#511
1/
1n
1"4
1i
1":
1"&
1!
1X
1h
1E
1q
10
#516
0"&
0q
b00000000000000000000000010111100 4
00
0X
0i
0E
0h
0/
0"4
0":
0!
0n
#521
1/
1n
1"4
1i
1":
1"&
1!
1X
1h
1E
1q
10
#526
0"&
0q
00
0X
0i
0E
b00000000000000000000000011000000 4
0h
0/
0"4
0":
0!
0n
#531
1/
1n
1"4
1i
1":
1"&
1!
1X
1h
1E
1q
10
#536
0"&
0q
00
0X
0i
0E
b00000000000000000000000011000100 4
0h
0/
0"4
0":
0!
0n
#541
1/
1n
1"4
1i
1":
1"&
1!
1X
1h
1E
1q
10
#546
0"&
0i
0h
0/
0!
0n
0q
00
0X
0E
0"4
b00000000000000011010000110000011 ~
b00000000000000000000000011001000 4
0":
#551
1/
1n
1"4
1i
1":
1"&
1!
1X
1h
1E
1q
10
#556
0"&
0i
b00000000000000000000000011001100 4
0h
0/
0!
0n
0q
00
0X
0E
b00000000000000000000000000010011 ~
0"4
0":
#561
1/
1n
1"4
1i
1":
1"&
1!
1X
1h
1E
1q
10
#566
0"&
0q
00
0X
0i
0E
0h
0/
0"4
b00000000000000000000000011010000 4
0":
0!
0n
#571
1/
1n
1"4
1i
1":
1"&
1!
1X
1h
1E
1q
10
#576
0"&
0q
00
0X
0i
0E
b00000000000000000000000011010100 4
0h
0/
0"4
0":
0!
0n
#581
1/
1n
1"4
1i
1":
1"&
1!
1X
1h
1E
1q
10
#586
0"&
0q
00
0X
0i
0E
0h
0/
0"4
0":
0!
b00000000000000000000000011011000 4
0n
#591
1/
1n
1"4
1i
1":
1"&
1!
1X
1h
1E
1q
10
#596
0"&
0i
0h
0/
0!
0n
0q
00
0X
0E
0"4
b00000000000000000000000011011100 4
0":
b00000000000000000000000000110011 ~
#601
1/
1n
1"4
1i
1":
1"&
1!
1X
1h
1E
1q
10
#606
0"&
0i
0h
0/
0!
0n
0q
00
0X
0E
b00000000000000000000000011100000 4
b00000000000000000000000000010011 ~
0"4
0":
#611
1/
1n
1"4
1i
1":
1"&
1!
1X
1h
1E
1q
10
#616
0"&
0q
00
0X
b00000000000000000000000011100100 4
0i
0E
0h
0/
0"4
0":
0!
0n
#621
1/
1n
1"4
1i
1":
1"&
1!
1X
1h
1E
1q
10
#626
0"&
0q
00
0X
0i
0E
0h
0/
0"4
0":
0!
b00000000000000000000000011101000 4
0n
#631
1/
1n
1"4
1i
1":
1"&
1!
1X
1h
1E
1q
10
#636
0"&
0q
00
0X
0i
0E
b00000000000000000000000011101100 4
0h
0/
0"4
0":
0!
0n
#641
1/
1n
1"4
1i
1":
1"&
1!
1X
1h
1E
1q
10
#646
0"&
0i
0h
0/
0!
0n
0q
00
0X
b00000000000000000000000011110000 4
0E
0"4
0":
b00000000000000000000000000110011 ~
#651
1/
1n
1"4
1i
1":
1"&
1!
1X
1h
1E
1q
10
#656
0"&
0i
0h
0/
0!
0n
0q
00
0X
0E
b00000000000000000000000011110100 4
b00000000000000000000000000010011 ~
0"4
0":
#661
1/
1n
1"4
1i
1":
1"&
1!
1X
1h
1E
1q
10
#666
0"&
0q
00
0X
0i
0E
b00000000000000000000000011111000 4
0h
0/
0"4
0":
0!
0n
#671
1/
1n
1"4
1i
1":
1"&
1!
1X
1h
1E
1q
10
#676
0"&
0q
00
0X
0i
0E
b00000000000000000000000011111100 4
0h
0/
0"4
0":
0!
0n
#681
1/
1n
1"4
1i
1":
1"&
1!
1X
1h
1E
1q
10
#686
0"&
0q
00
0X
0i
0E
0h
0/
b00000000000000000000000100000000 4
0"4
0":
0!
0n
#691
1/
1n
1"4
1i
1":
1"&
1!
1X
1h
1E
1q
10
#696
0"&
0i
0h
0/
b00000000000000000000000100000100 4
0!
0n
0q
00
0X
0E
0"4
b00000000000000011010000110000011 ~
0":
#701
1/
1n
1"4
1i
1":
1"&
1!
1X
1h
1E
1q
10
#706
0"&
0i
b00000000000000000000000100001000 4
0h
0/
0!
0n
0q
00
0X
0E
b00000000000000000000000000010011 ~
0"4
0":
#711
1/
1n
1"4
1i
1":
1"&
1!
1X
1h
1E
1q
10
#716
0"&
0q
00
0X
0i
0E
b00000000000000000000000100001100 4
0h
0/
0"4
0":
0!
0n
#721
1/
1n
1"4
1i
1":
1"&
1!
1X
1h
1E
1q
10
#726
0"&
0q
00
0X
0i
0E
0h
b00000000000000000000000100010000 4
0/
0"4
0":
0!
0n
#731
1/
1n
1"4
1i
1":
1"&
1!
1X
1h
1E
1q
10
#736
0"&
0q
00
0X
0i
0E
0h
0/
b00000000000000000000000100010100 4
0"4
0":
0!
0n
#741
1/
1n
1"4
1i
1":
1"&
1!
1X
1h
1E
1q
10
#746
0"&
0i
0h
0/
0!
0n
0q
00
0X
0E
b00000000000000000000000100011000 4
0"4
0":
b00000000000000000000000000110011 ~
#751
1/
1n
1"4
1i
1":
1"&
1!
1X
1h
1E
1q
10
#756
0"&
0i
0h
b00000000000000000000000100011100 4
0/
0!
0n
0q
00
0X
0E
b00000000000000000000000000010011 ~
0"4
0":
#761
1/
1n
1"4
1i
1":
1"&
1!
1X
1h
1E
1q
10
#766
0"&
0q
00
0X
b00000000000000000000000100100000 4
0i
0E
0h
0/
0"4
0":
0!
0n
#771
1/
1n
1"4
1i
1":
1"&
1!
1X
1h
1E
1q
10
#776
0"&
0q
00
0X
b00000000000000000000000100100100 4
0i
0E
0h
0/
0"4
0":
0!
0n
#781
1/
1n
1"4
1i
1":
1"&
1!
1X
1h
1E
1q
10
#786
0"&
0q
00
0X
0i
0E
0h
0/
0"4
b00000000000000000000000100101000 4
0":
0!
0n
#791
1/
1n
1"4
1i
1":
1"&
1!
1X
1h
1E
1q
10
#796
0"&
0i
0h
0/
0!
0n
0q
00
0X
0E
0"4
b00000000000000000000000100101100 4
0":
b00000000000000000000000000110011 ~
#801
1/
1n
1"4
1i
1":
1"&
1!
1X
1h
1E
1q
10
#806
0"&
0i
b00000000000000000000000100110000 4
0h
0/
0!
0n
0q
00
0X
0E
b00000000000000000000000000010011 ~
0"4
0":
#811
1/
1n
1"4
1i
1":
1"&
1!
1X
1h
1E
1q
10
#816
0"&
0q
00
0X
0i
0E
b00000000000000000000000100110100 4
0h
0/
0"4
0":
0!
0n
#821
1/
1n
1"4
1i
1":
1"&
1!
1X
1h
1E
1q
10
#826
0"&
0q
b00000000000000000000000100111000 4
00
0X
0i
0E
0h
0/
0"4
0":
0!
0n
#831
1/
1n
1"4
1i
1":
1"&
1!
1X
1h
1E
1q
10
#836
0"&
0q
00
0X
0i
0E
b00000000000000000000000100111100 4
0h
0/
0"4
0":
0!
0n
#841
1/
1n
1"4
1i
1":
1"&
1!
1X
1h
1E
1q
10
#846
0"&
0i
0h
0/
0!
0n
0q
00
0X
0E
b00000000000000000000000101000000 4
0"4
b00000000000000010010000100000011 ~
0":
#851
1/
1n
1"4
1i
1":
1"&
1!
1X
1h
1E
1q
10
#856
0"&
0i
0h
0/
0!
0n
0q
b00000000000000000000000101000100 4
00
0X
0E
b00000000000000000000000000010011 ~
0"4
0":
#861
1/
1n
1"4
1i
1":
1"&
1!
1X
1h
1E
1q
10
#866
0"&
0q
00
b00000000000000000000000101001000 4
0X
0i
0E
0h
0/
0"4
0":
0!
0n
#871
1/
1n
1"4
1i
1":
1"&
1!
1X
1h
1E
1q
10
#876
0"&
0q
00
0X
0i
0E
0h
b00000000000000000000000101001100 4
0/
0"4
0":
0!
0n
#881
1/
1n
1"4
1i
1":
1"&
1!
1X
1h
1E
1q
10
#886
0"&
0q
00
0X
0i
0E
0h
0/
b00000000000000000000000101010000 4
0"4
0":
0!
0n
#891
1/
1n
1"4
1i
1":
1"&
1!
1X
1h
1E
1q
10
#896
0"&
0i
0h
0/
0!
0n
0q
00
0X
0E
b00000000000000000000000101010100 4
0"4
0":
b00000000000000000000000000110011 ~
#901
1/
1n
1"4
1i
1":
1"&
1!
1X
1h
1E
1q
10
#906
0"&
0i
0h
0/
b00000000000000000000000101011000 4
0!
0n
0q
00
0X
0E
b00000000000000000000000000010011 ~
0"4
0":
#911
1/
1n
1"4
1i
1":
1"&
1!
1X
1h
1E
1q
10
#916
0"&
0q
00
0X
0i
0E
0h
0/
b00000000000000000000000101011100 4
0"4
0":
0!
0n
#921
1/
1n
1"4
1i
1":
1"&
1!
1X
1h
1E
1q
10
#926
0"&
0q
00
0X
0i
0E
b00000000000000000000000101100000 4
0h
0/
0"4
0":
0!
0n
#931
1/
1n
1"4
1i
1":
1"&
1!
1X
1h
1E
1q
10
#936
0"&
0q
00
0X
0i
0E
0h
0/
b00000000000000000000000101100100 4
0"4
0":
0!
0n
#941
1/
1n
1"4
1i
1":
1"&
1!
1X
1h
1E
1q
10
#946
0"&
0i
0h
0/
0!
0n
0q
00
0X
b00000000000000000000000101101000 4
0E
0"4
b00000000000000010010000100000011 ~
0":
#951
1/
1n
1"4
1i
1":
1"&
1!
1X
1h
1E
1q
10
#956
0"&
b00000000000000000000000101101100 4
0i
0h
0/
0!
0n
0q
00
0X
0E
b00000000000000000000000000010011 ~
0"4
0":
#961
1/
1n
1"4
1i
1":
1"&
1!
1X
1h
1E
1q
10
#966
0"&
0q
00
0X
0i
0E
b00000000000000000000000101110000 4
0h
0/
0"4
0":
0!
0n
#971
1/
1n
1"4
1i
1":
1"&
1!
1X
1h
1E
1q
10
#976
0"&
0q
00
0X
0i
0E
0h
0/
b00000000000000000000000101110100 4
0"4
0":
0!
0n
#981
1/
1n
1"4
1i
1":
1"&
1!
1X
1h
1E
1q
10
#986
0"&
0q
00
b00000000000000000000000101111000 4
0X
0i
0E
0h
0/
0"4
0":
0!
0n
#991
1/
1n
1"4
1i
1":
1"&
1!
1X
1h
1E
1q
10
#996
0"&
0i
0h
0/
0!
0n
0q
b00000000000000000000000101111100 4
00
0X
0E
0"4
0":
b00000000000000000000000000110011 ~
#1001
1/
1n
1"4
1i
1":
1"&
1!
1X
1h
1E
1q
10
#1006
0"&
0i
0h
0/
b00000000000000000000000110000000 4
0!
0n
0q
00
0X
0E
b00000000000000000000000000010011 ~
0"4
0":
#1011
1/
1n
1"4
1i
1":
1"&
1!
1X
1h
1E
1q
10
#1016
0"&
0q
00
0X
b00000000000000000000000110000100 4
0i
0E
0h
0/
0"4
0":
0!
0n
#1021
1/
1n
1"4
1i
1":
1"&
1!
1X
1h
1E
1q
10
#1026
0"&
0q
00
0X
0i
0E
0h
0/
b00000000000000000000000110001000 4
0"4
0":
0!
0n
#1031
1/
1n
1"4
1i
1":
1"&
1!
1X
1h
1E
1q
10
#1036
0"&
0q
00
0X
0i
0E
0h
0/
b00000000000000000000000110001100 4
0"4
0":
0!
0n
#1041
1/
1n
1"4
1i
1":
1"&
1!
1X
1h
1E
1q
10
