waveforms/load2.s.vcd
$date
2025-09-08T08:14+0000
$end
$version
0.2
$end
$comment

$end
$timescale 1ns  $end
$scope module Tile $end
 $var wire 1 * io_regsWriteEnable $end
 $var wire 32 + io_regsReadData $end
 $var wire 32 4 io_IMEMAddress $end
 $var wire 1 < io_regsDeviceWriteEnable $end
 $var wire 32 I io_DMEMAddress $end
 $var wire 32 Z io_DMEMWriteData $end
 $var wire 1 ] CPU $end
 $var wire 32 _ io_regsDeviceWriteData $end
 $var wire 5 a io_regsDeviceWriteAddress $end
 $var wire 1 i clock $end
 $var wire 32 l io_currentPC $end
 $var wire 5 m io_regsAddress $end
 $var wire 1 u io_DMEMWriteEnable $end
 $var wire 32 v io_memDeviceWriteAddress $end
 $var wire 32 ~ io_IMEMWriteData $end
 $var wire 32 "! io_memDeviceWriteData $end
 $var wire 32 ") io_DMEMReadData $end
 $var wire 1 ", reset $end
 $var wire 1 "2 io_setup $end
 $var wire 1 "7 io_memDeviceWriteEnable $end
 $var wire 32 "A io_regsWriteData $end
  $scope module CPU.MEM $end
  $upscope $end
  $scope module CPU.ID.registers $end
  $upscope $end
  $scope module CPU.IF $end
  $upscope $end
  $scope module CPU.IF.IMEM $end
  $upscope $end
  $scope module CPU.MEM.DMEM $end
  $upscope $end
  $scope module CPU $end
   $var wire 1 2 testHarness_regUpdates_writeEnable $end
   $var wire 1 > ID $end
   $var wire 1 D testHarness_memUpdates_writeEnable $end
   $var wire 32 K testHarness_regUpdates_writeData $end
   $var wire 5 L testHarness_regUpdates_writeAddress $end
   $var wire 5 M testHarness_setupSignals_registerSignals_readAddress $end
   $var wire 32 P testHarness_testReadouts_registerRead $end
   $var wire 32 T testHarness_currentPC $end
   $var wire 1 W IF $end
   $var wire 32 [ testHarness_memUpdates_writeAddress $end
   $var wire 1 ^ testHarness_setupSignals_DMEMsignals_setup $end
   $var wire 32 d testHarness_testReadouts_DMEMread $end
   $var wire 32 f testHarness_setupSignals_DMEMsignals_dataIn $end
   $var wire 1 g testHarness_setupSignals_IMEMsignals_setup $end
   $var wire 1 q clock $end
   $var wire 32 s testHarness_setupSignals_DMEMsignals_dataAddress $end
   $var wire 1 x testHarness_setupSignals_registerSignals_setup $end
   $var wire 1 { MEM $end
   $var wire 1 "" testHarness_setupSignals_registerSignals_writeEnable $end
   $var wire 32 "6 testHarness_memUpdates_writeData $end
   $var wire 32 "= testHarness_setupSignals_registerSignals_writeData $end
   $var wire 1 "@ reset $end
   $var wire 1 "B testHarness_setupSignals_DMEMsignals_writeEnable $end
    $scope module MEM $end
     $var wire 1 8 DMEM $end
     $var wire 32 ; testHarness_testUpdates_writeAddress $end
     $var wire 32 U testHarness_DMEMsetup_dataAddress $end
     $var wire 1 p testHarness_testUpdates_writeEnable $end
     $var wire 1 z testHarness_DMEMsetup_writeEnable $end
     $var wire 32 } testHarness_DMEMpeek $end
     $var wire 1 "* testHarness_DMEMsetup_setup $end
     $var wire 32 "0 testHarness_testUpdates_writeData $end
     $var wire 1 "4 clock $end
     $var wire 32 "> testHarness_DMEMsetup_dataIn $end
      $scope module DMEM $end
       $var wire 32 & testHarness_testUpdates_writeData $end
       $var wire 1 ) _GEN_6 $end
       $var wire 12 - data__T_24_addr_pipe_0 $end
       $var wire 1 6 testHarness_testUpdates_writeEnable $end
       $var wire 32 : testHarness_setup_dataAddress $end
       $var wire 32 ? testHarness_testUpdates_writeAddress $end
       $var wire 32 F addressSource $end
       $var wire 32 J data $end
       $var wire 1 r testHarness_setup_writeEnable $end
       $var wire 1 t testHarness_setup_setup $end
       $var wire 1 "& clock $end
       $var wire 32 "+ testHarness_setup_dataIn $end
       $var wire 32 "9 io_dataOut $end
        $scope module data $end
          $scope module _T_26 $end
           $var wire 1 ! clk $end
           $var wire 12 B addr $end
           $var wire 32 G pipeline_data_0 $end
           $var wire 1 \ pipeline_valid_0 $end
           $var wire 32 c data $end
           $var wire 1 "# en $end
           $var wire 12 "' pipeline_addr_0 $end
           $var wire 1 "- valid $end
           $var wire 1 "< mask $end
          $upscope $end
          $scope module _T_24 $end
           $var wire 32 5 data $end
           $var wire 1 h clk $end
           $var wire 1 "% en $end
           $var wire 12 "( addr $end
          $upscope $end
        $upscope $end
      $upscope $end
    $upscope $end
    $scope module ID $end
     $var wire 1 " testHarness_registerSetup_writeEnable $end
     $var wire 32 = testHarness_registerPeek $end
     $var wire 1 C testHarness_testUpdates_writeEnable $end
     $var wire 32 H testHarness_registerSetup_writeData $end
     $var wire 5 N testHarness_testUpdates_writeAddress $end
     $var wire 5 k testHarness_registerSetup_readAddress $end
     $var wire 1 o registers $end
     $var wire 1 "3 testHarness_registerSetup_setup $end
     $var wire 32 "5 testHarness_testUpdates_writeData $end
     $var wire 1 ": clock $end
      $scope module registers $end
       $var wire 1 % testHarness_testUpdates_writeEnable $end
       $var wire 1 ' testHarness_setup_setup $end
       $var wire 32 , testHarness_testUpdates_writeData $end
       $var wire 5 . readAddress1 $end
       $var wire 1 0 clock $end
       $var wire 32 1 io_readData1 $end
       $var wire 32 3 registerFile $end
       $var wire 1 7 testHarness_setup_writeEnable $end
       $var wire 1 @ writeEnable $end
       $var wire 5 O testHarness_testUpdates_writeAddress $end
       $var wire 32 ` testHarness_setup_writeData $end
       $var wire 5 y testHarness_setup_readAddress $end
        $scope module registerFile $end
          $scope module _T_33 $end
           $var wire 1 # en $end
           $var wire 1 ( pipeline_valid_0 $end
           $var wire 1 / clk $end
           $var wire 5 S pipeline_addr_0 $end
           $var wire 1 V mask $end
           $var wire 1 e valid $end
           $var wire 5 w addr $end
           $var wire 32 "$ pipeline_data_0 $end
           $var wire 32 "8 data $end
          $upscope $end
          $scope module _T_41 $end
           $var wire 32 A data $end
           $var wire 1 R en $end
           $var wire 1 n clk $end
           $var wire 5 "1 addr $end
          $upscope $end
          $scope module _T_38 $end
           $var wire 1 E clk $end
           $var wire 1 b en $end
           $var wire 5 j addr $end
           $var wire 32 ". data $end
          $upscope $end
        $upscope $end
      $upscope $end
    $upscope $end
    $scope module IF $end
     $var wire 1 $ testHarness_IMEMsetup_setup $end
     $var wire 1 9 IMEM $end
     $var wire 32 Q PC $end
     $var wire 1 X clock $end
     $var wire 32 Y testHarness_PC $end
     $var wire 1 | reset $end
     $var wire 32 "? _GEN_0 $end
      $scope module IMEM $end
       $var wire 32 "/ testHarness_requestedAddress $end
       $var wire 32 "; io_instructionAddress $end
      $upscope $end
    $upscope $end
  $upscope $end
  $scope module CPU.ID $end
  $upscope $end
$upscope $end
$enddefinitions $end
$dumpvars
b00000000000000000000000000000000 Y
0C
0"7
0""
1"<
0X
0o
b00000000000000000000000000000000 ">
0R
b00000000000000000000000000000000 "8
b00000000000000000000000000000000 l
b00000000000000000000000000000000 :
b00000000000000000000000000000000 Q
b00000000000000000000000000000000 }
0g
b00000000000000000000000000000000 `
b00000000000000000000000000000000 K
b00000000000000000000000000000000 ".
b000000000000 "(
0"@
0D
0/
0"#
0x
0":
b00000 S
0z
0r
0]
1)
b00000000000000000000000000000000 s
b00000 j
b00000000000000000000000000000000 A
0@
0W
b00000 O
0%
b00000000000000000000000000000000 ;
b000000000000 -
b00000000000000000000000000000000 "=
b00000000000000000000000000000000 Z
0p
b00000000000000000000000000000000 T
b00000000000000000000000000000000 ?
0>
0"2
06
0!
b00000 .
b00000000000000000000000000000000 "9
0"4
b00000 y
b00000000000000000000000000000000 P
b00000000000000000000000000000000 3
0{
b00000000000000000000000000000000 "5
b00000000000000000000000000000000 J
b000000000000 "'
b00000000000000000000000000000000 "/
0"*
0b
0E
00
0(
b00000000000000000000000000000000 "+
b00000000000000000000000000000000 _
0u
1V
b00000000000000000000000000000000 [
b00000000000000000000000000000000 "6
b00000000000000000000000000000000 "!
0q
0i
b00000000000000000000000000000000 U
0"3
b00000 a
07
0"
b00000 L
09
0"-
b00000000000000000000000000000000 f
0e
b00000 "1
b00000000000000000000000000000000 I
b00000000000000000000000000000000 4
0|
b00000000000000000000000000000000 "0
b00000000000000000000000000000000 d
0"B
b00000000000000000000000000000000 G
b00000000000000000000000000000000 "A
b00000000000000000000000000000000 "$
b00000000000000000000000000000000 ,
b00000 M
0t
b00000000000000000000000000000000 ";
b00000000000000000000000000000000 &
0n
0<
0'
b00000000000000000000000000000000 =
b00000000000000000000000000000000 "?
b00000 w
08
0#
0",
02
b000000000000 B
b00000000000000000000000000000000 5
b00000000000000000000000000000000 ~
0h
b00000 m
b00000000000000000000000000000000 c
b00000000000000000000000000000000 ")
b00000000000000000000000000000000 F
b00000000000000000000000000000000 1
0\
b00000000000000000000000000000000 H
0"&
b00000000000000000000000000000000 +
0*
0^
b00000 k
b00000 N
1"%
0$
b00000000000000000000000000000000 v
$end
#0
1"@
1|
1",
#1
1X
1":
10
1i
1h
1q
1"&
1/
1"4
1n
1E
1!
#6
0"4
0":
0i
0h
0!
0E
0q
0/
00
0"&
0n
0X
#11
1X
1":
10
1i
1h
1q
1"&
1/
1"4
1n
1E
1!
#16
0"4
0":
0i
0h
0!
0E
0q
0/
00
0"&
0n
0X
#21
1X
1":
10
1i
1h
1q
1"&
1/
1"4
1n
1E
1!
#26
0"4
0":
0i
0h
0!
0E
0q
0/
00
0"&
0n
0X
#31
1X
1":
10
1i
1h
1q
1"&
1/
1"4
1n
1E
1!
#36
0"4
0":
0i
0h
0!
0E
0q
0/
00
0"&
0n
0X
#41
1X
1":
10
1i
1h
1q
1"&
1/
1"4
1n
1E
1!
#46
0"4
1'
0i
0h
0!
1$
0|
0E
0q
0",
0/
1t
1"2
b00000000010000000000000010010011 ~
1g
1x
0n
1"3
0":
0"@
1^
00
0"&
0X
1"*
#51
1X
1":
10
1i
1h
1q
1"&
1/
1"4
1n
1E
1!
#56
0"4
0i
0h
0!
0E
0q
0/
b00000000000000000000000000010011 ~
0n
0":
00
0"&
0X
b00000000000000000000000000000100 4
#61
1X
1":
10
1i
1h
1q
1"&
1/
1"4
1n
1E
1!
#66
0"4
0":
0i
0h
b00000000000000000000000000001000 4
0!
0E
0q
0/
00
0"&
0n
0X
#71
1X
1":
10
1i
1h
1q
1"&
1/
1"4
1n
1E
1!
#76
0"4
0":
0i
0h
0!
0E
0q
0/
00
0"&
0n
b00000000000000000000000000001100 4
0X
#81
1X
1":
10
1i
1h
1q
1"&
1/
1"4
1n
1E
1!
#86
0"4
0":
0i
b00000000000000000000000000010000 4
0h
0!
0E
0q
0/
00
0"&
0n
0X
#91
1X
1":
10
1i
1h
1q
1"&
1/
1"4
1n
1E
1!
#96
b00000000010000000000000100010011 ~
0"4
0i
0h
0!
0E
0q
0/
0n
0":
00
b00000000000000000000000000010100 4
0"&
0X
#101
1X
1":
10
1i
1h
1q
1"&
1/
1"4
1n
1E
1!
#106
0"4
0i
0h
0!
0E
0q
0/
b00000000000000000000000000010011 ~
0n
0":
00
b00000000000000000000000000011000 4
0"&
0X
#111
1X
1":
10
1i
1h
1q
1"&
1/
1"4
1n
1E
1!
#116
0"4
0":
0i
0h
b00000000000000000000000000011100 4
0!
0E
0q
0/
00
0"&
0n
0X
#121
1X
1":
10
1i
1h
1q
1"&
1/
1"4
1n
1E
1!
#126
0"4
0":
0i
0h
0!
b00000000000000000000000000100000 4
0E
0q
0/
00
0"&
0n
0X
#131
1X
1":
10
1i
1h
1q
1"&
1/
1"4
1n
1E
1!
#136
0"4
0":
0i
0h
0!
0E
0q
0/
00
b00000000000000000000000000100100 4
0"&
0n
0X
#141
1X
1":
10
1i
1h
1q
1"&
1/
1"4
1n
1E
1!
#146
0"4
0i
0h
0!
0E
0q
0/
b00000000010000000000000110010011 ~
0n
0":
b00000000000000000000000000101000 4
00
0"&
0X
#151
1X
1":
10
1i
1h
1q
1"&
1/
1"4
1n
1E
1!
#156
0"4
0i
0h
0!
0E
0q
0/
b00000000000000000000000000010011 ~
0n
b00000000000000000000000000101100 4
0":
00
0"&
0X
#161
1X
1":
10
1i
1h
1q
1"&
1/
1"4
1n
1E
1!
#166
0"4
0":
0i
b00000000000000000000000000110000 4
0h
0!
0E
0q
0/
00
0"&
0n
0X
#171
1X
1":
10
1i
1h
1q
1"&
1/
1"4
1n
1E
1!
#176
0"4
0":
0i
0h
0!
0E
0q
0/
b00000000000000000000000000110100 4
00
0"&
0n
0X
#181
1X
1":
10
1i
1h
1q
1"&
1/
1"4
1n
1E
1!
#186
0"4
0":
0i
0h
0!
0E
0q
0/
00
0"&
0n
b00000000000000000000000000111000 4
0X
#191
1X
1":
10
1i
1h
1q
1"&
1/
1"4
1n
1E
1!
#196
0"4
0i
0h
0!
0E
0q
0/
b00000000010000000000001000010011 ~
0n
0":
00
0"&
b00000000000000000000000000111100 4
0X
#201
1X
1":
10
1i
1h
1q
1"&
1/
1"4
1n
1E
1!
#206
b00000000000000000000000001000000 4
0"4
0i
0h
0!
0E
0q
0/
b00000000000000000000000000010011 ~
0n
0":
00
0"&
0X
#211
1X
1":
10
1i
1h
1q
1"&
1/
1"4
1n
1E
1!
#216
0"4
0":
0i
0h
0!
b00000000000000000000000001000100 4
0E
0q
0/
00
0"&
0n
0X
#221
1X
1":
10
1i
1h
1q
1"&
1/
1"4
1n
1E
1!
#226
0"4
0":
0i
0h
0!
0E
0q
0/
00
0"&
0n
0X
b00000000000000000000000001001000 4
#231
1X
1":
10
1i
1h
1q
1"&
1/
1"4
1n
1E
1!
#236
0"4
0":
0i
0h
0!
0E
0q
0/
00
0"&
0n
0X
b00000000000000000000000001001100 4
#241
1X
1":
10
1i
1h
1q
1"&
1/
1"4
1n
1E
1!
#246
0"4
0i
0h
0!
0E
0q
0/
b00000000000000000000000001010000 4
0n
0":
b00000000000000001010000010000011 ~
00
0"&
0X
#251
1X
1":
10
1i
1h
1q
1"&
1/
1"4
1n
1E
1!
#256
0"4
0i
0h
0!
0E
0q
0/
b00000000000000000000000001010100 4
b00000000000000000000000000010011 ~
0n
0":
00
0"&
0X
#261
1X
1":
10
1i
1h
1q
1"&
1/
1"4
1n
1E
1!
#266
0"4
0":
0i
0h
0!
0E
0q
0/
00
0"&
0n
0X
b00000000000000000000000001011000 4
#271
1X
1":
10
1i
1h
1q
1"&
1/
1"4
1n
1E
1!
#276
0"4
0":
0i
0h
b00000000000000000000000001011100 4
0!
0E
0q
0/
00
0"&
0n
0X
#281
1X
1":
10
1i
1h
1q
1"&
1/
1"4
1n
1E
1!
#286
0"4
0":
0i
0h
0!
0E
0q
0/
00
0"&
0n
0X
b00000000000000000000000001100000 4
#291
1X
1":
10
1i
1h
1q
1"&
1/
1"4
1n
1E
1!
#296
0"4
0i
0h
0!
0E
0q
0/
b00000000000000000000000001100100 4
0n
0":
b00000000000100001000000010110011 ~
00
0"&
0X
#301
1X
1":
10
1i
1h
1q
1"&
1/
1"4
1n
1E
1!
#306
0"4
0i
0h
0!
b00000000000000000000000001101000 4
0E
0q
0/
b00000000000000000000000000010011 ~
0n
0":
00
0"&
0X
#311
1X
1":
10
1i
1h
1q
1"&
1/
1"4
1n
1E
1!
#316
0"4
0":
0i
0h
0!
0E
0q
0/
b00000000000000000000000001101100 4
00
0"&
0n
0X
#321
1X
1":
10
1i
1h
1q
1"&
1/
1"4
1n
1E
1!
#326
0"4
0":
0i
0h
0!
0E
0q
0/
00
b00000000000000000000000001110000 4
0"&
0n
0X
#331
1X
1":
10
1i
1h
1q
1"&
1/
1"4
1n
1E
1!
#336
0"4
0":
0i
0h
0!
0E
0q
0/
b00000000000000000000000001110100 4
00
0"&
0n
0X
#341
1X
1":
10
1i
1h
1q
1"&
1/
1"4
1n
1E
1!
#346
0"4
0i
0h
0!
0E
0q
0/
0n
0":
b00000000000000000000000001111000 4
b00000000000000001010000010000011 ~
00
0"&
0X
#351
1X
1":
10
1i
1h
1q
1"&
1/
1"4
1n
1E
1!
#356
0"4
0i
0h
0!
0E
0q
b00000000000000000000000001111100 4
0/
b00000000000000000000000000010011 ~
0n
0":
00
0"&
0X
#361
1X
1":
10
1i
1h
1q
1"&
1/
1"4
1n
1E
1!
#366
0"4
0":
0i
0h
0!
0E
0q
0/
00
0"&
0n
0X
b00000000000000000000000010000000 4
#371
1X
1":
10
1i
1h
1q
1"&
1/
1"4
1n
1E
1!
#376
0"4
0":
0i
0h
0!
0E
0q
0/
00
0"&
0n
0X
b00000000000000000000000010000100 4
#381
1X
1":
10
1i
1h
1q
1"&
1/
1"4
1n
1E
1!
#386
0"4
0":
0i
0h
0!
0E
0q
b00000000000000000000000010001000 4
0/
00
0"&
0n
0X
#391
1X
1":
10
1i
1h
1q
1"&
1/
1"4
1n
1E
1!
#396
0"4
0i
0h
0!
0E
0q
0/
0n
b00000000000100001010001000100011 ~
0":
b00000000000000000000000010001100 4
00
0"&
0X
#401
1X
1":
10
1i
1h
1q
1"&
1/
1"4
1n
1E
1!
#406
0"4
0i
0h
0!
0E
0q
0/
b00000000000000000000000000010011 ~
0n
0":
00
b00000000000000000000000010010000 4
0"&
0X
#411
1X
1":
10
1i
1h
1q
1"&
1/
1"4
1n
1E
1!
#416
0"4
0":
0i
0h
0!
0E
0q
0/
b00000000000000000000000010010100 4
00
0"&
0n
0X
#421
1X
1":
10
1i
1h
1q
1"&
1/
1"4
1n
1E
1!
#426
0"4
0":
0i
0h
b00000000000000000000000010011000 4
0!
0E
0q
0/
00
0"&
0n
0X
#431
1X
1":
10
1i
1h
1q
1"&
1/
1"4
1n
1E
1!
#436
0"4
0":
0i
0h
0!
0E
0q
0/
b00000000000000000000000010011100 4
00
0"&
0n
0X
#441
1X
1":
10
1i
1h
1q
1"&
1/
1"4
1n
1E
1!
#446
0"4
0i
0h
0!
0E
0q
0/
0n
0":
b00000000000000000000000010100000 4
00
0"&
b00000000010000001010000010000011 ~
0X
#451
1X
1":
10
1i
1h
1q
1"&
1/
1"4
1n
1E
1!
#456
0"4
0i
0h
0!
0E
0q
0/
b00000000000000000000000000010011 ~
0n
0":
00
b00000000000000000000000010100100 4
0"&
0X
#461
1X
1":
10
1i
1h
1q
1"&
1/
1"4
1n
1E
1!
#466
0"4
0":
0i
0h
0!
0E
0q
0/
b00000000000000000000000010101000 4
00
0"&
0n
0X
#471
1X
1":
10
1i
1h
1q
1"&
1/
1"4
1n
1E
1!
#476
0"4
0":
0i
0h
0!
0E
0q
b00000000000000000000000010101100 4
0/
00
0"&
0n
0X
#481
1X
1":
10
1i
1h
1q
1"&
1/
1"4
1n
1E
1!
#486
0"4
0":
0i
0h
b00000000000000000000000010110000 4
0!
0E
0q
0/
00
0"&
0n
0X
#491
1X
1":
10
1i
1h
1q
1"&
1/
1"4
1n
1E
1!
#496
0"4
0":
0i
0h
0!
0E
0q
b00000000000000000000000010110100 4
0/
00
0"&
0n
0X
#501
1X
1":
10
1i
1h
1q
1"&
1/
1"4
1n
1E
1!
#506
0"4
0":
0i
b00000000000000000000000010111000 4
0h
0!
0E
0q
0/
00
0"&
0n
0X
#511
1X
1":
10
1i
1h
1q
1"&
1/
1"4
1n
1E
1!
#516
0"4
0":
0i
0h
0!
0E
0q
0/
00
b00000000000000000000000010111100 4
0"&
0n
0X
#521
1X
1":
10
1i
1h
1q
1"&
1/
1"4
1n
1E
1!
#526
0"4
0":
0i
0h
0!
b00000000000000000000000011000000 4
0E
0q
0/
00
0"&
0n
0X
#531
1X
1":
10
1i
1h
1q
1"&
1/
1"4
1n
1E
1!
#536
0"4
0":
0i
0h
0!
0E
0q
b00000000000000000000000011000100 4
0/
00
0"&
0n
0X
#541
1X
1":
10
1i
1h
1q
1"&
1/
1"4
1n
1E
1!
#546
0i
b01110 y
0h
0!
b01110 k
b01110 a
b01110 M
0n
1*
1""
1#
1@
12
17
1e
00
b01110 j
b01110 L
0"&
0"4
b01110 .
b00000000000000000000111111111100 4
0E
0q
b00000000000000000000000000000000 ~
1%
0/
1"
b01110 N
0":
b01110 w
b01110 m
1<
1b
1C
0X
b01110 O
#551
1!
10
1i
b01110 S
1q
1":
1(
1h
1"&
1/
1"4
1n
1E
1X
#556
0"4
0i
0h
b01010 .
0!
b01010 M
b01010 k
b01010 O
0E
0q
0/
b01010 L
0n
b01010 y
b01010 a
b01010 w
0":
00
b01010 N
b01010 j
0"&
b01010 m
0X
#561
1X
1":
10
1i
1h
1q
1"&
1/
b01010 S
1"4
1n
1E
1!
#566
0"4
0i
b10001 w
0h
0!
b10001 .
b10001 j
0E
0q
b10001 L
0/
b10001 M
b10001 N
0n
b10001 k
0":
b10001 m
b10001 O
b10001 y
00
b10001 a
0"&
0X
#571
1X
1":
10
1i
1h
1q
b10001 S
1"&
1/
1"4
1n
1E
1!
#576
0"4
0i
0h
0!
b00000 N
b00000 a
0E
0q
b00000 k
0#
0/
b00000 L
0n
b00000 .
b00000 y
0":
0b
b00000 m
b00000 O
0e
00
b00000 M
0"&
b00000 w
b00000 j
0X
#581
1!
10
1i
0(
1q
1":
1h
b00000 S
1"&
1/
1"4
1n
1E
1X
#586
b00100 a
0"4
0i
b00100 N
0h
0!
0E
0q
b00100 .
0/
b00100 M
b00100 L
0n
0":
1#
b00100 j
1b
b00100 m
b00100 w
1e
00
b00100 k
b00100 O
0"&
b00100 y
0X
#591
1!
10
1i
1q
1":
1(
1h
b00100 S
1"&
1/
1"4
1n
1E
1X
#596
0"4
0i
0h
b11000 k
0!
b11000 M
0E
0q
b11000 .
0/
b11000 y
b11000 a
0n
b11000 m
b11000 L
b11000 j
0":
b11000 N
b11000 w
00
b11000 O
0"&
0X
#601
1X
1":
10
1i
1h
b11000 S
1q
1"&
1/
1"4
1n
1E
1!
#606
b00110 M
0"4
0i
0h
0!
b00110 m
b00110 y
b00110 O
0E
0q
b00110 a
0/
b00110 L
b00110 w
0n
b00110 k
b00110 j
0":
b00110 .
00
0"&
0X
b00110 N
#611
1X
1":
10
1i
1h
1q
1"&
1/
1"4
b00110 S
1n
1E
1!
#616
0"4
0i
0h
b10100 .
0!
b10100 L
0E
0q
b10100 m
0/
b10100 N
0n
b10100 a
0":
b10100 y
b10100 M
b10100 w
00
0"&
b10100 k
0X
b10100 j
b10100 O
#621
1X
1":
10
1i
1h
1q
1"&
1/
1"4
b10100 S
1n
1E
1!
#626
0"4
b00111 L
0i
b00111 a
0h
0!
b00111 M
0E
0q
0/
b00111 N
0n
0":
b00111 k
b00111 w
b00111 y
b00111 j
00
b00111 O
0"&
0X
b00111 m
b00111 .
#631
1X
1":
10
b00111 S
1i
1h
1q
1"&
1/
1"4
1n
1E
1!
#636
b00001 y
0"4
b00001 m
0i
0h
0!
b00001 j
0E
0q
0/
0n
b00001 k
b00001 a
0":
b00001 N
b00001 w
b00001 .
b00001 L
00
b00001 O
0"&
0X
b00001 M
#641
1X
1":
10
1i
1h
b00001 S
1q
1"&
1/
1"4
1n
1E
1!
#646
0"4
b11011 N
0i
0h
b11011 O
0!
b11011 k
b11011 L
b11011 .
0E
0q
0/
b11011 j
b11011 a
0n
0":
b11011 w
b11011 y
b11011 M
00
0"&
b11011 m
0X
#651
1X
1":
10
1i
1h
1q
1"&
1/
b11011 S
1"4
1n
1E
1!
#656
0"4
0i
0h
0!
b01101 j
0E
0q
b01101 N
0/
b01101 .
b01101 m
b01101 k
0n
0":
b01101 L
b01101 O
b01101 w
b01101 a
00
b01101 M
0"&
0X
b01101 y
#661
1X
1":
10
1i
b01101 S
1h
1q
1"&
1/
1"4
1n
1E
1!
#666
0"4
0i
0h
0!
b01011 m
0E
0q
b01011 O
b01011 w
0/
b01011 k
b01011 M
b01011 j
b01011 y
0n
b01011 L
0":
b01011 N
b01011 a
00
0"&
0X
b01011 .
#671
1X
1":
10
b01011 S
1i
1h
1q
1"&
1/
1"4
1n
1E
1!
#676
0"4
0i
0h
0!
0E
0q
b01100 .
0/
b01100 N
0n
b01100 L
b01100 j
0":
b01100 m
b01100 y
b01100 M
b01100 k
b01100 O
00
b01100 a
0"&
b01100 w
0X
#681
1X
1":
10
1i
1h
b01100 S
1q
1"&
1/
1"4
1n
1E
1!
#686
0"4
0i
b00011 L
0h
0!
0E
0q
0/
b00011 y
b00011 .
b00011 j
b00011 m
0n
b00011 k
b00011 M
0":
b00011 w
b00011 O
b00011 N
b00011 a
00
0"&
0X
#691
1X
1":
10
b00011 S
1i
1h
1q
1"&
1/
1"4
1n
1E
1!
#696
0"4
b00101 M
0i
0h
b00101 k
0!
b00101 w
0E
0q
0/
b00101 j
b00101 m
0n
0":
b00101 L
b00101 O
00
b00101 N
0"&
b00101 .
b00101 a
0X
b00101 y
#701
1X
1":
10
b00101 S
1i
1h
1q
1"&
1/
1"4
1n
1E
1!
#706
0"4
0i
0h
0!
0E
0q
0/
b10011 w
b10011 N
0n
b10011 a
b10011 .
0":
b10011 y
b10011 O
b10011 L
b10011 M
00
b10011 k
0"&
0X
b10011 j
b10011 m
#711
1X
1":
10
b10011 S
1i
1h
1q
1"&
1/
1"4
1n
1E
1!
#716
b10111 j
0"4
0i
0h
0!
0E
0q
0/
b10111 M
0n
b10111 N
0":
b10111 k
b10111 O
b10111 .
b10111 w
00
b10111 y
b10111 a
b10111 L
0"&
0X
b10111 m
#721
1X
1":
10
1i
1h
1q
1"&
1/
1"4
1n
b10111 S
1E
1!
#726
0"4
b01111 k
0i
b01111 O
0h
b01111 y
0!
0E
0q
b01111 a
0/
b01111 j
b01111 L
0n
b01111 .
0":
b01111 N
b01111 w
b01111 M
00
0"&
b01111 m
0X
#731
1!
1X
1":
10
1i
1h
1q
1"&
1/
1"4
1n
1E
b01111 S
#736
0"4
0i
0h
0!
0E
0q
b01000 L
0/
b01000 w
b01000 .
b01000 a
0n
0":
b01000 y
b01000 M
b01000 O
b01000 N
b01000 j
b01000 k
00
0"&
b01000 m
0X
#741
1X
1":
b01000 S
10
1i
1h
1q
1"&
1/
1"4
1n
1E
1!
#746
0"4
b01001 O
0i
0h
b01001 k
0!
b01001 .
0E
0q
0/
b01001 y
b01001 L
b01001 m
0n
b01001 j
b01001 w
b01001 a
0":
b01001 N
00
0"&
b01001 M
0X
#751
1X
1":
10
1i
1h
1q
1"&
1/
b01001 S
1"4
1n
1E
1!
#756
0"4
0i
0h
0!
0E
0q
b10101 M
b10101 y
0/
b10101 w
b10101 a
0n
b10101 N
0":
b10101 .
b10101 k
b10101 m
b10101 O
b10101 j
00
0"&
0X
b10101 L
#761
1X
b10101 S
1":
10
1i
1h
1q
1"&
1/
1"4
1n
1E
1!
#766
0"4
0i
b11100 m
0h
0!
b11100 L
0E
0q
0/
b11100 a
b11100 y
0n
b11100 k
b11100 j
b11100 M
0":
b11100 w
b11100 N
b11100 O
00
0"&
b11100 .
0X
#771
1X
1":
10
1i
1h
1q
1"&
1/
b11100 S
1"4
1n
1E
1!
#776
b10000 a
0"4
0i
0h
b10000 O
0!
0E
0q
b10000 j
0/
b10000 y
b10000 m
b10000 w
0n
b10000 M
0":
b10000 .
b10000 N
b10000 k
00
0"&
0X
b10000 L
#781
1X
1":
10
1i
1h
1q
1"&
1/
b10000 S
1"4
1n
1E
1!
#786
0"4
0i
0h
0!
0E
0q
0/
b10010 k
b10010 w
0n
b10010 N
b10010 y
b10010 a
b10010 m
0":
b10010 .
b10010 L
b10010 j
00
b10010 O
0"&
0X
b10010 M
#791
1X
1":
10
b10010 S
1i
1h
1q
1"&
1/
1"4
1n
1E
1!
#796
0"4
b11010 N
0i
0h
b11010 w
0!
0E
0q
b11010 k
0/
b11010 O
b11010 y
0n
b11010 M
0":
b11010 L
b11010 .
b11010 j
b11010 m
00
0"&
0X
b11010 a
#801
1X
1":
10
1i
1h
1q
1"&
1/
1"4
1n
b11010 S
1E
1!
#806
b11111 k
0"4
b11111 N
0i
0h
0!
b11111 m
0E
0q
b11111 O
0/
b11111 .
b11111 a
0n
b11111 j
b11111 M
0":
b11111 L
00
b11111 w
0"&
b11111 y
0X
#811
1X
1":
10
1i
1h
1q
1"&
1/
b11111 S
1"4
1n
1E
1!
#816
0i
0h
0!
b00010 k
b00010 m
0n
b00000000000000000000010000000000 K
b00000000000000000000010000000000 "=
b00010 O
00
0"&
b00010 j
b00010 w
0"4
b00000000000000000000010000000000 "5
b00010 M
b00010 L
0E
0q
b00000000000000000000010000000000 "8
0/
b00000000000000000000010000000000 H
b00010 a
b00010 y
b00010 .
b00000000000000000000010000000000 "A
0":
b00000000000000000000010000000000 ,
b00000000000000000000010000000000 _
b00000000000000000000010000000000 `
b00010 N
0X
#821
1!
b00000000000000000000010000000000 =
b00010 S
10
1i
b00000000000000000000010000000000 "$
b00000000000000000000010000000000 P
1q
1":
1h
b00000000000000000000010000000000 +
1"&
1/
b00000000000000000000010000000000 1
1"4
1n
1E
b00000000000000000000010000000000 ".
1X
#826
b11101 O
b11101 j
0i
b11101 .
0h
b00000000000000000000000000000000 "=
0!
b11101 N
b00000000000000000000000000000000 H
b00000000000000000000000000000000 +
b00000000000000000000000000000000 _
0n
b00000000000000000000000000000000 K
b11101 a
b00000000000000000000000000000000 P
b00000000000000000000000000000000 "8
b00000000000000000000000000000000 "5
b11101 L
b00000000000000000000000000000000 ".
00
0"&
0"4
b00000000000000000000000000000000 =
0E
0q
0/
b00000000000000000000000000000000 "A
b11101 w
b00000000000000000000000000000000 1
b11101 y
0":
b11101 k
b11101 M
b11101 m
b00000000000000000000000000000000 ,
0X
b00000000000000000000000000000000 `
#831
1!
10
1i
1q
1":
b00000000000000000000000000000000 "$
1h
1"&
1/
b11101 S
1"4
1n
1E
1X
#836
0"4
b11001 O
0i
b11001 w
0h
b11001 j
0!
0E
0q
0/
0n
b11001 M
b11001 m
b11001 a
0":
b11001 k
b11001 N
b11001 .
b11001 L
b11001 y
00
0"&
0X
#841
1X
1":
b11001 S
10
1i
1h
1q
1"&
1/
1"4
1n
1E
1!
