waveforms/palindrome.s.vcd
$date
2025-09-08T08:14+0000
$end
$version
0.2
$end
$comment

$end
$timescale 1ns  $end
$scope module Tile $end
 $var wire 1 * io_regsWriteEnable $end
 $var wire 32 + io_regsReadData $end
 $var wire 32 4 io_IMEMAddress $end
 $var wire 1 < io_regsDeviceWriteEnable $end
 $var wire 32 I io_DMEMAddress $end
 $var wire 32 Z io_DMEMWriteData $end
 $var wire 1 ] CPU $end
 $var wire 32 _ io_regsDeviceWriteData $end
 $var wire 5 a io_regsDeviceWriteAddress $end
 $var wire 1 i clock $end
 $var wire 32 l io_currentPC $end
 $var wire 5 m io_regsAddress $end
 $var wire 1 u io_DMEMWriteEnable $end
 $var wire 32 v io_memDeviceWriteAddress $end
 $var wire 32 ~ io_IMEMWriteData $end
 $var wire 32 "! io_memDeviceWriteData $end
 $var wire 32 ") io_DMEMReadData $end
 $var wire 1 ", reset $end
 $var wire 1 "2 io_setup $end
 $var wire 1 "7 io_memDeviceWriteEnable $end
 $var wire 32 "A io_regsWriteData $end
  $scope module CPU.MEM $end
  $upscope $end
  $scope module CPU.ID.registers $end
  $upscope $end
  $scope module CPU.IF $end
  $upscope $end
  $scope module CPU.IF.IMEM $end
  $upscope $end
  $scope module CPU.MEM.DMEM $end
  $upscope $end
  $scope module CPU $end
   $var wire 1 2 testHarness_regUpdates_writeEnable $end
   $var wire 1 > ID $end
   $var wire 1 D testHarness_memUpdates_writeEnable $end
   $var wire 32 K testHarness_regUpdates_writeData $end
   $var wire 5 L testHarness_regUpdates_writeAddress $end
   $var wire 5 M testHarness_setupSignals_registerSignals_readAddress $end
   $var wire 32 P testHarness_testReadouts_registerRead $end
   $var wire 32 T testHarness_currentPC $end
   $var wire 1 W IF $end
   $var wire 32 [ testHarness_memUpdates_writeAddress $end
   $var wire 1 ^ testHarness_setupSignals_DMEMsignals_setup $end
   $var wire 32 d testHarness_testReadouts_DMEMread $end
   $var wire 32 f testHarness_setupSignals_DMEMsignals_dataIn $end
   $var wire 1 g testHarness_setupSignals_IMEMsignals_setup $end
   $var wire 1 q clock $end
   $var wire 32 s testHarness_setupSignals_DMEMsignals_dataAddress $end
   $var wire 1 x testHarness_setupSignals_registerSignals_setup $end
   $var wire 1 { MEM $end
   $var wire 1 "" testHarness_setupSignals_registerSignals_writeEnable $end
   $var wire 32 "6 testHarness_memUpdates_writeData $end
   $var wire 32 "= testHarness_setupSignals_registerSignals_writeData $end
   $var wire 1 "@ reset $end
   $var wire 1 "B testHarness_setupSignals_DMEMsignals_writeEnable $end
    $scope module MEM $end
     $var wire 1 8 DMEM $end
     $var wire 32 ; testHarness_testUpdates_writeAddress $end
     $var wire 32 U testHarness_DMEMsetup_dataAddress $end
     $var wire 1 p testHarness_testUpdates_writeEnable $end
     $var wire 1 z testHarness_DMEMsetup_writeEnable $end
     $var wire 32 } testHarness_DMEMpeek $end
     $var wire 1 "* testHarness_DMEMsetup_setup $end
     $var wire 32 "0 testHarness_testUpdates_writeData $end
     $var wire 1 "4 clock $end
     $var wire 32 "> testHarness_DMEMsetup_dataIn $end
      $scope module DMEM $end
       $var wire 32 & testHarness_testUpdates_writeData $end
       $var wire 1 ) _GEN_6 $end
       $var wire 12 - data__T_24_addr_pipe_0 $end
       $var wire 1 6 testHarness_testUpdates_writeEnable $end
       $var wire 32 : testHarness_setup_dataAddress $end
       $var wire 32 ? testHarness_testUpdates_writeAddress $end
       $var wire 32 F addressSource $end
       $var wire 32 J data $end
       $var wire 1 r testHarness_setup_writeEnable $end
       $var wire 1 t testHarness_setup_setup $end
       $var wire 1 "& clock $end
       $var wire 32 "+ testHarness_setup_dataIn $end
       $var wire 32 "9 io_dataOut $end
        $scope module data $end
          $scope module _T_26 $end
           $var wire 1 ! clk $end
           $var wire 12 B addr $end
           $var wire 32 G pipeline_data_0 $end
           $var wire 1 \ pipeline_valid_0 $end
           $var wire 32 c data $end
           $var wire 1 "# en $end
           $var wire 12 "' pipeline_addr_0 $end
           $var wire 1 "- valid $end
           $var wire 1 "< mask $end
          $upscope $end
          $scope module _T_24 $end
           $var wire 32 5 data $end
           $var wire 1 h clk $end
           $var wire 1 "% en $end
           $var wire 12 "( addr $end
          $upscope $end
        $upscope $end
      $upscope $end
    $upscope $end
    $scope module ID $end
     $var wire 1 " testHarness_registerSetup_writeEnable $end
     $var wire 32 = testHarness_registerPeek $end
     $var wire 1 C testHarness_testUpdates_writeEnable $end
     $var wire 32 H testHarness_registerSetup_writeData $end
     $var wire 5 N testHarness_testUpdates_writeAddress $end
     $var wire 5 k testHarness_registerSetup_readAddress $end
     $var wire 1 o registers $end
     $var wire 1 "3 testHarness_registerSetup_setup $end
     $var wire 32 "5 testHarness_testUpdates_writeData $end
     $var wire 1 ": clock $end
      $scope module registers $end
       $var wire 1 % testHarness_testUpdates_writeEnable $end
       $var wire 1 ' testHarness_setup_setup $end
       $var wire 32 , testHarness_testUpdates_writeData $end
       $var wire 5 . readAddress1 $end
       $var wire 1 0 clock $end
       $var wire 32 1 io_readData1 $end
       $var wire 32 3 registerFile $end
       $var wire 1 7 testHarness_setup_writeEnable $end
       $var wire 1 @ writeEnable $end
       $var wire 5 O testHarness_testUpdates_writeAddress $end
       $var wire 32 ` testHarness_setup_writeData $end
       $var wire 5 y testHarness_setup_readAddress $end
        $scope module registerFile $end
          $scope module _T_33 $end
           $var wire 1 # en $end
           $var wire 1 ( pipeline_valid_0 $end
           $var wire 1 / clk $end
           $var wire 5 S pipeline_addr_0 $end
           $var wire 1 V mask $end
           $var wire 1 e valid $end
           $var wire 5 w addr $end
           $var wire 32 "$ pipeline_data_0 $end
           $var wire 32 "8 data $end
          $upscope $end
          $scope module _T_41 $end
           $var wire 32 A data $end
           $var wire 1 R en $end
           $var wire 1 n clk $end
           $var wire 5 "1 addr $end
          $upscope $end
          $scope module _T_38 $end
           $var wire 1 E clk $end
           $var wire 1 b en $end
           $var wire 5 j addr $end
           $var wire 32 ". data $end
          $upscope $end
        $upscope $end
      $upscope $end
    $upscope $end
    $scope module IF $end
     $var wire 1 $ testHarness_IMEMsetup_setup $end
     $var wire 1 9 IMEM $end
     $var wire 32 Q PC $end
     $var wire 1 X clock $end
     $var wire 32 Y testHarness_PC $end
     $var wire 1 | reset $end
     $var wire 32 "? _GEN_0 $end
      $scope module IMEM $end
       $var wire 32 "/ testHarness_requestedAddress $end
       $var wire 32 "; io_instructionAddress $end
      $upscope $end
    $upscope $end
  $upscope $end
  $scope module CPU.ID $end
  $upscope $end
$upscope $end
$enddefinitions $end
$dumpvars
0X
b00000000000000000000000000000000 Y
0"7
0""
1"<
0C
0o
b00000000000000000000000000000000 ">
0R
b00000000000000000000000000000000 "8
b00000000000000000000000000000000 l
b00000000000000000000000000000000 :
b00000000000000000000000000000000 Q
b00000000000000000000000000000000 }
0g
b00000000000000000000000000000000 `
b00000000000000000000000000000000 K
b00000000000000000000000000000000 ".
b000000000000 "(
0"@
0D
0/
0"#
0x
0":
b00000 S
0z
0r
0]
1)
b00000000000000000000000000000000 s
b00000 j
b00000000000000000000000000000000 A
0@
0W
b00000000000000000000000000000000 ;
0%
b00000 O
b000000000000 -
b00000000000000000000000000000000 "=
b00000000000000000000000000000000 Z
0p
b00000000000000000000000000000000 T
b00000000000000000000000000000000 ?
0"2
0>
06
0!
b00000 .
b00000000000000000000000000000000 "9
0"4
b00000 y
b00000000000000000000000000000000 P
b00000000000000000000000000000000 3
0{
b00000000000000000000000000000000 "5
b00000000000000000000000000000000 J
b000000000000 "'
b00000000000000000000000000000000 "/
0"*
0b
0E
00
0(
b00000000000000000000000000000000 "+
b00000000000000000000000000000000 _
1V
0u
b00000000000000000000000000000000 [
b00000000000000000000000000000000 "6
b00000000000000000000000000000000 "!
0q
0i
b00000000000000000000000000000000 U
0"3
b00000 a
b00000 L
0"
07
09
0"-
b00000000000000000000000000000000 f
0e
b00000 "1
b00000000000000000000000000000000 I
b00000000000000000000000000000000 4
0|
b00000000000000000000000000000000 "0
b00000000000000000000000000000000 d
0"B
b00000000000000000000000000000000 G
b00000000000000000000000000000000 "A
b00000000000000000000000000000000 "$
b00000000000000000000000000000000 ,
b00000 M
0t
b00000000000000000000000000000000 ";
b00000000000000000000000000000000 &
0n
0<
0'
b00000000000000000000000000000000 =
b00000000000000000000000000000000 "?
b00000 w
08
0#
0",
02
b000000000000 B
b00000000000000000000000000000000 5
b00000000000000000000000000000000 ~
0h
b00000 m
b00000000000000000000000000000000 c
b00000000000000000000000000000000 ")
b00000000000000000000000000000000 F
b00000000000000000000000000000000 1
0\
b00000000000000000000000000000000 H
0"&
0*
b00000000000000000000000000000000 +
0^
b00000 k
1"%
0$
b00000 N
b00000000000000000000000000000000 v
$end
#0
1"@
1|
1",
#1
1q
1X
1!
1i
1n
1E
1":
1"&
1h
1/
1"4
10
#6
0h
0n
0"4
00
0i
0q
0"&
0E
0":
0/
0!
0X
#11
1q
1X
1!
1i
1n
1E
1":
1"&
1h
1/
1"4
10
#16
0h
0n
0"4
00
0i
0q
0"&
0E
0":
0/
0!
0X
#21
1q
1X
1!
1i
1n
1E
1":
1"&
1h
1/
1"4
10
#26
0h
0n
0"4
00
0i
0q
0"&
0E
0":
0/
0!
0X
#31
1q
1X
1!
1i
1n
1E
1":
1"&
1h
1/
1"4
10
#36
0h
0n
0"4
00
0i
0q
0"&
0E
0":
0/
0!
0X
#41
1q
1X
1!
1i
1n
1E
1":
1"&
1h
1/
1"4
10
#46
1"3
0n
b11111110000000010000000100010011 ~
00
0i
0q
0"&
1t
0E
0/
1"*
0X
1^
0h
1'
0",
1$
0"4
1"2
0|
1g
0"@
0":
0!
1x
#51
1q
1X
1!
1i
1n
1E
1":
1"&
1h
1/
1"4
10
#56
0n
00
0i
0q
0"&
0E
0/
0X
b00000000000000000000000000000100 4
b00000000000000000000000000010011 ~
0h
0"4
0":
0!
#61
1q
1X
1!
1i
1n
1E
1":
1"&
1h
1/
1"4
10
#66
b00000000000000000000000000001000 4
0h
0n
0"4
00
0i
0q
0"&
0E
0":
0/
0!
0X
#71
1q
1X
1!
1i
1n
1E
1":
1"&
1h
1/
1"4
10
#76
0h
0n
b00000000000000000000000000001100 4
0"4
00
0i
0q
0"&
0E
0":
0/
0!
0X
#81
1q
1X
1!
1i
1n
1E
1":
1"&
1h
1/
1"4
10
#86
0h
0n
0"4
00
0i
0q
0"&
0E
0":
0/
0!
b00000000000000000000000000010000 4
0X
#91
1q
1X
1!
1i
1n
1E
1":
1"&
1h
1/
1"4
10
#96
0n
00
0i
0q
0"&
0E
0/
0X
0h
b00000000000100010010111000100011 ~
0"4
0":
b00000000000000000000000000010100 4
0!
#101
1q
1X
1!
1i
1n
1E
1":
1"&
1h
1/
1"4
10
#106
0n
00
0i
0q
b00000000000000000000000000011000 4
0"&
0E
0/
0X
b00000000000000000000000000010011 ~
0h
0"4
0":
0!
#111
1q
1X
1!
1i
1n
1E
1":
1"&
1h
1/
1"4
10
#116
0h
0n
0"4
00
0i
0q
0"&
b00000000000000000000000000011100 4
0E
0":
0/
0!
0X
#121
1q
1X
1!
1i
1n
1E
1":
1"&
1h
1/
1"4
10
#126
0h
0n
0"4
b00000000000000000000000000100000 4
00
0i
0q
0"&
0E
0":
0/
0!
0X
#131
1q
1X
1!
1i
1n
1E
1":
1"&
1h
1/
1"4
10
#136
0h
0n
0"4
00
0i
0q
0"&
0E
0":
0/
b00000000000000000000000000100100 4
0!
0X
#141
1q
1X
1!
1i
1n
1E
1":
1"&
1h
1/
1"4
10
#146
0n
00
0i
0q
0"&
0E
0/
0X
b00000000000000000000000000101000 4
0h
0"4
0":
b00000000100000010010110000100011 ~
0!
#151
1q
1X
1!
1i
1n
1E
1":
1"&
1h
1/
1"4
10
#156
0n
00
0i
0q
0"&
0E
0/
0X
b00000000000000000000000000010011 ~
0h
0"4
0":
0!
b00000000000000000000000000101100 4
#161
1q
1X
1!
1i
1n
1E
1":
1"&
1h
1/
1"4
10
#166
0h
0n
0"4
00
0i
0q
0"&
0E
0":
0/
0!
0X
b00000000000000000000000000110000 4
#171
1q
1X
1!
1i
1n
1E
1":
1"&
1h
1/
1"4
10
#176
0h
0n
0"4
00
0i
0q
0"&
0E
0":
0/
0!
0X
b00000000000000000000000000110100 4
#181
1q
1X
1!
1i
1n
1E
1":
1"&
1h
1/
1"4
10
#186
0h
0n
b00000000000000000000000000111000 4
0"4
00
0i
0q
0"&
0E
0":
0/
0!
0X
#191
1q
1X
1!
1i
1n
1E
1":
1"&
1h
1/
1"4
10
#196
0n
00
0i
0q
0"&
0E
0/
0X
b00000000000000000000000000111100 4
0h
0"4
b00000010000000010000010000010011 ~
0":
0!
#201
1q
1X
1!
1i
1n
1E
1":
1"&
1h
1/
1"4
10
#206
0n
b00000000000000000000000001000000 4
00
0i
0q
0"&
0E
0/
0X
b00000000000000000000000000010011 ~
0h
0"4
0":
0!
#211
1q
1X
1!
1i
1n
1E
1":
1"&
1h
1/
1"4
10
#216
b00000000000000000000000001000100 4
0h
0n
0"4
00
0i
0q
0"&
0E
0":
0/
0!
0X
#221
1q
1X
1!
1i
1n
1E
1":
1"&
1h
1/
1"4
10
#226
0h
0n
0"4
00
0i
0q
b00000000000000000000000001001000 4
0"&
0E
0":
0/
0!
0X
#231
1q
1X
1!
1i
1n
1E
1":
1"&
1h
1/
1"4
10
#236
0h
0n
b00000000000000000000000001001100 4
0"4
00
0i
0q
0"&
0E
0":
0/
0!
0X
#241
1q
1X
1!
1i
1n
1E
1":
1"&
1h
1/
1"4
10
#246
0n
00
0i
0q
0"&
0E
0/
0X
0h
0"4
b11111110000001000010011000100011 ~
b00000000000000000000000001010000 4
0":
0!
#251
1q
1X
1!
1i
1n
1E
1":
1"&
1h
1/
1"4
10
#256
0n
00
0i
0q
0"&
0E
0/
0X
b00000000000000000000000000010011 ~
0h
0"4
0":
0!
b00000000000000000000000001010100 4
#261
1q
1X
1!
1i
1n
1E
1":
1"&
1h
1/
1"4
10
#266
0h
0n
0"4
b00000000000000000000000001011000 4
00
0i
0q
0"&
0E
0":
0/
0!
0X
#271
1q
1X
1!
1i
1n
1E
1":
1"&
1h
1/
1"4
10
#276
0h
0n
0"4
00
0i
0q
0"&
0E
0":
0/
0!
0X
b00000000000000000000000001011100 4
#281
1q
1X
1!
1i
1n
1E
1":
1"&
1h
1/
1"4
10
#286
b00000000000000000000000001100000 4
0h
0n
0"4
00
0i
0q
0"&
0E
0":
0/
0!
0X
#291
1q
1X
1!
1i
1n
1E
1":
1"&
1h
1/
1"4
10
#296
0n
b00000010000000000000011110010011 ~
00
0i
0q
0"&
0E
0/
0X
0h
0"4
b00000000000000000000000001100100 4
0":
0!
#301
1q
1X
1!
1i
1n
1E
1":
1"&
1h
1/
1"4
10
#306
0n
00
0i
0q
0"&
0E
0/
0X
b00000000000000000000000000010011 ~
0h
0"4
b00000000000000000000000001101000 4
0":
0!
#311
1q
1X
1!
1i
1n
1E
1":
1"&
1h
1/
1"4
10
#316
0h
0n
0"4
00
0i
0q
0"&
b00000000000000000000000001101100 4
0E
0":
0/
0!
0X
#321
1q
1X
1!
1i
1n
1E
1":
1"&
1h
1/
1"4
10
#326
0h
0n
0"4
00
0i
0q
0"&
0E
0":
0/
0!
0X
b00000000000000000000000001110000 4
#331
1q
1X
1!
1i
1n
1E
1":
1"&
1h
1/
1"4
10
#336
0h
0n
0"4
b00000000000000000000000001110100 4
00
0i
0q
0"&
0E
0":
0/
0!
0X
#341
1q
1X
1!
1i
1n
1E
1":
1"&
1h
1/
1"4
10
#346
0n
00
0i
0q
0"&
b11111110111101000010010000100011 ~
0E
0/
0X
0h
0"4
b00000000000000000000000001111000 4
0":
0!
#351
1q
1X
1!
1i
1n
1E
1":
1"&
1h
1/
1"4
10
#356
0n
00
0i
0q
b00000000000000000000000001111100 4
0"&
0E
0/
0X
b00000000000000000000000000010011 ~
0h
0"4
0":
0!
#361
1q
1X
1!
1i
1n
1E
1":
1"&
1h
1/
1"4
10
#366
0h
0n
0"4
00
0i
0q
b00000000000000000000000010000000 4
0"&
0E
0":
0/
0!
0X
#371
1q
1X
1!
1i
1n
1E
1":
1"&
1h
1/
1"4
10
#376
0h
0n
0"4
00
0i
0q
0"&
0E
0":
0/
0!
b00000000000000000000000010000100 4
0X
#381
1q
1X
1!
1i
1n
1E
1":
1"&
1h
1/
1"4
10
#386
0h
0n
b00000000000000000000000010001000 4
0"4
00
0i
0q
0"&
0E
0":
0/
0!
0X
#391
1q
1X
1!
1i
1n
1E
1":
1"&
1h
1/
1"4
10
#396
0n
00
0i
0q
0"&
0E
0/
0X
0h
b00000000011100000000011000010011 ~
0"4
0":
b00000000000000000000000010001100 4
0!
#401
1q
1X
1!
1i
1n
1E
1":
1"&
1h
1/
1"4
10
#406
0n
00
0i
0q
0"&
0E
b00000000000000000000000010010000 4
0/
0X
b00000000000000000000000000010011 ~
0h
0"4
0":
0!
#411
1q
1X
1!
1i
1n
1E
1":
1"&
1h
1/
1"4
10
#416
0h
0n
0"4
00
0i
0q
0"&
0E
0":
0/
0!
b00000000000000000000000010010100 4
0X
#421
1q
1X
1!
1i
1n
1E
1":
1"&
1h
1/
1"4
10
#426
0h
0n
0"4
00
0i
0q
0"&
0E
0":
0/
0!
b00000000000000000000000010011000 4
0X
#431
1q
1X
1!
1i
1n
1E
1":
1"&
1h
1/
1"4
10
#436
0h
0n
0"4
00
0i
0q
b00000000000000000000000010011100 4
0"&
0E
0":
0/
0!
0X
#441
1q
1X
1!
1i
1n
1E
1":
1"&
1h
1/
1"4
10
#446
0n
00
0i
0q
0"&
b00000000000000000000010110010011 ~
0E
0/
0X
0h
0"4
0":
0!
b00000000000000000000000010100000 4
#451
1q
1X
1!
1i
1n
1E
1":
1"&
1h
1/
1"4
10
#456
0n
00
0i
0q
0"&
0E
0/
0X
b00000000000000000000000000010011 ~
0h
0"4
b00000000000000000000000010100100 4
0":
0!
#461
1q
1X
1!
1i
1n
1E
1":
1"&
1h
1/
1"4
10
#466
0h
0n
b00000000000000000000000010101000 4
0"4
00
0i
0q
0"&
0E
0":
0/
0!
0X
#471
1q
1X
1!
1i
1n
1E
1":
1"&
1h
1/
1"4
10
#476
0h
0n
0"4
b00000000000000000000000010101100 4
00
0i
0q
0"&
0E
0":
0/
0!
0X
#481
1q
1X
1!
1i
1n
1E
1":
1"&
1h
1/
1"4
10
#486
0h
0n
0"4
00
0i
0q
0"&
b00000000000000000000000010110000 4
0E
0":
0/
0!
0X
#491
1q
1X
1!
1i
1n
1E
1":
1"&
1h
1/
1"4
10
#496
0n
b00000000000000000000000010110100 4
00
0i
0q
0"&
0E
0/
0X
b11111110110001000010010100000011 ~
0h
0"4
0":
0!
#501
1q
1X
1!
1i
1n
1E
1":
1"&
1h
1/
1"4
10
#506
0n
00
0i
0q
0"&
0E
0/
b00000000000000000000000010111000 4
0X
b00000000000000000000000000010011 ~
0h
0"4
0":
0!
#511
1q
1X
1!
1i
1n
1E
1":
1"&
1h
1/
1"4
10
#516
0h
0n
0"4
00
0i
0q
0"&
0E
0":
0/
0!
b00000000000000000000000010111100 4
0X
#521
1q
1X
1!
1i
1n
1E
1":
1"&
1h
1/
1"4
10
#526
0h
0n
b00000000000000000000000011000000 4
0"4
00
0i
0q
0"&
0E
0":
0/
0!
0X
#531
1q
1X
1!
1i
1n
1E
1":
1"&
1h
1/
1"4
10
#536
0h
0n
0"4
b00000000000000000000000011000100 4
00
0i
0q
0"&
0E
0":
0/
0!
0X
#541
1q
1X
1!
1i
1n
1E
1":
1"&
1h
1/
1"4
10
#546
0n
00
0i
0q
0"&
0E
0/
0X
b00010101010000000000000011101111 ~
0h
0"4
b00000000000000000000000011001000 4
0":
0!
#551
1q
1X
1!
1i
1n
1E
1":
1"&
1h
1/
1"4
10
#556
0n
00
0i
0q
0"&
0E
0/
0X
b00000000000000000000000000010011 ~
b00000000000000000000000011001100 4
0h
0"4
0":
0!
#561
1q
1X
1!
1i
1n
1E
1":
1"&
1h
1/
1"4
10
#566
0h
0n
0"4
00
0i
0q
0"&
0E
0":
0/
0!
0X
b00000000000000000000000011010000 4
#571
1q
1X
1!
1i
1n
1E
1":
1"&
1h
1/
1"4
10
#576
0h
0n
0"4
b00000000000000000000000011010100 4
00
0i
0q
0"&
0E
0":
0/
0!
0X
#581
1q
1X
1!
1i
1n
1E
1":
1"&
1h
1/
1"4
10
#586
b00000000000000000000000011011000 4
0h
0n
0"4
00
0i
0q
0"&
0E
0":
0/
0!
0X
#591
1q
1X
1!
1i
1n
1E
1":
1"&
1h
1/
1"4
10
#596
b00000000000001010000011110110011 ~
0n
00
0i
0q
0"&
0E
0/
0X
b00000000000000000000000011011100 4
0h
0"4
0":
0!
#601
1q
1X
1!
1i
1n
1E
1":
1"&
1h
1/
1"4
10
#606
0n
00
0i
0q
0"&
0E
0/
0X
b00000000000000000000000000010011 ~
0h
0"4
0":
0!
b00000000000000000000000011100000 4
#611
1q
1X
1!
1i
1n
1E
1":
1"&
1h
1/
1"4
10
#616
0h
0n
0"4
b00000000000000000000000011100100 4
00
0i
0q
0"&
0E
0":
0/
0!
0X
#621
1q
1X
1!
1i
1n
1E
1":
1"&
1h
1/
1"4
10
#626
b00000000000000000000000011101000 4
0h
0n
0"4
00
0i
0q
0"&
0E
0":
0/
0!
0X
#631
1q
1X
1!
1i
1n
1E
1":
1"&
1h
1/
1"4
10
#636
0h
0n
0"4
b00000000000000000000000011101100 4
00
0i
0q
0"&
0E
0":
0/
0!
0X
#641
1q
1X
1!
1i
1n
1E
1":
1"&
1h
1/
1"4
10
#646
0n
b00000000000000000000000011110000 4
b00001010000001111000101001100011 ~
00
0i
0q
0"&
0E
0/
0X
0h
0"4
0":
0!
#651
1q
1X
1!
1i
1n
1E
1":
1"&
1h
1/
1"4
10
#656
0n
00
0i
0q
0"&
0E
0/
0X
b00000000000000000000000000010011 ~
0h
b00000000000000000000000011110100 4
0"4
0":
0!
#661
1q
1X
1!
1i
1n
1E
1":
1"&
1h
1/
1"4
10
#666
0h
0n
b00000000000000000000000011111000 4
0"4
00
0i
0q
0"&
0E
0":
0/
0!
0X
#671
1q
1X
1!
1i
1n
1E
1":
1"&
1h
1/
1"4
10
#676
0h
0n
0"4
00
0i
0q
0"&
0E
0":
0/
b00000000000000000000000011111100 4
0!
0X
#681
1q
1X
1!
1i
1n
1E
1":
1"&
1h
1/
1"4
10
#686
0h
0n
0"4
00
0i
0q
0"&
0E
0":
0/
0!
0X
b00000000000000000000000100000000 4
#691
1q
1X
1!
1i
1n
1E
1":
1"&
1h
1/
1"4
10
#696
0n
00
0i
0q
0"&
b00000000000000000000000100000100 4
0E
0/
b00000000111100000000011000010011 ~
0X
0h
0"4
0":
0!
#701
1q
1X
1!
1i
1n
1E
1":
1"&
1h
1/
1"4
10
#706
0n
00
0i
0q
0"&
0E
0/
0X
b00000000000000000000000000010011 ~
b00000000000000000000000100001000 4
0h
0"4
0":
0!
#711
1q
1X
1!
1i
1n
1E
1":
1"&
1h
1/
1"4
10
#716
0h
0n
0"4
00
0i
0q
0"&
b00000000000000000000000100001100 4
0E
0":
0/
0!
0X
#721
1q
1X
1!
1i
1n
1E
1":
1"&
1h
1/
1"4
10
#726
0h
0n
0"4
b00000000000000000000000100010000 4
00
0i
0q
0"&
0E
0":
0/
0!
0X
#731
1q
1X
1!
1i
1n
1E
1":
1"&
1h
1/
1"4
10
#736
0h
0n
b00000000000000000000000100010100 4
0"4
00
0i
0q
0"&
0E
0":
0/
0!
0X
#741
1q
1X
1!
1i
1n
1E
1":
1"&
1h
1/
1"4
10
#746
0n
00
0i
0q
0"&
b00000000000000000000010110010011 ~
0E
0/
0X
b00000000000000000000000100011000 4
0h
0"4
0":
0!
#751
1q
1X
1!
1i
1n
1E
1":
1"&
1h
1/
1"4
10
#756
0n
00
0i
0q
0"&
0E
0/
0X
b00000000000000000000000000010011 ~
0h
0"4
0":
b00000000000000000000000100011100 4
0!
#761
1q
1X
1!
1i
1n
1E
1":
1"&
1h
1/
1"4
10
#766
0h
0n
0"4
b00000000000000000000000100100000 4
00
0i
0q
0"&
0E
0":
0/
0!
0X
#771
1q
1X
1!
1i
1n
1E
1":
1"&
1h
1/
1"4
10
#776
0h
0n
0"4
00
0i
0q
0"&
0E
0":
0/
0!
b00000000000000000000000100100100 4
0X
#781
1q
1X
1!
1i
1n
1E
1":
1"&
1h
1/
1"4
10
#786
0h
0n
0"4
00
0i
0q
0"&
b00000000000000000000000100101000 4
0E
0":
0/
0!
0X
#791
1q
1X
1!
1i
1n
1E
1":
1"&
1h
1/
1"4
10
#796
b11111110100001000010010100000011 ~
0n
00
0i
0q
0"&
0E
0/
0X
0h
0"4
0":
b00000000000000000000000100101100 4
0!
#801
1q
1X
1!
1i
1n
1E
1":
1"&
1h
1/
1"4
10
#806
b00000000000000000000000100110000 4
0n
00
0i
0q
0"&
0E
0/
0X
b00000000000000000000000000010011 ~
0h
0"4
0":
0!
#811
1q
1X
1!
1i
1n
1E
1":
1"&
1h
1/
1"4
10
#816
0h
0n
0"4
00
0i
0q
0"&
0E
b00000000000000000000000100110100 4
0":
0/
0!
0X
#821
1q
1X
1!
1i
1n
1E
1":
1"&
1h
1/
1"4
10
#826
0h
0n
0"4
00
0i
0q
0"&
b00000000000000000000000100111000 4
0E
0":
0/
0!
0X
#831
1q
1X
1!
1i
1n
1E
1":
1"&
1h
1/
1"4
10
#836
0h
0n
0"4
00
0i
0q
b00000000000000000000000100111100 4
0"&
0E
0":
0/
0!
0X
#841
1q
1X
1!
1i
1n
1E
1":
1"&
1h
1/
1"4
10
#846
0n
00
0i
0q
0"&
0E
0/
0X
0h
0"4
b00000000000000000000000101000000 4
0":
0!
b00001101110000000000000011101111 ~
#851
1q
1X
1!
1i
1n
1E
1":
1"&
1h
1/
1"4
10
#856
0n
00
0i
0q
0"&
0E
0/
0X
b00000000000000000000000000010011 ~
0h
0"4
b00000000000000000000000101000100 4
0":
0!
#861
1q
1X
1!
1i
1n
1E
1":
1"&
1h
1/
1"4
10
#866
0h
0n
0"4
00
0i
0q
0"&
0E
0":
0/
b00000000000000000000000101001000 4
0!
0X
#871
1q
1X
1!
1i
1n
1E
1":
1"&
1h
1/
1"4
10
#876
0h
0n
0"4
b00000000000000000000000101001100 4
00
0i
0q
0"&
0E
0":
0/
0!
0X
#881
1q
1X
1!
1i
1n
1E
1":
1"&
1h
1/
1"4
10
#886
b00000000000000000000000101010000 4
0h
0n
0"4
00
0i
0q
0"&
0E
0":
0/
0!
0X
#891
1q
1X
1!
1i
1n
1E
1":
1"&
1h
1/
1"4
10
#896
b00000000000001010000011110110011 ~
0n
00
0i
0q
0"&
0E
0/
0X
0h
0"4
0":
0!
b00000000000000000000000101010100 4
#901
1q
1X
1!
1i
1n
1E
1":
1"&
1h
1/
1"4
10
#906
0n
00
0i
0q
0"&
0E
0/
0X
b00000000000000000000000000010011 ~
0h
b00000000000000000000000101011000 4
0"4
0":
0!
#911
1q
1X
1!
1i
1n
1E
1":
1"&
1h
1/
1"4
10
#916
0h
0n
0"4
00
0i
0q
0"&
b00000000000000000000000101011100 4
0E
0":
0/
0!
0X
#921
1q
1X
1!
1i
1n
1E
1":
1"&
1h
1/
1"4
10
#926
0h
0n
0"4
00
0i
0q
0"&
b00000000000000000000000101100000 4
0E
0":
0/
0!
0X
#931
1q
1X
1!
1i
1n
1E
1":
1"&
1h
1/
1"4
10
#936
0h
0n
0"4
b00000000000000000000000101100100 4
00
0i
0q
0"&
0E
0":
0/
0!
0X
#941
1q
1X
1!
1i
1n
1E
1":
1"&
1h
1/
1"4
10
#946
0n
00
0i
0q
0"&
0E
0/
0X
0h
b00000010000001111000111001100011 ~
b00000000000000000000000101101000 4
0"4
0":
0!
#951
1q
1X
1!
1i
1n
1E
1":
1"&
1h
1/
1"4
10
#956
0n
00
0i
0q
0"&
0E
0/
0X
b00000000000000000000000000010011 ~
0h
b00000000000000000000000101101100 4
0"4
0":
0!
#961
1q
1X
1!
1i
1n
1E
1":
1"&
1h
1/
1"4
10
#966
0h
0n
0"4
00
0i
0q
0"&
0E
b00000000000000000000000101110000 4
0":
0/
0!
0X
#971
1q
1X
1!
1i
1n
1E
1":
1"&
1h
1/
1"4
10
#976
0h
0n
0"4
00
0i
0q
0"&
0E
0":
0/
0!
0X
b00000000000000000000000101110100 4
#981
1q
1X
1!
1i
1n
1E
1":
1"&
1h
1/
1"4
10
#986
0h
0n
0"4
00
0i
0q
0"&
0E
0":
0/
b00000000000000000000000101111000 4
0!
0X
#991
1q
1X
1!
1i
1n
1E
1":
1"&
1h
1/
1"4
10
#996
0n
00
0i
0q
0"&
0E
0/
0X
0h
b00000000000100000000011110010011 ~
0"4
0":
0!
b00000000000000000000000101111100 4
#1001
1q
1X
1!
1i
1n
1E
1":
1"&
1h
1/
1"4
10
#1006
0n
00
0i
0q
0"&
0E
0/
0X
b00000000000000000000000000010011 ~
0h
0"4
0":
b00000000000000000000000110000000 4
0!
#1011
1q
1X
1!
1i
1n
1E
1":
1"&
1h
1/
1"4
10
#1016
b00000000000000000000000110000100 4
0h
0n
0"4
00
0i
0q
0"&
0E
0":
0/
0!
0X
#1021
1q
1X
1!
1i
1n
1E
1":
1"&
1h
1/
1"4
10
#1026
0h
0n
b00000000000000000000000110001000 4
0"4
00
0i
0q
0"&
0E
0":
0/
0!
0X
#1031
1q
1X
1!
1i
1n
1E
1":
1"&
1h
1/
1"4
10
#1036
0h
0n
b00000000000000000000000110001100 4
0"4
00
0i
0q
0"&
0E
0":
0/
0!
0X
#1041
1q
1X
1!
1i
1n
1E
1":
1"&
1h
1/
1"4
10
