waveforms/searchRegularO0.s.vcd
$date
2025-09-08T08:14+0000
$end
$version
0.2
$end
$comment

$end
$timescale 1ns  $end
$scope module Tile $end
 $var wire 1 * io_regsWriteEnable $end
 $var wire 32 + io_regsReadData $end
 $var wire 32 4 io_IMEMAddress $end
 $var wire 1 < io_regsDeviceWriteEnable $end
 $var wire 32 I io_DMEMAddress $end
 $var wire 32 Z io_DMEMWriteData $end
 $var wire 1 ] CPU $end
 $var wire 32 _ io_regsDeviceWriteData $end
 $var wire 5 a io_regsDeviceWriteAddress $end
 $var wire 1 i clock $end
 $var wire 32 l io_currentPC $end
 $var wire 5 m io_regsAddress $end
 $var wire 1 u io_DMEMWriteEnable $end
 $var wire 32 v io_memDeviceWriteAddress $end
 $var wire 32 ~ io_IMEMWriteData $end
 $var wire 32 "! io_memDeviceWriteData $end
 $var wire 32 ") io_DMEMReadData $end
 $var wire 1 ", reset $end
 $var wire 1 "2 io_setup $end
 $var wire 1 "7 io_memDeviceWriteEnable $end
 $var wire 32 "A io_regsWriteData $end
  $scope module CPU.MEM $end
  $upscope $end
  $scope module CPU.ID.registers $end
  $upscope $end
  $scope module CPU.IF $end
  $upscope $end
  $scope module CPU.IF.IMEM $end
  $upscope $end
  $scope module CPU.MEM.DMEM $end
  $upscope $end
  $scope module CPU $end
   $var wire 1 2 testHarness_regUpdates_writeEnable $end
   $var wire 1 > ID $end
   $var wire 1 D testHarness_memUpdates_writeEnable $end
   $var wire 32 K testHarness_regUpdates_writeData $end
   $var wire 5 L testHarness_regUpdates_writeAddress $end
   $var wire 5 M testHarness_setupSignals_registerSignals_readAddress $end
   $var wire 32 P testHarness_testReadouts_registerRead $end
   $var wire 32 T testHarness_currentPC $end
   $var wire 1 W IF $end
   $var wire 32 [ testHarness_memUpdates_writeAddress $end
   $var wire 1 ^ testHarness_setupSignals_DMEMsignals_setup $end
   $var wire 32 d testHarness_testReadouts_DMEMread $end
   $var wire 32 f testHarness_setupSignals_DMEMsignals_dataIn $end
   $var wire 1 g testHarness_setupSignals_IMEMsignals_setup $end
   $var wire 1 q clock $end
   $var wire 32 s testHarness_setupSignals_DMEMsignals_dataAddress $end
   $var wire 1 x testHarness_setupSignals_registerSignals_setup $end
   $var wire 1 { MEM $end
   $var wire 1 "" testHarness_setupSignals_registerSignals_writeEnable $end
   $var wire 32 "6 testHarness_memUpdates_writeData $end
   $var wire 32 "= testHarness_setupSignals_registerSignals_writeData $end
   $var wire 1 "@ reset $end
   $var wire 1 "B testHarness_setupSignals_DMEMsignals_writeEnable $end
    $scope module MEM $end
     $var wire 1 8 DMEM $end
     $var wire 32 ; testHarness_testUpdates_writeAddress $end
     $var wire 32 U testHarness_DMEMsetup_dataAddress $end
     $var wire 1 p testHarness_testUpdates_writeEnable $end
     $var wire 1 z testHarness_DMEMsetup_writeEnable $end
     $var wire 32 } testHarness_DMEMpeek $end
     $var wire 1 "* testHarness_DMEMsetup_setup $end
     $var wire 32 "0 testHarness_testUpdates_writeData $end
     $var wire 1 "4 clock $end
     $var wire 32 "> testHarness_DMEMsetup_dataIn $end
      $scope module DMEM $end
       $var wire 32 & testHarness_testUpdates_writeData $end
       $var wire 1 ) _GEN_6 $end
       $var wire 12 - data__T_24_addr_pipe_0 $end
       $var wire 1 6 testHarness_testUpdates_writeEnable $end
       $var wire 32 : testHarness_setup_dataAddress $end
       $var wire 32 ? testHarness_testUpdates_writeAddress $end
       $var wire 32 F addressSource $end
       $var wire 32 J data $end
       $var wire 1 r testHarness_setup_writeEnable $end
       $var wire 1 t testHarness_setup_setup $end
       $var wire 1 "& clock $end
       $var wire 32 "+ testHarness_setup_dataIn $end
       $var wire 32 "9 io_dataOut $end
        $scope module data $end
          $scope module _T_26 $end
           $var wire 1 ! clk $end
           $var wire 12 B addr $end
           $var wire 32 G pipeline_data_0 $end
           $var wire 1 \ pipeline_valid_0 $end
           $var wire 32 c data $end
           $var wire 1 "# en $end
           $var wire 12 "' pipeline_addr_0 $end
           $var wire 1 "- valid $end
           $var wire 1 "< mask $end
          $upscope $end
          $scope module _T_24 $end
           $var wire 32 5 data $end
           $var wire 1 h clk $end
           $var wire 1 "% en $end
           $var wire 12 "( addr $end
          $upscope $end
        $upscope $end
      $upscope $end
    $upscope $end
    $scope module ID $end
     $var wire 1 " testHarness_registerSetup_writeEnable $end
     $var wire 32 = testHarness_registerPeek $end
     $var wire 1 C testHarness_testUpdates_writeEnable $end
     $var wire 32 H testHarness_registerSetup_writeData $end
     $var wire 5 N testHarness_testUpdates_writeAddress $end
     $var wire 5 k testHarness_registerSetup_readAddress $end
     $var wire 1 o registers $end
     $var wire 1 "3 testHarness_registerSetup_setup $end
     $var wire 32 "5 testHarness_testUpdates_writeData $end
     $var wire 1 ": clock $end
      $scope module registers $end
       $var wire 1 % testHarness_testUpdates_writeEnable $end
       $var wire 1 ' testHarness_setup_setup $end
       $var wire 32 , testHarness_testUpdates_writeData $end
       $var wire 5 . readAddress1 $end
       $var wire 1 0 clock $end
       $var wire 32 1 io_readData1 $end
       $var wire 32 3 registerFile $end
       $var wire 1 7 testHarness_setup_writeEnable $end
       $var wire 1 @ writeEnable $end
       $var wire 5 O testHarness_testUpdates_writeAddress $end
       $var wire 32 ` testHarness_setup_writeData $end
       $var wire 5 y testHarness_setup_readAddress $end
        $scope module registerFile $end
          $scope module _T_33 $end
           $var wire 1 # en $end
           $var wire 1 ( pipeline_valid_0 $end
           $var wire 1 / clk $end
           $var wire 5 S pipeline_addr_0 $end
           $var wire 1 V mask $end
           $var wire 1 e valid $end
           $var wire 5 w addr $end
           $var wire 32 "$ pipeline_data_0 $end
           $var wire 32 "8 data $end
          $upscope $end
          $scope module _T_41 $end
           $var wire 32 A data $end
           $var wire 1 R en $end
           $var wire 1 n clk $end
           $var wire 5 "1 addr $end
          $upscope $end
          $scope module _T_38 $end
           $var wire 1 E clk $end
           $var wire 1 b en $end
           $var wire 5 j addr $end
           $var wire 32 ". data $end
          $upscope $end
        $upscope $end
      $upscope $end
    $upscope $end
    $scope module IF $end
     $var wire 1 $ testHarness_IMEMsetup_setup $end
     $var wire 1 9 IMEM $end
     $var wire 32 Q PC $end
     $var wire 1 X clock $end
     $var wire 32 Y testHarness_PC $end
     $var wire 1 | reset $end
     $var wire 32 "? _GEN_0 $end
      $scope module IMEM $end
       $var wire 32 "/ testHarness_requestedAddress $end
       $var wire 32 "; io_instructionAddress $end
      $upscope $end
    $upscope $end
  $upscope $end
  $scope module CPU.ID $end
  $upscope $end
$upscope $end
$enddefinitions $end
$dumpvars
0X
0C
b00000000000000000000000000000000 Y
0""
1"<
0"7
0o
b00000000000000000000000000000000 ">
0R
b00000000000000000000000000000000 "8
b00000000000000000000000000000000 l
b00000000000000000000000000000000 :
b00000000000000000000000000000000 Q
b00000000000000000000000000000000 }
0g
b00000000000000000000000000000000 `
b00000000000000000000000000000000 K
b00000000000000000000000000000000 ".
b000000000000 "(
0"@
0D
0/
0"#
0x
0":
b00000 S
0z
b00000000000000000000000000000000 s
0r
1)
0]
b00000 j
0@
b00000000000000000000000000000000 A
0W
b00000000000000000000000000000000 ;
0%
b00000 O
b000000000000 -
b00000000000000000000000000000000 "=
b00000000000000000000000000000000 Z
0p
b00000000000000000000000000000000 T
0>
0"2
b00000000000000000000000000000000 ?
06
0!
b00000 .
b00000000000000000000000000000000 "9
0"4
b00000 y
b00000000000000000000000000000000 P
b00000000000000000000000000000000 3
0{
b00000000000000000000000000000000 "5
b00000000000000000000000000000000 J
b000000000000 "'
b00000000000000000000000000000000 "/
0"*
0b
0E
00
0(
b00000000000000000000000000000000 "+
b00000000000000000000000000000000 _
1V
0u
b00000000000000000000000000000000 [
b00000000000000000000000000000000 "6
b00000000000000000000000000000000 "!
0q
0i
b00000000000000000000000000000000 U
0"3
b00000 a
b00000 L
0"
07
09
0"-
b00000000000000000000000000000000 f
0e
b00000 "1
b00000000000000000000000000000000 I
b00000000000000000000000000000000 4
0|
b00000000000000000000000000000000 "0
b00000000000000000000000000000000 d
0"B
b00000000000000000000000000000000 G
b00000000000000000000000000000000 "A
b00000000000000000000000000000000 "$
b00000000000000000000000000000000 ,
b00000 M
0t
b00000000000000000000000000000000 ";
b00000000000000000000000000000000 &
0n
b00000000000000000000000000000000 =
0'
0<
b00000000000000000000000000000000 "?
b00000 w
08
0",
0#
02
b000000000000 B
b00000000000000000000000000000000 5
b00000000000000000000000000000000 ~
0h
b00000 m
b00000000000000000000000000000000 c
b00000000000000000000000000000000 ")
b00000000000000000000000000000000 F
b00000000000000000000000000000000 1
0\
b00000000000000000000000000000000 H
0"&
b00000000000000000000000000000000 +
0*
0^
b00000 k
1"%
b00000 N
0$
b00000000000000000000000000000000 v
$end
#0
1",
1"@
1|
#1
1"4
1"&
10
1":
1n
1!
1h
1/
1i
1X
1q
1E
#6
0!
00
0"4
0E
0q
0h
0/
0n
0i
0X
0"&
0":
#11
1"4
1"&
10
1":
1n
1!
1h
1/
1i
1X
1q
1E
#16
0!
00
0"4
0E
0q
0h
0/
0n
0i
0X
0"&
0":
#21
1"4
1"&
10
1":
1n
1!
1h
1/
1i
1X
1q
1E
#26
0!
00
0"4
0E
0q
0h
0/
0n
0i
0X
0"&
0":
#31
1"4
1"&
10
1":
1n
1!
1h
1/
1i
1X
1q
1E
#36
0!
00
0"4
0E
0q
0h
0/
0n
0i
0X
0"&
0":
#41
1"4
1"&
10
1":
1n
1!
1h
1/
1i
1X
1q
1E
#46
0!
0"4
1"*
0/
1^
b11111110000000010000000100010011 ~
1t
0n
1"3
1'
1$
0"&
0":
00
1g
0E
0q
0h
1"2
1x
0",
0i
0X
0"@
0|
#51
1"4
1"&
10
1":
1n
1!
1h
1/
1i
1X
1q
1E
#56
0!
0"4
b00000000000000000000000000010011 ~
0/
0n
0"&
0":
00
0E
0q
b00000000000000000000000000000100 4
0h
0i
0X
#61
1"4
1"&
10
1":
1n
1!
1h
1/
1i
1X
1q
1E
#66
b00000000000000000000000000001000 4
0!
00
0"4
0E
0q
0h
0/
0n
0i
0X
0"&
0":
#71
1"4
1"&
10
1":
1n
1!
1h
1/
1i
1X
1q
1E
#76
0!
00
0"4
0E
0q
b00000000000000000000000000001100 4
0h
0/
0n
0i
0X
0"&
0":
#81
1"4
1"&
10
1":
1n
1!
1h
1/
1i
1X
1q
1E
#86
0!
00
0"4
0E
0q
b00000000000000000000000000010000 4
0h
0/
0n
0i
0X
0"&
0":
#91
1"4
1"&
10
1":
1n
1!
1h
1/
1i
1X
1q
1E
#96
0!
0"4
0/
0n
b00000000000000000000000000010100 4
0"&
0":
00
0E
0q
0h
b00000000000100010010111000100011 ~
0i
0X
#101
1"4
1"&
10
1":
1n
1!
1h
1/
1i
1X
1q
1E
#106
0!
0"4
b00000000000000000000000000010011 ~
0/
0n
0"&
0":
00
0E
0q
0h
b00000000000000000000000000011000 4
0i
0X
#111
1"4
1"&
10
1":
1n
1!
1h
1/
1i
1X
1q
1E
#116
0!
00
0"4
0E
0q
0h
0/
b00000000000000000000000000011100 4
0n
0i
0X
0"&
0":
#121
1"4
1"&
10
1":
1n
1!
1h
1/
1i
1X
1q
1E
#126
0!
00
0"4
0E
0q
0h
0/
b00000000000000000000000000100000 4
0n
0i
0X
0"&
0":
#131
1"4
1"&
10
1":
1n
1!
1h
1/
1i
1X
1q
1E
#136
0!
00
0"4
0E
0q
0h
0/
0n
0i
0X
0"&
0":
b00000000000000000000000000100100 4
#141
1"4
1"&
10
1":
1n
1!
1h
1/
1i
1X
1q
1E
#146
0!
0"4
0/
0n
0"&
0":
b00000000100000010010110000100011 ~
00
0E
0q
0h
b00000000000000000000000000101000 4
0i
0X
#151
1"4
1"&
10
1":
1n
1!
1h
1/
1i
1X
1q
1E
#156
0!
0"4
b00000000000000000000000000010011 ~
0/
b00000000000000000000000000101100 4
0n
0"&
0":
00
0E
0q
0h
0i
0X
#161
1"4
1"&
10
1":
1n
1!
1h
1/
1i
1X
1q
1E
#166
0!
00
0"4
0E
0q
0h
0/
0n
0i
0X
0"&
b00000000000000000000000000110000 4
0":
#171
1"4
1"&
10
1":
1n
1!
1h
1/
1i
1X
1q
1E
#176
0!
00
0"4
0E
0q
b00000000000000000000000000110100 4
0h
0/
0n
0i
0X
0"&
0":
#181
1"4
1"&
10
1":
1n
1!
1h
1/
1i
1X
1q
1E
#186
0!
00
0"4
0E
0q
0h
0/
0n
0i
0X
0"&
0":
b00000000000000000000000000111000 4
#191
1"4
1"&
10
1":
1n
1!
1h
1/
1i
1X
1q
1E
#196
0!
0"4
b00000000000000000000000000111100 4
0/
0n
0"&
0":
00
0E
0q
0h
b00000010000000010000010000010011 ~
0i
0X
#201
1"4
1"&
10
1":
1n
1!
1h
1/
1i
1X
1q
1E
#206
0!
0"4
b00000000000000000000000000010011 ~
0/
0n
0"&
b00000000000000000000000001000000 4
0":
00
0E
0q
0h
0i
0X
#211
1"4
1"&
10
1":
1n
1!
1h
1/
1i
1X
1q
1E
#216
0!
00
0"4
0E
0q
0h
0/
0n
0i
0X
0"&
b00000000000000000000000001000100 4
0":
#221
1"4
1"&
10
1":
1n
1!
1h
1/
1i
1X
1q
1E
#226
0!
00
0"4
0E
0q
0h
0/
0n
b00000000000000000000000001001000 4
0i
0X
0"&
0":
#231
1"4
1"&
10
1":
1n
1!
1h
1/
1i
1X
1q
1E
#236
b00000000000000000000000001001100 4
0!
00
0"4
0E
0q
0h
0/
0n
0i
0X
0"&
0":
#241
1"4
1"&
10
1":
1n
1!
1h
1/
1i
1X
1q
1E
#246
0!
0"4
b00000000000000000000000001010000 4
0/
0n
0"&
0":
00
0E
0q
0h
0i
0X
b00000000000000000000011110010011 ~
#251
1"4
1"&
10
1":
1n
1!
1h
1/
1i
1X
1q
1E
#256
0!
0"4
b00000000000000000000000001010100 4
b00000000000000000000000000010011 ~
0/
0n
0"&
0":
00
0E
0q
0h
0i
0X
#261
1"4
1"&
10
1":
1n
1!
1h
1/
1i
1X
1q
1E
#266
0!
00
0"4
0E
0q
0h
0/
0n
0i
0X
0"&
0":
b00000000000000000000000001011000 4
#271
1"4
1"&
10
1":
1n
1!
1h
1/
1i
1X
1q
1E
#276
0!
00
0"4
0E
0q
0h
0/
0n
b00000000000000000000000001011100 4
0i
0X
0"&
0":
#281
1"4
1"&
10
1":
1n
1!
1h
1/
1i
1X
1q
1E
#286
0!
00
0"4
0E
0q
0h
b00000000000000000000000001100000 4
0/
0n
0i
0X
0"&
0":
#291
1"4
1"&
10
1":
1n
1!
1h
1/
1i
1X
1q
1E
#296
0!
0"4
b00000000000000000000000001100100 4
0/
b00000000000001111010011110000011 ~
0n
0"&
0":
00
0E
0q
0h
0i
0X
#301
1"4
1"&
10
1":
1n
1!
1h
1/
1i
1X
1q
1E
#306
0!
0"4
b00000000000000000000000000010011 ~
0/
0n
0"&
0":
b00000000000000000000000001101000 4
00
0E
0q
0h
0i
0X
#311
1"4
1"&
10
1":
1n
1!
1h
1/
1i
1X
1q
1E
#316
0!
00
0"4
0E
0q
0h
b00000000000000000000000001101100 4
0/
0n
0i
0X
0"&
0":
#321
1"4
1"&
10
1":
1n
1!
1h
1/
1i
1X
1q
1E
#326
0!
00
0"4
0E
0q
0h
0/
0n
0i
0X
0"&
b00000000000000000000000001110000 4
0":
#331
1"4
1"&
10
1":
1n
1!
1h
1/
1i
1X
1q
1E
#336
0!
00
0"4
0E
0q
b00000000000000000000000001110100 4
0h
0/
0n
0i
0X
0"&
0":
#341
1"4
1"&
10
1":
1n
1!
1h
1/
1i
1X
1q
1E
#346
0!
0"4
b00000000000000000000000001111000 4
0/
0n
0"&
0":
00
0E
0q
0h
b11111110111101000010011000100011 ~
0i
0X
#351
1"4
1"&
10
1":
1n
1!
1h
1/
1i
1X
1q
1E
#356
0!
0"4
b00000000000000000000000001111100 4
b00000000000000000000000000010011 ~
0/
0n
0"&
0":
00
0E
0q
0h
0i
0X
#361
1"4
1"&
10
1":
1n
1!
1h
1/
1i
1X
1q
1E
#366
0!
00
0"4
0E
0q
b00000000000000000000000010000000 4
0h
0/
0n
0i
0X
0"&
0":
#371
1"4
1"&
10
1":
1n
1!
1h
1/
1i
1X
1q
1E
#376
0!
00
0"4
0E
0q
0h
0/
b00000000000000000000000010000100 4
0n
0i
0X
0"&
0":
#381
1"4
1"&
10
1":
1n
1!
1h
1/
1i
1X
1q
1E
#386
0!
00
0"4
0E
0q
0h
0/
0n
b00000000000000000000000010001000 4
0i
0X
0"&
0":
#391
1"4
1"&
10
1":
1n
1!
1h
1/
1i
1X
1q
1E
#396
0!
0"4
0/
b11111110110001000010010100000011 ~
0n
0"&
0":
00
0E
0q
b00000000000000000000000010001100 4
0h
0i
0X
#401
1"4
1"&
10
1":
1n
1!
1h
1/
1i
1X
1q
1E
#406
0!
0"4
b00000000000000000000000000010011 ~
0/
0n
b00000000000000000000000010010000 4
0"&
0":
00
0E
0q
0h
0i
0X
#411
1"4
1"&
10
1":
1n
1!
1h
1/
1i
1X
1q
1E
#416
0!
00
0"4
0E
0q
0h
0/
0n
b00000000000000000000000010010100 4
0i
0X
0"&
0":
#421
1"4
1"&
10
1":
1n
1!
1h
1/
1i
1X
1q
1E
#426
0!
00
0"4
0E
0q
0h
b00000000000000000000000010011000 4
0/
0n
0i
0X
0"&
0":
#431
1"4
1"&
10
1":
1n
1!
1h
1/
1i
1X
1q
1E
#436
0!
00
0"4
0E
0q
0h
b00000000000000000000000010011100 4
0/
0n
0i
0X
0"&
0":
#441
1"4
1"&
10
1":
1n
1!
1h
1/
1i
1X
1q
1E
#446
0!
0"4
b00001000110000000000000011101111 ~
0/
0n
0"&
0":
00
0E
0q
0h
b00000000000000000000000010100000 4
0i
0X
#451
1"4
1"&
10
1":
1n
1!
1h
1/
1i
1X
1q
1E
#456
0!
0"4
b00000000000000000000000000010011 ~
0/
0n
0"&
0":
00
0E
0q
0h
0i
0X
b00000000000000000000000010100100 4
#461
1"4
1"&
10
1":
1n
1!
1h
1/
1i
1X
1q
1E
#466
0!
00
0"4
0E
0q
0h
0/
0n
0i
0X
0"&
b00000000000000000000000010101000 4
0":
#471
1"4
1"&
10
1":
1n
1!
1h
1/
1i
1X
1q
1E
#476
0!
00
0"4
0E
0q
0h
0/
b00000000000000000000000010101100 4
0n
0i
0X
0"&
0":
#481
1"4
1"&
10
1":
1n
1!
1h
1/
1i
1X
1q
1E
#486
0!
00
0"4
0E
0q
0h
0/
b00000000000000000000000010110000 4
0n
0i
0X
0"&
0":
#491
1"4
1"&
10
1":
1n
1!
1h
1/
1i
1X
1q
1E
#496
0!
0"4
0/
b00000000000001010000011110110011 ~
0n
0"&
0":
00
0E
0q
0h
0i
0X
b00000000000000000000000010110100 4
#501
1"4
1"&
10
1":
1n
1!
1h
1/
1i
1X
1q
1E
#506
0!
0"4
b00000000000000000000000000010011 ~
0/
0n
0"&
0":
00
0E
0q
0h
b00000000000000000000000010111000 4
0i
0X
#511
1"4
1"&
10
1":
1n
1!
1h
1/
1i
1X
1q
1E
#516
0!
00
0"4
0E
0q
0h
b00000000000000000000000010111100 4
0/
0n
0i
0X
0"&
0":
#521
1"4
1"&
10
1":
1n
1!
1h
1/
1i
1X
1q
1E
#526
0!
00
0"4
0E
0q
b00000000000000000000000011000000 4
0h
0/
0n
0i
0X
0"&
0":
#531
1"4
1"&
10
1":
1n
1!
1h
1/
1i
1X
1q
1E
#536
0!
00
0"4
0E
0q
0h
0/
0n
b00000000000000000000000011000100 4
0i
0X
0"&
0":
#541
1"4
1"&
10
1":
1n
1!
1h
1/
1i
1X
1q
1E
#546
0!
0"4
0/
0n
b00000000000001111000010100110011 ~
0"&
0":
00
0E
0q
0h
b00000000000000000000000011001000 4
0i
0X
#551
1"4
1"&
10
1":
1n
1!
1h
1/
1i
1X
1q
1E
#556
0!
0"4
b00000000000000000000000000010011 ~
b00000000000000000000000011001100 4
0/
0n
0"&
0":
00
0E
0q
0h
0i
0X
#561
1"4
1"&
10
1":
1n
1!
1h
1/
1i
1X
1q
1E
#566
0!
00
0"4
0E
0q
0h
b00000000000000000000000011010000 4
0/
0n
0i
0X
0"&
0":
#571
1"4
1"&
10
1":
1n
1!
1h
1/
1i
1X
1q
1E
#576
0!
00
0"4
0E
0q
0h
b00000000000000000000000011010100 4
0/
0n
0i
0X
0"&
0":
#581
1"4
1"&
10
1":
1n
1!
1h
1/
1i
1X
1q
1E
#586
0!
00
0"4
0E
0q
b00000000000000000000000011011000 4
0h
0/
0n
0i
0X
0"&
0":
#591
1"4
1"&
10
1":
1n
1!
1h
1/
1i
1X
1q
1E
#596
0!
0"4
b00000000000000000000000011011100 4
0/
0n
0"&
0":
00
0E
0q
0h
b00000001110000010010000010000011 ~
0i
0X
#601
1"4
1"&
10
1":
1n
1!
1h
1/
1i
1X
1q
1E
#606
0!
0"4
b00000000000000000000000011100000 4
b00000000000000000000000000010011 ~
0/
0n
0"&
0":
00
0E
0q
0h
0i
0X
#611
1"4
1"&
10
1":
1n
1!
1h
1/
1i
1X
1q
1E
#616
0!
00
0"4
0E
0q
0h
0/
0n
b00000000000000000000000011100100 4
0i
0X
0"&
0":
#621
1"4
1"&
10
1":
1n
1!
1h
1/
1i
1X
1q
1E
#626
0!
00
0"4
0E
0q
0h
0/
0n
b00000000000000000000000011101000 4
0i
0X
0"&
0":
#631
1"4
1"&
10
1":
1n
1!
1h
1/
1i
1X
1q
1E
#636
0!
00
0"4
0E
0q
0h
0/
0n
0i
0X
0"&
0":
b00000000000000000000000011101100 4
#641
1"4
1"&
10
1":
1n
1!
1h
1/
1i
1X
1q
1E
#646
0!
0"4
0/
0n
0"&
0":
00
0E
0q
b00000001100000010010010000000011 ~
0h
b00000000000000000000000011110000 4
0i
0X
#651
1"4
1"&
10
1":
1n
1!
1h
1/
1i
1X
1q
1E
#656
0!
0"4
b00000000000000000000000000010011 ~
0/
0n
0"&
0":
00
0E
0q
b00000000000000000000000011110100 4
0h
0i
0X
#661
1"4
1"&
10
1":
1n
1!
1h
1/
1i
1X
1q
1E
#666
0!
00
0"4
0E
0q
0h
0/
0n
0i
0X
0"&
b00000000000000000000000011111000 4
0":
#671
1"4
1"&
10
1":
1n
1!
1h
1/
1i
1X
1q
1E
#676
0!
00
0"4
0E
0q
0h
0/
b00000000000000000000000011111100 4
0n
0i
0X
0"&
0":
#681
1"4
1"&
10
1":
1n
1!
1h
1/
1i
1X
1q
1E
#686
0!
00
0"4
0E
0q
0h
0/
0n
b00000000000000000000000100000000 4
0i
0X
0"&
0":
#691
1"4
1"&
10
1":
1n
1!
1h
1/
1i
1X
1q
1E
#696
0!
0"4
0/
0n
0"&
0":
00
0E
0q
0h
b00000010000000010000000100010011 ~
0i
0X
b00000000000000000000000100000100 4
#701
1"4
1"&
10
1":
1n
1!
1h
1/
1i
1X
1q
1E
#706
0!
0"4
b00000000000000000000000100001000 4
b00000000000000000000000000010011 ~
0/
0n
0"&
0":
00
0E
0q
0h
0i
0X
#711
1"4
1"&
10
1":
1n
1!
1h
1/
1i
1X
1q
1E
#716
0!
00
0"4
0E
0q
0h
0/
b00000000000000000000000100001100 4
0n
0i
0X
0"&
0":
#721
1"4
1"&
10
1":
1n
1!
1h
1/
1i
1X
1q
1E
#726
0!
00
0"4
0E
0q
b00000000000000000000000100010000 4
0h
0/
0n
0i
0X
0"&
0":
#731
1"4
1"&
10
1":
1n
1!
1h
1/
1i
1X
1q
1E
#736
0!
00
0"4
0E
0q
0h
0/
0n
0i
0X
0"&
b00000000000000000000000100010100 4
0":
#741
1"4
1"&
10
1":
1n
1!
1h
1/
1i
1X
1q
1E
#746
0!
0"4
0/
0n
0"&
b00000000000000001000000001100111 ~
0":
00
0E
0q
0h
0i
0X
b00000000000000000000000100011000 4
#751
1"4
1"&
10
1":
1n
1!
1h
1/
1i
1X
1q
1E
#756
0!
0"4
b00000000000000000000000000010011 ~
0/
0n
b00000000000000000000000100011100 4
0"&
0":
00
0E
0q
0h
0i
0X
#761
1"4
1"&
10
1":
1n
1!
1h
1/
1i
1X
1q
1E
#766
0!
00
0"4
0E
0q
b00000000000000000000000100100000 4
0h
0/
0n
0i
0X
0"&
0":
#771
1"4
1"&
10
1":
1n
1!
1h
1/
1i
1X
1q
1E
#776
0!
00
0"4
0E
0q
0h
b00000000000000000000000100100100 4
0/
0n
0i
0X
0"&
0":
#781
1"4
1"&
10
1":
1n
1!
1h
1/
1i
1X
1q
1E
#786
0!
00
0"4
0E
0q
0h
0/
0n
0i
0X
0"&
0":
b00000000000000000000000100101000 4
#791
1"4
1"&
10
1":
1n
1!
1h
1/
1i
1X
1q
1E
#796
0!
0"4
0/
0n
0"&
b00000000000000000000000100101100 4
0":
00
0E
0q
0h
0i
0X
b11111100000000010000000100010011 ~
#801
1"4
1"&
10
1":
1n
1!
1h
1/
1i
1X
1q
1E
#806
0!
0"4
b00000000000000000000000000010011 ~
0/
0n
0"&
0":
00
0E
0q
0h
b00000000000000000000000100110000 4
0i
0X
#811
1"4
1"&
10
1":
1n
1!
1h
1/
1i
1X
1q
1E
#816
0!
00
0"4
0E
0q
0h
0/
0n
0i
0X
0"&
b00000000000000000000000100110100 4
0":
#821
1"4
1"&
10
1":
1n
1!
1h
1/
1i
1X
1q
1E
#826
0!
00
0"4
0E
0q
0h
b00000000000000000000000100111000 4
0/
0n
0i
0X
0"&
0":
#831
1"4
1"&
10
1":
1n
1!
1h
1/
1i
1X
1q
1E
#836
0!
00
0"4
0E
0q
b00000000000000000000000100111100 4
0h
0/
0n
0i
0X
0"&
0":
#841
1"4
1"&
10
1":
1n
1!
1h
1/
1i
1X
1q
1E
#846
0!
0"4
0/
0n
b00000010100000010010111000100011 ~
0"&
0":
00
0E
0q
0h
b00000000000000000000000101000000 4
0i
0X
#851
1"4
1"&
10
1":
1n
1!
1h
1/
1i
1X
1q
1E
#856
0!
0"4
b00000000000000000000000000010011 ~
0/
0n
b00000000000000000000000101000100 4
0"&
0":
00
0E
0q
0h
0i
0X
#861
1"4
1"&
10
1":
1n
1!
1h
1/
1i
1X
1q
1E
#866
0!
00
0"4
0E
0q
0h
0/
0n
0i
0X
0"&
0":
b00000000000000000000000101001000 4
#871
1"4
1"&
10
1":
1n
1!
1h
1/
1i
1X
1q
1E
#876
0!
00
0"4
0E
0q
0h
0/
b00000000000000000000000101001100 4
0n
0i
0X
0"&
0":
#881
1"4
1"&
10
1":
1n
1!
1h
1/
1i
1X
1q
1E
#886
0!
00
0"4
0E
0q
0h
b00000000000000000000000101010000 4
0/
0n
0i
0X
0"&
0":
#891
1"4
1"&
10
1":
1n
1!
1h
1/
1i
1X
1q
1E
#896
0!
0"4
0/
0n
b00000100000000010000010000010011 ~
0"&
0":
b00000000000000000000000101010100 4
00
0E
0q
0h
0i
0X
#901
1"4
1"&
10
1":
1n
1!
1h
1/
1i
1X
1q
1E
#906
0!
0"4
b00000000000000000000000101011000 4
b00000000000000000000000000010011 ~
0/
0n
0"&
0":
00
0E
0q
0h
0i
0X
#911
1"4
1"&
10
1":
1n
1!
1h
1/
1i
1X
1q
1E
#916
0!
00
0"4
0E
0q
0h
0/
b00000000000000000000000101011100 4
0n
0i
0X
0"&
0":
#921
1"4
1"&
10
1":
1n
1!
1h
1/
1i
1X
1q
1E
#926
0!
00
0"4
0E
0q
0h
b00000000000000000000000101100000 4
0/
0n
0i
0X
0"&
0":
#931
1"4
1"&
10
1":
1n
1!
1h
1/
1i
1X
1q
1E
#936
0!
00
0"4
0E
0q
0h
0/
0n
0i
0X
0"&
0":
b00000000000000000000000101100100 4
#941
1"4
1"&
10
1":
1n
1!
1h
1/
1i
1X
1q
1E
#946
0!
0"4
b00000000000000000000000101101000 4
0/
0n
0"&
0":
00
0E
0q
0h
b11111100101001000010011000100011 ~
0i
0X
#951
1"4
1"&
10
1":
1n
1!
1h
1/
1i
1X
1q
1E
#956
0!
0"4
b00000000000000000000000101101100 4
b00000000000000000000000000010011 ~
0/
0n
0"&
0":
00
0E
0q
0h
0i
0X
#961
1"4
1"&
10
1":
1n
1!
1h
1/
1i
1X
1q
1E
#966
0!
00
0"4
0E
0q
0h
0/
0n
b00000000000000000000000101110000 4
0i
0X
0"&
0":
#971
1"4
1"&
10
1":
1n
1!
1h
1/
1i
1X
1q
1E
#976
0!
00
0"4
0E
0q
b00000000000000000000000101110100 4
0h
0/
0n
0i
0X
0"&
0":
#981
1"4
1"&
10
1":
1n
1!
1h
1/
1i
1X
1q
1E
#986
0!
00
0"4
0E
0q
0h
0/
0n
b00000000000000000000000101111000 4
0i
0X
0"&
0":
#991
1"4
1"&
10
1":
1n
1!
1h
1/
1i
1X
1q
1E
#996
0!
0"4
b11111110000001000010010000100011 ~
0/
0n
0"&
0":
00
0E
0q
0h
b00000000000000000000000101111100 4
0i
0X
#1001
1"4
1"&
10
1":
1n
1!
1h
1/
1i
1X
1q
1E
#1006
0!
0"4
b00000000000000000000000110000000 4
b00000000000000000000000000010011 ~
0/
0n
0"&
0":
00
0E
0q
0h
0i
0X
#1011
1"4
1"&
10
1":
1n
1!
1h
1/
1i
1X
1q
1E
#1016
0!
00
0"4
0E
0q
0h
b00000000000000000000000110000100 4
0/
0n
0i
0X
0"&
0":
#1021
1"4
1"&
10
1":
1n
1!
1h
1/
1i
1X
1q
1E
#1026
0!
00
0"4
0E
0q
b00000000000000000000000110001000 4
0h
0/
0n
0i
0X
0"&
0":
#1031
1"4
1"&
10
1":
1n
1!
1h
1/
1i
1X
1q
1E
#1036
0!
00
0"4
0E
0q
b00000000000000000000000110001100 4
0h
0/
0n
0i
0X
0"&
0":
#1041
1"4
1"&
10
1":
1n
1!
1h
1/
1i
1X
1q
1E
